<svg width="153" height="29" viewBox="0 0 153 29" fill="none" xmlns="http://www.w3.org/2000/svg">
<path d="M13.1485 -0.000976562C14.4533 -0.000976562 15.6578 0.102522 16.7618 0.408917C17.8659 0.613864 18.7692 1.02376 19.5722 1.53613C20.3752 2.04849 20.9774 2.76581 21.3789 3.68909C21.7804 4.61033 21.9811 5.73856 21.9811 6.96825C21.9811 8.40185 21.68 9.63256 20.9774 10.5548C20.3752 11.4761 19.3715 12.2958 18.167 12.9107C19.8733 13.4231 21.1781 14.3443 21.9811 15.575C22.7841 16.8047 23.2859 18.3418 23.2859 20.0838C23.2859 21.5174 22.9848 22.7481 22.483 23.7729C21.9811 24.7976 21.1781 25.7199 20.2748 26.3347C19.3715 26.9506 18.2674 27.4629 17.063 27.7693C15.8585 28.0757 14.6541 28.2817 13.4496 28.2817H0V-0.000976562H13.1485ZM12.3455 11.4761C13.4496 11.4761 14.353 11.1686 15.0555 10.6563C15.7581 10.1439 16.0593 9.22164 16.0593 8.09443C16.0593 7.47959 15.9589 6.86475 15.7581 6.45485C15.5574 6.04496 15.2563 5.73754 14.8548 5.43012C14.4533 5.22517 14.0518 5.02022 13.55 4.91775C13.0481 4.81528 12.5463 4.81528 11.9441 4.81528H6.12259V11.4761H12.3455ZM12.6467 23.5679C13.2489 23.5679 13.8511 23.4655 14.353 23.364C14.8548 23.2605 15.3567 23.0556 15.7581 22.7481C16.1596 22.4407 16.4607 22.1333 16.7618 21.6209C16.9626 21.1086 17.1633 20.4927 17.1633 19.7764C17.1633 18.3418 16.7618 17.317 15.9589 16.5987C15.1559 15.9839 14.0518 15.6775 12.747 15.6775H6.12259V23.5679H12.6467ZM32.0181 23.4655C32.8211 24.2852 34.0255 24.6951 35.6315 24.6951C36.7355 24.6951 37.7392 24.3877 38.5422 23.8753C39.3452 23.2595 39.847 22.6457 40.0478 22.0298H44.9659C44.1629 24.4892 42.9585 26.2322 41.3526 27.3584C39.7466 28.3832 37.8396 28.999 35.5311 28.999C33.9252 28.999 32.52 28.6906 31.2152 28.1782C29.9104 27.6658 28.9067 26.9496 28.0033 25.9248C27.1 25.0026 26.3974 23.8753 25.9959 22.5422C25.4941 21.21 25.2933 19.7764 25.2933 18.1358C25.2933 16.5987 25.4941 15.1651 25.9959 13.8319C26.4978 12.4998 27.2004 11.3736 28.1037 10.3488C29.007 9.42659 30.1111 8.6068 31.3155 8.09443C32.6204 7.58206 33.9252 7.27464 35.5311 7.27464C37.2374 7.27464 38.7429 7.58206 40.0478 8.29938C41.3526 9.01669 42.3563 9.83648 43.1592 11.0662C43.9622 12.1934 44.5644 13.5245 44.9659 14.9602C45.1666 16.3948 45.267 17.8294 45.1666 19.469H30.6129C30.6129 21.1086 31.2152 22.6457 32.0181 23.4655ZM38.3415 12.7057C37.6389 11.9884 36.5348 11.5785 35.23 11.5785C34.3266 11.5785 33.6241 11.7825 33.0218 12.0909C32.4196 12.3983 32.0181 12.8072 31.6167 13.2181C31.2152 13.629 31.0144 14.1404 30.9141 14.6527C30.8137 15.1651 30.7133 15.574 30.7133 15.9849H39.7466C39.5459 14.4478 39.0441 13.4231 38.3415 12.7057ZM52.9955 -0.000976562V10.6563H53.0959C53.7985 9.42659 54.7018 8.6068 55.8059 8.09443C56.91 7.58206 57.9137 7.27464 59.0177 7.27464C60.5233 7.27464 61.7278 7.47959 62.6311 7.88948C63.5344 8.29938 64.3374 8.91422 64.8392 9.63153C65.3411 10.3488 65.7426 11.2711 65.9433 12.2958C66.144 13.3206 66.2444 14.4488 66.2444 15.7799V28.3842H60.724V16.8047C60.724 15.0626 60.4229 13.8329 59.9211 13.0132C59.4192 12.1934 58.5159 11.7835 57.2111 11.7835C55.7055 11.7835 54.6015 12.2958 53.9992 13.1167C53.2966 14.0379 52.9955 15.575 52.9955 17.6245V28.3842H47.4752V-0.000976562H52.9955ZM70.2592 10.8612C70.8614 9.93895 71.564 9.32411 72.4674 8.70825C73.3707 8.19588 74.3744 7.78701 75.4785 7.58104C76.5826 7.37609 77.6856 7.27362 78.7907 7.27362C79.7944 7.27362 80.7981 7.37609 81.9032 7.47856C82.9069 7.58104 83.9106 7.88743 84.7126 8.29835C85.6159 8.70722 86.2181 9.32309 86.8213 10.0404C87.3222 10.7587 87.6233 11.7835 87.6233 13.0132V23.7729C87.6233 24.6951 87.7237 25.6174 87.824 26.4382C87.9254 27.258 88.2245 27.9753 88.5266 28.3842H82.9059C82.7041 28.1792 82.6038 27.7693 82.5044 27.4629C82.404 27.1545 82.404 26.7456 82.404 26.4382C81.5007 27.3594 80.497 27.9753 79.2926 28.3842C78.0881 28.7941 76.8837 28.8966 75.6792 28.8966C74.6755 28.8966 73.8726 28.7941 72.9692 28.4877C72.1663 28.2827 71.4637 27.8718 70.7611 27.3594C70.1589 26.8471 69.657 26.2322 69.2555 25.4135C68.9544 24.5927 68.7537 23.7729 68.7537 22.6457C68.7537 21.5174 68.9544 20.4927 69.3559 19.7764C69.7574 19.0591 70.2592 18.4443 70.8615 17.9319C71.4637 17.523 72.2666 17.1121 73.0696 16.9072C73.8726 16.7032 74.6755 16.4983 75.5789 16.3948L77.9877 16.0874C78.7907 15.9849 79.4933 15.8824 80.0955 15.7799C80.6977 15.575 81.1996 15.37 81.6011 15.0626C82.0026 14.7552 82.1029 14.3453 82.1029 13.7305C82.1029 13.1156 82.0026 12.6033 81.8018 12.2958C81.6011 11.9884 81.3 11.681 80.9988 11.4761C80.6967 11.2711 80.2963 11.1686 79.8948 11.0672C79.4933 10.9637 78.9914 10.9637 78.4896 10.9637C77.3855 10.9637 76.5826 11.1686 75.9803 11.681C75.3781 12.1934 74.9766 13.0132 74.8763 14.0379H69.3559C69.3559 12.8082 69.7574 11.681 70.2592 10.8612ZM81.1986 18.8541C80.8985 18.9566 80.497 19.0591 80.0945 19.1616C79.693 19.2651 79.2916 19.2651 78.7897 19.3665C78.3892 19.469 77.8874 19.469 77.4849 19.5715L76.2804 19.8789C75.879 19.9814 75.4775 20.1863 75.2767 20.3912C74.9756 20.5962 74.7749 20.9036 74.5742 21.211C74.274 21.6209 74.274 22.0308 74.274 22.5432C74.274 23.0556 74.3744 23.4655 74.5752 23.7729C74.7759 24.0803 74.9766 24.3887 75.2777 24.5927C75.5789 24.7976 75.9803 24.9011 76.3818 25.0026C76.7833 25.104 77.1838 25.105 77.6856 25.105C78.7907 25.105 79.5927 24.9011 80.1949 24.5927C80.7981 24.1838 81.1986 23.7729 81.5007 23.2605C81.8018 22.7481 82.0025 22.2358 82.0025 21.7234C82.1029 21.211 82.1029 20.8022 82.1029 20.4937V18.3418C81.8018 18.5467 81.5007 18.7527 81.1986 18.8541ZM95.955 7.78701V10.6563H96.0554C96.757 9.42659 97.6613 8.6068 98.7644 8.09443C99.8695 7.58206 101.074 7.27464 102.177 7.27464C103.683 7.27464 104.887 7.47959 105.79 7.88948C106.794 8.29938 107.498 8.91422 107.999 9.63153C108.501 10.3488 108.902 11.2711 109.203 12.2958C109.404 13.3206 109.505 14.4488 109.505 15.7799V28.3842H103.985V16.8047C103.985 15.0626 103.683 13.8329 103.181 13.0132C102.679 12.1934 101.776 11.681 100.37 11.681C98.8648 11.681 97.7597 12.2958 97.0581 13.2181C96.3555 14.1404 96.0544 15.6775 96.0544 17.7269V28.4867H90.534V7.78701H95.955ZM121.849 11.4761C120.946 11.4761 120.243 11.681 119.641 12.0919C119.039 12.5008 118.537 13.0132 118.136 13.7315C117.734 14.3463 117.534 15.0637 117.332 15.8834C117.132 16.7043 117.132 17.4205 117.132 18.2414C117.132 18.9576 117.233 19.7785 117.332 20.4947C117.534 21.3156 117.733 21.9294 118.136 22.5442C118.537 23.1601 118.939 23.6725 119.541 24.0813C120.143 24.4912 120.845 24.6972 121.748 24.6972C123.054 24.6972 124.058 24.2873 124.86 23.569C125.563 22.8527 126.065 21.8279 126.165 20.4947H131.485C131.085 23.2615 130.081 25.311 128.373 26.7467C126.667 28.1803 124.459 28.8986 121.748 28.8986C120.243 28.8986 118.837 28.5912 117.633 28.0788C116.327 27.5664 115.323 26.8491 114.421 25.9269C113.519 25.0046 112.814 23.8774 112.312 22.6477C111.811 21.3156 111.611 19.9824 111.611 18.4453C111.611 16.8057 111.811 15.3711 112.312 14.0389C112.814 12.7068 113.417 11.4771 114.32 10.4523C115.223 9.42761 116.327 8.7103 117.533 8.09545C118.836 7.58309 120.242 7.27567 121.848 7.27567C123.053 7.27567 124.157 7.48061 125.26 7.78803C126.363 8.09545 127.368 8.60782 128.171 9.22164C129.074 9.8375 129.777 10.6563 130.279 11.681C130.781 12.6033 131.083 13.8329 131.182 15.1651H125.762C125.564 12.7057 124.258 11.4761 121.849 11.4761ZM29.5089 1.94602H40.7504V4.7128H29.5089V1.94602ZM139.816 23.4655C140.62 24.2852 141.924 24.6951 143.429 24.6951C144.534 24.6951 145.538 24.3877 146.34 23.8753C147.144 23.2595 147.646 22.6457 147.845 22.0298H152.664C151.86 24.4892 150.657 26.2322 149.05 27.3584C147.443 28.3832 145.537 28.999 143.228 28.999C141.623 28.999 140.217 28.6906 138.912 28.1782C137.676 27.7079 136.573 26.934 135.701 25.9248C134.797 25.0026 134.095 23.8753 133.693 22.5422C133.191 21.21 132.991 19.7764 132.991 18.1358C132.991 16.5987 133.191 15.1651 133.693 13.8319C134.177 12.5467 134.892 11.3653 135.801 10.3488C136.704 9.42659 137.808 8.6068 139.013 8.09443C140.318 7.58206 141.723 7.27464 143.228 7.27464C144.934 7.27464 146.439 7.58206 147.645 8.29938C148.949 9.01669 149.952 9.83648 150.756 11.0662C151.559 12.1934 152.161 13.5245 152.563 14.9602C152.963 16.3938 153.065 17.9309 152.963 19.5715H138.41C138.41 21.1086 139.013 22.6457 139.816 23.4655ZM146.24 12.7057C145.537 11.9884 144.432 11.5785 143.128 11.5785C142.225 11.5785 141.521 11.7825 140.919 12.0909C140.317 12.3983 139.815 12.8072 139.515 13.2181C139.215 13.629 138.912 14.1404 138.812 14.6527C138.713 15.1651 138.612 15.574 138.612 15.9849H147.646C147.344 14.4478 146.842 13.4231 146.24 12.7057Z" fill="#F8F8F8"/>
</svg>
