<svg width="8" height="7" viewBox="0 0 8 7" fill="none" xmlns="http://www.w3.org/2000/svg">
<path d="M4.428 0.256V2.974L7.074 2.128L7.362 2.938L4.698 3.766L6.39 6.052L5.706 6.574L3.996 4.234L2.286 6.574L1.602 6.052L3.294 3.766L0.63 2.938L0.918 2.128L3.564 2.974V0.256H4.428Z" fill="#de0b57"/>
</svg>
