<svg width="130" height="106" viewBox="0 0 130 106" fill="none" xmlns="http://www.w3.org/2000/svg">
<path d="M3.12305 84.5947V93.2656H8.01074C9.54264 93.2656 10.7402 92.8805 11.6035 92.1104C12.4753 91.3402 12.9111 90.2822 12.9111 88.9365C12.9111 87.5739 12.471 86.5117 11.5908 85.75C10.7191 84.9798 9.51302 84.5947 7.97266 84.5947H3.12305ZM3.12305 94.1797V102H2.12012V83.6807H8.06152C9.87272 83.6807 11.3031 84.1504 12.3525 85.0898C13.4105 86.0208 13.9395 87.2946 13.9395 88.9111C13.9395 90.2314 13.5628 91.3444 12.8096 92.25C12.0648 93.1471 11.028 93.7269 9.69922 93.9893L14.4092 102H13.2412L8.6582 94.1416C8.48047 94.167 8.26465 94.1797 8.01074 94.1797H3.12305ZM21.0869 89.4697C19.7243 89.4697 18.6071 89.9521 17.7354 90.917C16.8636 91.8818 16.3939 93.1556 16.3262 94.7383H25.7461C25.7376 93.1725 25.306 91.903 24.4512 90.9297C23.5964 89.9564 22.4749 89.4697 21.0869 89.4697ZM25.6064 98.3057H26.5967C26.3682 99.4567 25.7715 100.396 24.8066 101.124C23.8418 101.843 22.64 102.203 21.2012 102.203C19.39 102.203 17.9554 101.602 16.8975 100.4C15.8395 99.1901 15.3105 97.527 15.3105 95.4111C15.3105 93.363 15.8395 91.7168 16.8975 90.4727C17.9554 89.2201 19.3561 88.5938 21.0996 88.5938C22.8008 88.5938 24.1676 89.182 25.2002 90.3584C26.2412 91.5348 26.7617 93.0837 26.7617 95.0049V95.5635H16.3135V95.6143C16.3135 97.3916 16.7536 98.7881 17.6338 99.8037C18.5225 100.819 19.7158 101.327 21.2139 101.327C22.3903 101.327 23.3636 101.048 24.1338 100.489C24.9124 99.9307 25.4033 99.2028 25.6064 98.3057ZM33.1348 101.34C34.4382 101.34 35.5469 100.929 36.4609 100.108C37.3835 99.279 37.8447 98.276 37.8447 97.0996V95.1445L33.4395 95.4619C32.2038 95.555 31.2559 95.8597 30.5957 96.376C29.944 96.8838 29.6182 97.5736 29.6182 98.4453C29.6182 99.2917 29.9482 99.9857 30.6084 100.527C31.2686 101.069 32.1107 101.34 33.1348 101.34ZM32.9951 102.203C31.7087 102.203 30.6592 101.856 29.8467 101.162C29.0342 100.46 28.6279 99.554 28.6279 98.4453C28.6279 97.3197 29.0215 96.4352 29.8086 95.792C30.6042 95.1488 31.7679 94.7679 33.2998 94.6494L37.8447 94.332V93.1514C37.8447 92.0088 37.5146 91.1117 36.8545 90.46C36.2028 89.8083 35.293 89.4824 34.125 89.4824C32.9824 89.4824 32.0599 89.7575 31.3574 90.3076C30.6549 90.8577 30.2191 91.6322 30.0498 92.6309H29.0977C29.2246 91.3952 29.7367 90.4134 30.6338 89.6855C31.5394 88.9577 32.7074 88.5938 34.1377 88.5938C35.585 88.5938 36.7275 88.9958 37.5654 89.7998C38.4118 90.6038 38.835 91.6956 38.835 93.0752V102H37.8828V99.1689H37.8574C37.5189 100.066 36.8968 100.798 35.9912 101.365C35.0941 101.924 34.0954 102.203 32.9951 102.203ZM52.1143 92.7832H51.1367C50.9336 91.8184 50.4427 91.027 49.6641 90.4092C48.8854 89.7913 47.9417 89.4824 46.833 89.4824C45.3519 89.4824 44.1755 90.0156 43.3037 91.082C42.432 92.1484 41.9961 93.5872 41.9961 95.3984C41.9961 97.2181 42.432 98.6611 43.3037 99.7275C44.1755 100.785 45.3519 101.314 46.833 101.314C47.9417 101.314 48.8812 101.022 49.6514 100.438C50.43 99.8545 50.9209 99.0843 51.124 98.1279H52.1016C51.9069 99.3382 51.3271 100.32 50.3623 101.073C49.3975 101.826 48.221 102.203 46.833 102.203C45.0472 102.203 43.6296 101.594 42.5801 100.375C41.5306 99.1562 41.0059 97.4974 41.0059 95.3984C41.0059 93.3164 41.5306 91.6618 42.5801 90.4346C43.638 89.2074 45.0514 88.5938 46.8203 88.5938C48.2168 88.5938 49.3975 88.9915 50.3623 89.7871C51.3271 90.5742 51.9111 91.5729 52.1143 92.7832ZM55.0215 85.3311H55.999V88.7969H58.6523V89.6475H55.999V98.9658C55.999 99.7445 56.1514 100.303 56.4561 100.642C56.7607 100.98 57.2474 101.149 57.916 101.149C57.9414 101.149 58.0938 101.149 58.373 101.149C58.6608 101.141 58.8132 101.137 58.8301 101.137V102C58.7116 102.017 58.3604 102.025 57.7764 102.025C56.8031 102.025 56.1006 101.793 55.6689 101.327C55.2373 100.853 55.0215 100.075 55.0215 98.9912V89.6475H53.0537V88.7969H55.0215V85.3311ZM67.5518 102H66.5615V83.6807H67.6025L79.2695 100.172H79.3457V83.6807H80.3486V102H79.3965L67.6279 85.4072H67.5518V102ZM87.2422 101.34C88.5456 101.34 89.6543 100.929 90.5684 100.108C91.4909 99.279 91.9521 98.276 91.9521 97.0996V95.1445L87.5469 95.4619C86.3112 95.555 85.3633 95.8597 84.7031 96.376C84.0514 96.8838 83.7256 97.5736 83.7256 98.4453C83.7256 99.2917 84.0557 99.9857 84.7158 100.527C85.376 101.069 86.2181 101.34 87.2422 101.34ZM87.1025 102.203C85.8161 102.203 84.7666 101.856 83.9541 101.162C83.1416 100.46 82.7354 99.554 82.7354 98.4453C82.7354 97.3197 83.1289 96.4352 83.916 95.792C84.7116 95.1488 85.8753 94.7679 87.4072 94.6494L91.9521 94.332V93.1514C91.9521 92.0088 91.6221 91.1117 90.9619 90.46C90.3102 89.8083 89.4004 89.4824 88.2324 89.4824C87.0898 89.4824 86.1673 89.7575 85.4648 90.3076C84.7624 90.8577 84.3265 91.6322 84.1572 92.6309H83.2051C83.332 91.3952 83.8441 90.4134 84.7412 89.6855C85.6468 88.9577 86.8148 88.5938 88.2451 88.5938C89.6924 88.5938 90.835 88.9958 91.6729 89.7998C92.5192 90.6038 92.9424 91.6956 92.9424 93.0752V102H91.9902V99.1689H91.9648C91.6263 100.066 91.0042 100.798 90.0986 101.365C89.2015 101.924 88.2028 102.203 87.1025 102.203ZM96.5098 85.3311H97.4873V88.7969H100.141V89.6475H97.4873V98.9658C97.4873 99.7445 97.6396 100.303 97.9443 100.642C98.249 100.98 98.7357 101.149 99.4043 101.149C99.4297 101.149 99.582 101.149 99.8613 101.149C100.149 101.141 100.301 101.137 100.318 101.137V102C100.2 102.017 99.8486 102.025 99.2646 102.025C98.2913 102.025 97.5889 101.793 97.1572 101.327C96.7256 100.853 96.5098 100.075 96.5098 98.9912V89.6475H94.542V88.7969H96.5098V85.3311ZM102.692 102V88.7969H103.683V102H102.692ZM103.733 85.3184C103.581 85.4707 103.399 85.5469 103.188 85.5469C102.976 85.5469 102.794 85.4707 102.642 85.3184C102.489 85.166 102.413 84.984 102.413 84.7725C102.413 84.5609 102.489 84.3831 102.642 84.2393C102.794 84.0869 102.976 84.0107 103.188 84.0107C103.399 84.0107 103.581 84.0869 103.733 84.2393C103.886 84.3831 103.962 84.5609 103.962 84.7725C103.962 84.984 103.886 85.166 103.733 85.3184ZM116.454 88.7969L111.49 102H110.31L105.333 88.7969H106.387L110.881 101.01H110.919L115.413 88.7969H116.454ZM123.03 89.4697C121.668 89.4697 120.55 89.9521 119.679 90.917C118.807 91.8818 118.337 93.1556 118.27 94.7383H127.689C127.681 93.1725 127.249 91.903 126.395 90.9297C125.54 89.9564 124.418 89.4697 123.03 89.4697ZM127.55 98.3057H128.54C128.312 99.4567 127.715 100.396 126.75 101.124C125.785 101.843 124.583 102.203 123.145 102.203C121.333 102.203 119.899 101.602 118.841 100.4C117.783 99.1901 117.254 97.527 117.254 95.4111C117.254 93.363 117.783 91.7168 118.841 90.4727C119.899 89.2201 121.299 88.5938 123.043 88.5938C124.744 88.5938 126.111 89.182 127.144 90.3584C128.185 91.5348 128.705 93.0837 128.705 95.0049V95.5635H118.257V95.6143C118.257 97.3916 118.697 98.7881 119.577 99.8037C120.466 100.819 121.659 101.327 123.157 101.327C124.334 101.327 125.307 101.048 126.077 100.489C126.856 99.9307 127.347 99.2028 127.55 98.3057Z" fill="white"/>
<path d="M65.9446 31.5936C68.6754 31.5936 70.8892 29.2801 70.8892 26.4262C70.8892 23.5723 68.6754 21.2588 65.9446 21.2588C63.2138 21.2588 61 23.5723 61 26.4262C61 29.2801 63.2138 31.5936 65.9446 31.5936Z" fill="white"/>
<path d="M65.5008 15.9199C72.1383 15.9199 78.3051 16.9155 82.954 18.5874C88.5555 20.6024 92 23.6575 92 26.424C92 29.3066 88.3496 32.553 82.3347 34.6347C77.7871 36.2092 71.8017 37.0323 65.5008 37.0323C59.0398 37.0323 52.9236 36.2604 48.3238 34.6176C42.505 32.5393 39 29.252 39 26.424C39 23.6797 42.2893 20.6486 47.8124 18.6369C52.4792 16.9377 58.798 15.9199 65.5008 15.9199V15.9199Z" stroke="white" stroke-width="2" stroke-miterlimit="10"/>
<path d="M57.0525 21.2043C60.368 15.195 64.275 10.1095 67.9842 6.73685C72.4533 2.67258 76.7067 1.08103 78.9993 2.46254C81.3882 3.90211 82.2559 8.82875 80.9765 15.3162C80.0091 20.2206 77.7019 26.0489 74.5531 31.7543C71.3258 37.603 67.6296 42.7551 63.971 46.0987C59.3418 50.3286 54.8645 51.8587 52.5213 50.4464C50.2468 49.0752 49.3775 44.584 50.4674 38.5781C51.389 33.4995 53.7027 27.2716 57.0525 21.2043V21.2043Z" stroke="white" stroke-width="2" stroke-miterlimit="10"/>
<path d="M57.0463 31.7652C53.721 25.7611 51.4562 19.6852 50.5118 14.6425C49.3745 8.56657 50.1784 3.92001 52.4693 2.5351C54.8567 1.09041 59.3732 2.76563 64.1119 7.16287C67.6953 10.4877 71.3735 15.4877 74.5305 21.1879C77.7675 27.0316 80.1941 32.9503 81.1369 37.9316C82.3314 44.2363 81.364 49.0536 79.0225 50.4693C76.7495 51.844 72.5925 50.389 68.1577 46.4016C64.4125 43.0324 60.4042 37.8274 57.0463 31.7652V31.7652Z" stroke="white" stroke-width="2" stroke-miterlimit="10"/>
</svg>
