<svg width="58" height="114" viewBox="0 0 58 114" fill="none" xmlns="http://www.w3.org/2000/svg">
<path d="M15.0479 110.267C12.5934 110.267 10.6341 109.408 9.16992 107.689C7.71419 105.963 6.98633 103.644 6.98633 100.732C6.98633 97.8802 7.71419 95.6162 9.16992 93.9404C10.6257 92.2562 12.585 91.4141 15.0479 91.4141C16.9098 91.4141 18.5264 92.0023 19.8975 93.1787C21.2686 94.3467 22.0514 95.8024 22.2461 97.5459H21.2432C21.0485 96.0732 20.3587 94.8418 19.1738 93.8516C17.9974 92.8529 16.6221 92.3535 15.0479 92.3535C12.8981 92.3535 11.1885 93.1068 9.91895 94.6133C8.64941 96.1198 8.01465 98.1595 8.01465 100.732C8.01465 103.356 8.64941 105.447 9.91895 107.004C11.1969 108.553 12.9066 109.327 15.0479 109.327C16.6729 109.327 18.0609 108.883 19.2119 107.994C20.3714 107.097 21.0485 105.921 21.2432 104.465H22.2461C22.0345 106.2 21.2643 107.601 19.9355 108.667C18.6152 109.733 16.986 110.267 15.0479 110.267ZM23.6934 105.112H24.6963C24.7725 106.356 25.3395 107.372 26.3975 108.159C27.4554 108.946 28.7799 109.34 30.3711 109.34C31.9199 109.34 33.1852 108.951 34.167 108.172C35.1572 107.385 35.6523 106.39 35.6523 105.188C35.6523 104.232 35.3096 103.458 34.624 102.865C33.9385 102.273 32.8255 101.782 31.2852 101.393L29.1143 100.859C27.4131 100.428 26.1647 99.8522 25.3691 99.1328C24.582 98.4049 24.1885 97.4697 24.1885 96.3271C24.1885 94.9137 24.7682 93.7415 25.9277 92.8105C27.0872 91.8796 28.5091 91.4141 30.1934 91.4141C31.9115 91.4141 33.3503 91.8626 34.5098 92.7598C35.6693 93.6569 36.2786 94.7826 36.3379 96.1367H35.335C35.2673 95.0365 34.7467 94.1309 33.7734 93.4199C32.8086 92.7005 31.6068 92.3408 30.168 92.3408C28.7715 92.3408 27.5951 92.7174 26.6387 93.4707C25.6908 94.2155 25.2168 95.1592 25.2168 96.3018C25.2168 97.2074 25.5596 97.9437 26.2451 98.5107C26.9307 99.0778 28.0182 99.5475 29.5078 99.9199L31.5518 100.44C33.3376 100.881 34.6367 101.469 35.4492 102.205C36.2702 102.933 36.6807 103.902 36.6807 105.112C36.6807 106.636 36.0924 107.876 34.916 108.832C33.7396 109.788 32.1992 110.267 30.2949 110.267C28.416 110.267 26.863 109.788 25.6357 108.832C24.417 107.876 23.7695 106.636 23.6934 105.112ZM38.1406 105.112H39.1436C39.2197 106.356 39.7868 107.372 40.8447 108.159C41.9027 108.946 43.2272 109.34 44.8184 109.34C46.3672 109.34 47.6325 108.951 48.6143 108.172C49.6045 107.385 50.0996 106.39 50.0996 105.188C50.0996 104.232 49.7568 103.458 49.0713 102.865C48.3857 102.273 47.2728 101.782 45.7324 101.393L43.5615 100.859C41.8604 100.428 40.612 99.8522 39.8164 99.1328C39.0293 98.4049 38.6357 97.4697 38.6357 96.3271C38.6357 94.9137 39.2155 93.7415 40.375 92.8105C41.5345 91.8796 42.9564 91.4141 44.6406 91.4141C46.3587 91.4141 47.7975 91.8626 48.957 92.7598C50.1165 93.6569 50.7259 94.7826 50.7852 96.1367H49.7822C49.7145 95.0365 49.194 94.1309 48.2207 93.4199C47.2559 92.7005 46.054 92.3408 44.6152 92.3408C43.2188 92.3408 42.0423 92.7174 41.0859 93.4707C40.138 94.2155 39.6641 95.1592 39.6641 96.3018C39.6641 97.2074 40.0068 97.9437 40.6924 98.5107C41.3779 99.0778 42.4655 99.5475 43.9551 99.9199L45.999 100.44C47.7848 100.881 49.084 101.469 49.8965 102.205C50.7174 102.933 51.1279 103.902 51.1279 105.112C51.1279 106.636 50.5397 107.876 49.3633 108.832C48.1868 109.788 46.6465 110.267 44.7422 110.267C42.8633 110.267 41.3102 109.788 40.083 108.832C38.8643 107.876 38.2168 106.636 38.1406 105.112Z" fill="white"/>
<path d="M10.875 50.75L7.25 5.4375H50.75L47.125 50.75L29 56.1875L10.875 50.75Z" fill="white"/>
<path d="M47.125 9.0625H29V53.4688L43.5 48.9375L47.125 9.0625Z" fill="white"/>
<path d="M35.3438 31.7188H17.2188L16.3125 25.375L30.8125 20.8438H16.3125L15.4062 15.4062H43.5L42.5938 21.75L30.8125 26.2812H41.6875L39.875 43.5L29 47.125L18.125 43.5L17.2188 34.4375H22.6563L23.5625 38.9688L29 40.7812L34.4375 38.9688L35.3438 31.7188Z" fill="#302F2F"/>
</svg>
