<svg width="91" height="117" viewBox="0 0 91 117" fill="none" xmlns="http://www.w3.org/2000/svg">
<path d="M9.97852 87.6807H15.6406C18.4167 87.6807 20.5664 88.4805 22.0898 90.0801C23.6133 91.6797 24.375 93.931 24.375 96.834C24.375 99.7454 23.6133 102.001 22.0898 103.601C20.5664 105.2 18.4167 106 15.6406 106H9.97852V87.6807ZM10.9941 88.6074V105.073H15.6025C18.0908 105.073 20.0036 104.362 21.3408 102.94C22.6865 101.51 23.3594 99.4788 23.3594 96.8467C23.3594 94.1976 22.6865 92.1621 21.3408 90.7402C20.0036 89.3184 18.0908 88.6074 15.6025 88.6074H10.9941ZM28.082 92.7969V107.079C28.082 108.264 27.7985 109.123 27.2314 109.656C26.6644 110.189 25.8053 110.456 24.6543 110.456H24.2607V109.593H24.6035C25.4753 109.593 26.1058 109.398 26.4951 109.009C26.8929 108.628 27.0918 107.997 27.0918 107.117V92.7969H28.082ZM27.5869 89.5469C27.3669 89.5469 27.1807 89.4707 27.0283 89.3184C26.876 89.166 26.7998 88.984 26.7998 88.7725C26.7998 88.5609 26.876 88.3831 27.0283 88.2393C27.1807 88.0869 27.3669 88.0107 27.5869 88.0107C27.7985 88.0107 27.9805 88.0869 28.1328 88.2393C28.2852 88.3831 28.3613 88.5609 28.3613 88.7725C28.3613 88.984 28.2852 89.166 28.1328 89.3184C27.9805 89.4707 27.7985 89.5469 27.5869 89.5469ZM35.2295 105.34C36.5329 105.34 37.6416 104.929 38.5557 104.108C39.4782 103.279 39.9395 102.276 39.9395 101.1V99.1445L35.5342 99.4619C34.2985 99.555 33.3506 99.8597 32.6904 100.376C32.0387 100.884 31.7129 101.574 31.7129 102.445C31.7129 103.292 32.043 103.986 32.7031 104.527C33.3633 105.069 34.2054 105.34 35.2295 105.34ZM35.0898 106.203C33.8034 106.203 32.7539 105.856 31.9414 105.162C31.1289 104.46 30.7227 103.554 30.7227 102.445C30.7227 101.32 31.1162 100.435 31.9033 99.792C32.6989 99.1488 33.8626 98.7679 35.3945 98.6494L39.9395 98.332V97.1514C39.9395 96.0088 39.6094 95.1117 38.9492 94.46C38.2975 93.8083 37.3877 93.4824 36.2197 93.4824C35.0771 93.4824 34.1546 93.7575 33.4521 94.3076C32.7497 94.8577 32.3138 95.6322 32.1445 96.6309H31.1924C31.3193 95.3952 31.8314 94.4134 32.7285 93.6855C33.6341 92.9577 34.8021 92.5938 36.2324 92.5938C37.6797 92.5938 38.8223 92.9958 39.6602 93.7998C40.5065 94.6038 40.9297 95.6956 40.9297 97.0752V106H39.9775V103.169H39.9521C39.6136 104.066 38.9915 104.798 38.0859 105.365C37.1888 105.924 36.1901 106.203 35.0898 106.203ZM43.7607 106V92.7969H44.6875V95.666H44.7129C45.0176 94.7435 45.5762 94.0029 46.3887 93.4443C47.2096 92.8773 48.1745 92.5938 49.2832 92.5938C50.7389 92.5938 51.9069 93.0339 52.7871 93.9141C53.6673 94.7858 54.1074 95.9622 54.1074 97.4434V106H53.1172V97.5703C53.1172 96.3008 52.749 95.3021 52.0127 94.5742C51.2764 93.8464 50.2904 93.4824 49.0547 93.4824C47.7767 93.4824 46.7399 93.9141 45.9443 94.7773C45.1488 95.6322 44.751 96.7451 44.751 98.1162V106H43.7607ZM62.0039 105.276C63.4173 105.276 64.5684 104.73 65.457 103.639C66.3542 102.547 66.8027 101.129 66.8027 99.3857C66.8027 97.6423 66.3542 96.2246 65.457 95.1328C64.5684 94.0326 63.4173 93.4824 62.0039 93.4824C60.599 93.4824 59.4606 94.0283 58.5889 95.1201C57.7256 96.2119 57.2939 97.638 57.2939 99.3984C57.2939 101.159 57.7256 102.581 58.5889 103.664C59.4606 104.739 60.599 105.276 62.0039 105.276ZM62.2705 110.761C60.8825 110.761 59.7103 110.439 58.7539 109.796C57.806 109.161 57.2389 108.361 57.0527 107.396H58.0684C58.2969 108.133 58.7878 108.734 59.541 109.199C60.2943 109.665 61.221 109.897 62.3213 109.897C63.6839 109.897 64.7715 109.529 65.584 108.793C66.3965 108.065 66.8027 107.096 66.8027 105.886V102.496H66.7646C66.46 103.554 65.8633 104.43 64.9746 105.124C64.0944 105.818 63.0618 106.165 61.877 106.165C60.2096 106.165 58.8639 105.543 57.8398 104.299C56.8158 103.046 56.3037 101.409 56.3037 99.3857C56.3037 97.3545 56.8158 95.7168 57.8398 94.4727C58.8724 93.2201 60.2223 92.5938 61.8896 92.5938C63.0745 92.5938 64.1113 92.945 65 93.6475C65.8887 94.3499 66.498 95.2471 66.8281 96.3389H66.8535V92.7969H67.7803V105.848C67.7803 107.337 67.2809 108.526 66.2822 109.415C65.292 110.312 63.9548 110.761 62.2705 110.761ZM80.209 104.362C79.1341 105.59 77.7122 106.203 75.9434 106.203C74.1745 106.203 72.7526 105.59 71.6777 104.362C70.6029 103.135 70.0654 101.48 70.0654 99.3984C70.0654 97.3164 70.6029 95.6618 71.6777 94.4346C72.7526 93.2074 74.1745 92.5938 75.9434 92.5938C77.7122 92.5938 79.1341 93.2074 80.209 94.4346C81.2923 95.6618 81.834 97.3164 81.834 99.3984C81.834 101.48 81.2923 103.135 80.209 104.362ZM72.3887 103.728C73.2773 104.785 74.4622 105.314 75.9434 105.314C77.4245 105.314 78.6094 104.781 79.498 103.715C80.3952 102.648 80.8438 101.21 80.8438 99.3984C80.8438 97.5788 80.3952 96.14 79.498 95.082C78.6094 94.0156 77.4245 93.4824 75.9434 93.4824C74.4622 93.4824 73.2773 94.0156 72.3887 95.082C71.5 96.14 71.0557 97.5788 71.0557 99.3984C71.0557 101.218 71.5 102.661 72.3887 103.728Z" fill="white"/>
<path d="M44.2083 6.875V18.6959C43.4131 18.3728 41.697 18.3333 40.8514 18.3333C34.4897 18.3333 28.6008 21.3263 28.6008 29.7917C28.6008 39.9208 36.5771 41.25 41.9167 41.25C44.025 41.25 48.7917 41.0418 51.0833 40.3772V6.875H44.2083ZM55.6667 6.875V13.75H62.5417V6.875H55.6667ZM55.6667 18.3333V38.2735C55.6667 41.7477 53.5538 45.3639 48.7917 47.4402L55.3444 50.4077C62.004 48.1161 62.5417 40.5652 62.5417 38.2735V18.3333H55.6667ZM41.8495 24.1789C42.5829 24.1789 43.4063 24.3133 44.2083 24.4967V35.2747C43.4063 35.458 42.5829 35.5969 41.8495 35.5969C38.8474 35.5969 35.9368 34.65 35.9368 29.7917C35.9368 24.9333 38.8474 24.1789 41.8495 24.1789Z" fill="white"/>
</svg>
