<svg width="91" height="116" viewBox="0 0 91 116" fill="none" xmlns="http://www.w3.org/2000/svg">
<path fill-rule="evenodd" clip-rule="evenodd" d="M39.8524 0.000976562C35.6937 0.000976562 32.3225 3.26523 32.3225 7.29188V12.3394H45.355V13.7415H26.5302C22.3716 13.7415 19.0003 17.0058 19.0003 21.0324L19.0003 31.9688C19.0003 35.9955 22.3716 39.2597 26.5302 39.2597H30.8744V33.0905C30.8744 29.0638 34.2457 25.7996 38.4043 25.7996H52.3057C55.8246 25.7996 58.6772 23.0375 58.6772 19.6303V7.29188C58.6772 3.26523 55.3059 0.000976562 51.1472 0.000976562H39.8524ZM38.1147 8.9744C39.5542 8.9744 40.7212 7.84447 40.7212 6.45063C40.7212 5.05678 39.5542 3.92685 38.1147 3.92685C36.6752 3.92685 35.5082 5.05678 35.5082 6.45063C35.5082 7.84447 36.6752 8.9744 38.1147 8.9744Z" fill="white"/>
<path fill-rule="evenodd" clip-rule="evenodd" d="M51.1477 53.0009C55.3064 53.0009 58.6776 49.7367 58.6776 45.71V40.6625L45.6451 40.6625L45.6451 39.2604L64.4699 39.2604C68.6285 39.2604 71.9998 35.9961 71.9998 31.9695V21.0331C71.9998 17.0064 68.6285 13.7422 64.4699 13.7422L60.1257 13.7422V19.9114C60.1257 23.9381 56.7544 27.2023 52.5958 27.2023L38.6944 27.2023C35.1755 27.2023 32.3229 29.9644 32.3229 33.3716L32.3229 45.71C32.3229 49.7367 35.6942 53.0009 39.8528 53.0009H51.1477ZM52.8854 44.0275C51.4459 44.0275 50.2789 45.1574 50.2789 46.5513C50.2789 47.9451 51.4459 49.0751 52.8854 49.0751C54.3249 49.0751 55.4919 47.9451 55.4919 46.5513C55.4919 45.1574 54.3249 44.0275 52.8854 44.0275Z" fill="white"/>
<path d="M17.5957 86.6807H23.4482C25.2256 86.6807 26.6475 87.18 27.7139 88.1787C28.7887 89.1689 29.3262 90.4935 29.3262 92.1523C29.3262 93.8112 28.7887 95.1357 27.7139 96.126C26.6475 97.1162 25.2214 97.6113 23.4355 97.6113H18.5986V105H17.5957V86.6807ZM18.5986 87.5947V96.6973H23.2832C24.832 96.6973 26.055 96.291 26.9521 95.4785C27.8577 94.666 28.3105 93.5573 28.3105 92.1523C28.3105 90.7389 27.8577 89.626 26.9521 88.8135C26.055 88.001 24.832 87.5947 23.2832 87.5947H18.5986ZM33.0713 109.558C32.8174 109.558 32.5931 109.528 32.3984 109.469V108.593C32.6016 108.66 32.8343 108.694 33.0967 108.694C33.6807 108.694 34.1546 108.512 34.5186 108.148C34.891 107.785 35.2464 107.154 35.585 106.257L36.0039 105.178L30.9512 91.7969H32.0176L36.5117 104.048H36.5498L41.0439 91.7969H42.0977L36.8926 105.635C36.3001 107.209 35.75 108.254 35.2422 108.771C34.7344 109.295 34.0107 109.558 33.0713 109.558ZM44.3955 88.3311H45.373V91.7969H48.0264V92.6475H45.373V101.966C45.373 102.744 45.5254 103.303 45.8301 103.642C46.1348 103.98 46.6214 104.149 47.29 104.149C47.3154 104.149 47.4678 104.149 47.7471 104.149C48.0348 104.141 48.1872 104.137 48.2041 104.137V105C48.0856 105.017 47.7344 105.025 47.1504 105.025C46.1771 105.025 45.4746 104.793 45.043 104.327C44.6113 103.853 44.3955 103.075 44.3955 101.991V92.6475H42.4277V91.7969H44.3955V88.3311ZM59.3887 103.362C58.3138 104.59 56.8919 105.203 55.123 105.203C53.3542 105.203 51.9323 104.59 50.8574 103.362C49.7826 102.135 49.2451 100.48 49.2451 98.3984C49.2451 96.3164 49.7826 94.6618 50.8574 93.4346C51.9323 92.2074 53.3542 91.5938 55.123 91.5938C56.8919 91.5938 58.3138 92.2074 59.3887 93.4346C60.472 94.6618 61.0137 96.3164 61.0137 98.3984C61.0137 100.48 60.472 102.135 59.3887 103.362ZM51.5684 102.728C52.457 103.785 53.6419 104.314 55.123 104.314C56.6042 104.314 57.7891 103.781 58.6777 102.715C59.5749 101.648 60.0234 100.21 60.0234 98.3984C60.0234 96.5788 59.5749 95.14 58.6777 94.082C57.7891 93.0156 56.6042 92.4824 55.123 92.4824C53.6419 92.4824 52.457 93.0156 51.5684 94.082C50.6797 95.14 50.2354 96.5788 50.2354 98.3984C50.2354 100.218 50.6797 101.661 51.5684 102.728ZM63.2861 105V91.7969H64.2129V94.666H64.2383C64.543 93.7435 65.1016 93.0029 65.9141 92.4443C66.735 91.8773 67.6999 91.5938 68.8086 91.5938C70.2643 91.5938 71.4323 92.0339 72.3125 92.9141C73.1927 93.7858 73.6328 94.9622 73.6328 96.4434V105H72.6426V96.5703C72.6426 95.3008 72.2744 94.3021 71.5381 93.5742C70.8018 92.8464 69.8158 92.4824 68.5801 92.4824C67.3021 92.4824 66.2653 92.9141 65.4697 93.7773C64.6742 94.6322 64.2764 95.7451 64.2764 97.1162V105H63.2861Z" fill="white"/>
</svg>
