<svg width="113" height="111" viewBox="0 0 113 111" fill="none" xmlns="http://www.w3.org/2000/svg">
<path d="M1.96094 87.6807H7.81348C9.59082 87.6807 11.0127 88.18 12.0791 89.1787C13.154 90.1689 13.6914 91.4935 13.6914 93.1523C13.6914 94.8112 13.154 96.1357 12.0791 97.126C11.0127 98.1162 9.58659 98.6113 7.80078 98.6113H2.96387V106H1.96094V87.6807ZM2.96387 88.5947V97.6973H7.64844C9.19727 97.6973 10.4202 97.291 11.3174 96.4785C12.223 95.666 12.6758 94.5573 12.6758 93.1523C12.6758 91.7389 12.223 90.626 11.3174 89.8135C10.4202 89.001 9.19727 88.5947 7.64844 88.5947H2.96387ZM15.9893 106V87.6807H16.9668V95.666H17.0049C17.3011 94.7435 17.8597 94.0029 18.6807 93.4443C19.5016 92.8773 20.4622 92.5938 21.5625 92.5938C23.0098 92.5938 24.1735 93.0381 25.0537 93.9268C25.9424 94.807 26.3867 95.9834 26.3867 97.4561V106H25.4092V97.583C25.4092 96.3219 25.041 95.3232 24.3047 94.5869C23.5684 93.8506 22.5824 93.4824 21.3467 93.4824C20.0518 93.4824 18.998 93.9141 18.1855 94.7773C17.373 95.6406 16.9668 96.7578 16.9668 98.1289V106H15.9893ZM38.7266 104.362C37.6517 105.59 36.2298 106.203 34.4609 106.203C32.6921 106.203 31.2702 105.59 30.1953 104.362C29.1204 103.135 28.583 101.48 28.583 99.3984C28.583 97.3164 29.1204 95.6618 30.1953 94.4346C31.2702 93.2074 32.6921 92.5938 34.4609 92.5938C36.2298 92.5938 37.6517 93.2074 38.7266 94.4346C39.8099 95.6618 40.3516 97.3164 40.3516 99.3984C40.3516 101.48 39.8099 103.135 38.7266 104.362ZM30.9062 103.728C31.7949 104.785 32.9798 105.314 34.4609 105.314C35.9421 105.314 37.127 104.781 38.0156 103.715C38.9128 102.648 39.3613 101.21 39.3613 99.3984C39.3613 97.5788 38.9128 96.14 38.0156 95.082C37.127 94.0156 35.9421 93.4824 34.4609 93.4824C32.9798 93.4824 31.7949 94.0156 30.9062 95.082C30.0176 96.14 29.5732 97.5788 29.5732 99.3984C29.5732 101.218 30.0176 102.661 30.9062 103.728ZM43.3604 89.3311H44.3379V92.7969H46.9912V93.6475H44.3379V102.966C44.3379 103.744 44.4902 104.303 44.7949 104.642C45.0996 104.98 45.5863 105.149 46.2549 105.149C46.2803 105.149 46.4326 105.149 46.7119 105.149C46.9997 105.141 47.152 105.137 47.1689 105.137V106C47.0505 106.017 46.6992 106.025 46.1152 106.025C45.1419 106.025 44.4395 105.793 44.0078 105.327C43.5762 104.853 43.3604 104.075 43.3604 102.991V93.6475H41.3926V92.7969H43.3604V89.3311ZM58.3535 104.362C57.2786 105.59 55.8568 106.203 54.0879 106.203C52.319 106.203 50.8971 105.59 49.8223 104.362C48.7474 103.135 48.21 101.48 48.21 99.3984C48.21 97.3164 48.7474 95.6618 49.8223 94.4346C50.8971 93.2074 52.319 92.5938 54.0879 92.5938C55.8568 92.5938 57.2786 93.2074 58.3535 94.4346C59.4368 95.6618 59.9785 97.3164 59.9785 99.3984C59.9785 101.48 59.4368 103.135 58.3535 104.362ZM50.5332 103.728C51.4219 104.785 52.6068 105.314 54.0879 105.314C55.569 105.314 56.7539 104.781 57.6426 103.715C58.5397 102.648 58.9883 101.21 58.9883 99.3984C58.9883 97.5788 58.5397 96.14 57.6426 95.082C56.7539 94.0156 55.569 93.4824 54.0879 93.4824C52.6068 93.4824 51.4219 94.0156 50.5332 95.082C49.6445 96.14 49.2002 97.5788 49.2002 99.3984C49.2002 101.218 49.6445 102.661 50.5332 103.728ZM61.9463 96.1738C61.9463 95.1328 62.3695 94.278 63.2158 93.6094C64.0622 92.9323 65.1413 92.5938 66.4531 92.5938C67.7904 92.5938 68.8822 92.9535 69.7285 93.6729C70.5833 94.3838 71.07 95.3529 71.1885 96.5801H70.2363C70.1009 95.5983 69.6947 94.8324 69.0176 94.2822C68.349 93.7236 67.4899 93.4443 66.4404 93.4443C65.4163 93.4443 64.57 93.6982 63.9014 94.2061C63.2412 94.7139 62.9111 95.3571 62.9111 96.1357C62.9111 96.779 63.1481 97.2995 63.6221 97.6973C64.096 98.0866 64.862 98.404 65.9199 98.6494L67.748 99.0811C69.0599 99.3942 69.9951 99.8174 70.5537 100.351C71.1208 100.875 71.4043 101.599 71.4043 102.521C71.4043 103.605 70.9515 104.489 70.0459 105.175C69.1403 105.86 67.9766 106.203 66.5547 106.203C65.1751 106.203 64.0156 105.839 63.0762 105.111C62.1367 104.375 61.6162 103.431 61.5146 102.28H62.4922C62.6107 103.194 63.0465 103.935 63.7998 104.502C64.5531 105.069 65.4798 105.353 66.5801 105.353C67.7057 105.353 68.624 105.094 69.335 104.578C70.0544 104.062 70.4141 103.397 70.4141 102.585C70.4141 101.891 70.1855 101.341 69.7285 100.935C69.2799 100.528 68.5225 100.198 67.4561 99.9443L65.5518 99.5C64.3161 99.2122 63.4062 98.7975 62.8223 98.2559C62.2383 97.7142 61.9463 97.0202 61.9463 96.1738ZM73.7275 106V87.6807H74.7051V95.666H74.7432C75.0394 94.7435 75.598 94.0029 76.4189 93.4443C77.2399 92.8773 78.2005 92.5938 79.3008 92.5938C80.748 92.5938 81.9118 93.0381 82.792 93.9268C83.6807 94.807 84.125 95.9834 84.125 97.4561V106H83.1475V97.583C83.1475 96.3219 82.7793 95.3232 82.043 94.5869C81.3066 93.8506 80.3206 93.4824 79.085 93.4824C77.79 93.4824 76.7363 93.9141 75.9238 94.7773C75.1113 95.6406 74.7051 96.7578 74.7051 98.1289V106H73.7275ZM96.4648 104.362C95.39 105.59 93.9681 106.203 92.1992 106.203C90.4303 106.203 89.0085 105.59 87.9336 104.362C86.8587 103.135 86.3213 101.48 86.3213 99.3984C86.3213 97.3164 86.8587 95.6618 87.9336 94.4346C89.0085 93.2074 90.4303 92.5938 92.1992 92.5938C93.9681 92.5938 95.39 93.2074 96.4648 94.4346C97.5482 95.6618 98.0898 97.3164 98.0898 99.3984C98.0898 101.48 97.5482 103.135 96.4648 104.362ZM88.6445 103.728C89.5332 104.785 90.7181 105.314 92.1992 105.314C93.6803 105.314 94.8652 104.781 95.7539 103.715C96.651 102.648 97.0996 101.21 97.0996 99.3984C97.0996 97.5788 96.651 96.14 95.7539 95.082C94.8652 94.0156 93.6803 93.4824 92.1992 93.4824C90.7181 93.4824 89.5332 94.0156 88.6445 95.082C87.7559 96.14 87.3115 97.5788 87.3115 99.3984C87.3115 101.218 87.7559 102.661 88.6445 103.728ZM106.253 92.5938C107.912 92.5938 109.257 93.2201 110.29 94.4727C111.331 95.7253 111.852 97.3672 111.852 99.3984C111.852 101.43 111.335 103.072 110.303 104.324C109.27 105.577 107.924 106.203 106.266 106.203C105.081 106.203 104.044 105.856 103.155 105.162C102.275 104.468 101.683 103.592 101.378 102.534H101.353V110.329H100.362V92.7969H101.289V96.3389H101.327C101.64 95.2471 102.241 94.3499 103.13 93.6475C104.019 92.945 105.06 92.5938 106.253 92.5938ZM106.139 105.314C107.544 105.314 108.678 104.773 109.541 103.689C110.413 102.598 110.849 101.172 110.849 99.4111C110.849 97.6423 110.413 96.2119 109.541 95.1201C108.678 94.0283 107.544 93.4824 106.139 93.4824C104.725 93.4824 103.57 94.0326 102.673 95.1328C101.784 96.2246 101.34 97.6465 101.34 99.3984C101.34 101.15 101.784 102.576 102.673 103.677C103.57 104.769 104.725 105.314 106.139 105.314Z" fill="white"/>
<path d="M31 43.9534V7.60058C31 7.35328 31.1061 7.21197 31.3535 7.21197C35.007 7.21197 38.6588 7 42.3132 7C48.2431 7 54.6638 8.97546 56.9144 15.0195C57.4447 16.5033 57.7275 18.0224 57.7275 19.6122C57.7275 22.6505 57.0204 25.1588 55.6063 27.1372C51.656 32.6636 44.8092 32.5777 38.6718 32.5777V43.9181C38.7198 44.2538 38.4261 44.4127 38.1415 44.4127H31.4242C31.1414 44.4127 31 44.2714 31 43.9534ZM38.7071 14.0303V25.9007C41.1406 26.0744 43.6872 26.0932 46.0254 25.3354C48.6067 24.6099 50.0204 22.4328 50.0204 19.8242C50.0921 17.6013 48.8489 15.4684 46.7325 14.6662C44.4224 13.7304 41.2007 13.6744 38.7071 14.0303Z" fill="white"/>
<path d="M79.7782 23.5554C78.7085 23.0062 77.5692 22.6044 76.3914 22.361C74.878 22.014 68.9088 20.7988 68.9065 23.8398C68.9595 25.5376 71.7255 26.3693 72.9477 26.8544C77.2382 28.2895 82.0934 30.8549 81.998 36.0118C82.1292 42.4317 75.745 44.998 70.2725 44.9987C67.4236 45.0274 64.4557 44.5975 61.8484 43.406C61.5995 43.2776 61.4393 43.0031 61.4499 42.7234V36.5806C61.4219 36.3343 61.6932 36.119 61.9053 36.2962C64.46 37.8015 67.488 38.5323 70.4433 38.5713C71.7479 38.5713 74.3335 38.4481 74.3139 36.5806C74.3139 34.7884 71.2208 33.9644 69.9879 33.5091C68.2007 32.8875 66.5061 32.0265 64.9505 30.9496C62.7766 29.4388 61.4129 27.0166 61.45 24.3517C61.4372 18.3069 67.3139 15.5937 72.6063 15.5924C75.0804 15.5725 77.7373 15.751 80.0404 16.73C80.3716 16.825 80.4402 17.1648 80.4388 17.4694V23.2141C80.4599 23.5707 80.0533 23.6922 79.7782 23.5554Z" fill="white"/>
</svg>
