<svg width="91" height="117" viewBox="0 0 91 117" fill="none" xmlns="http://www.w3.org/2000/svg">
<path d="M25.1367 87.6807H30.7988C33.5749 87.6807 35.7246 88.4805 37.248 90.0801C38.7715 91.6797 39.5332 93.931 39.5332 96.834C39.5332 99.7454 38.7715 102.001 37.248 103.601C35.7246 105.2 33.5749 106 30.7988 106H25.1367V87.6807ZM26.1523 88.6074V105.073H30.7607C33.249 105.073 35.1618 104.362 36.499 102.94C37.8447 101.51 38.5176 99.4788 38.5176 96.8467C38.5176 94.1976 37.8447 92.1621 36.499 90.7402C35.1618 89.3184 33.249 88.6074 30.7607 88.6074H26.1523ZM45.792 105.34C47.0954 105.34 48.2041 104.929 49.1182 104.108C50.0407 103.279 50.502 102.276 50.502 101.1V99.1445L46.0967 99.4619C44.861 99.555 43.9131 99.8597 43.2529 100.376C42.6012 100.884 42.2754 101.574 42.2754 102.445C42.2754 103.292 42.6055 103.986 43.2656 104.527C43.9258 105.069 44.7679 105.34 45.792 105.34ZM45.6523 106.203C44.3659 106.203 43.3164 105.856 42.5039 105.162C41.6914 104.46 41.2852 103.554 41.2852 102.445C41.2852 101.32 41.6787 100.435 42.4658 99.792C43.2614 99.1488 44.4251 98.7679 45.957 98.6494L50.502 98.332V97.1514C50.502 96.0088 50.1719 95.1117 49.5117 94.46C48.86 93.8083 47.9502 93.4824 46.7822 93.4824C45.6396 93.4824 44.7171 93.7575 44.0146 94.3076C43.3122 94.8577 42.8763 95.6322 42.707 96.6309H41.7549C41.8818 95.3952 42.3939 94.4134 43.291 93.6855C44.1966 92.9577 45.3646 92.5938 46.7949 92.5938C48.2422 92.5938 49.3848 92.9958 50.2227 93.7998C51.069 94.6038 51.4922 95.6956 51.4922 97.0752V106H50.54V103.169H50.5146C50.1761 104.066 49.554 104.798 48.6484 105.365C47.7513 105.924 46.7526 106.203 45.6523 106.203ZM54.3232 106V92.7969H55.25V95.3994H55.2754C55.5462 94.4938 55.9863 93.7998 56.5957 93.3174C57.2051 92.835 57.9456 92.5938 58.8174 92.5938C59.2998 92.5938 59.7103 92.6657 60.0488 92.8096V93.7998C59.6934 93.6221 59.2363 93.5332 58.6777 93.5332C57.6536 93.5332 56.8369 93.9268 56.2275 94.7139C55.6182 95.501 55.3135 96.5208 55.3135 97.7734V106H54.3232ZM62.8799 89.3311H63.8574V92.7969H66.5107V93.6475H63.8574V102.966C63.8574 103.744 64.0098 104.303 64.3145 104.642C64.6191 104.98 65.1058 105.149 65.7744 105.149C65.7998 105.149 65.9521 105.149 66.2314 105.149C66.5192 105.141 66.6715 105.137 66.6885 105.137V106C66.57 106.017 66.2188 106.025 65.6348 106.025C64.6615 106.025 63.959 105.793 63.5273 105.327C63.0957 104.853 62.8799 104.075 62.8799 102.991V93.6475H60.9121V92.7969H62.8799V89.3311Z" fill="white"/>
<g clip-path="url(#clip0_2176_11353)">
<path d="M27 40L19.7453 33.1272C18.6661 32.0216 18 30.4596 18 28.9398C18 28.2348 18.3973 27.1313 18.6977 26.5L26 11L27 40Z" fill="white"/>
<path d="M59.8418 10.8093L50.7778 1.74534C49.9863 0.948555 48.3379 0 46.9425 0C45.7431 0 44.5658 0.241355 43.8059 0.697715L27.0713 9.06397L59.8418 10.8093Z" fill="white"/>
<path d="M39.6176 53.0003L60.5 52.4139V43L45.1972 38.3535L30.2037 43.5864L39.6176 53.0003Z" fill="white"/>
<path d="M27.064 37.3103C27.064 40.1075 27.4149 40.7936 28.8061 42.1922L30.2005 43.5877H61.5861L46.2459 26.1532L27.064 9.06445V37.3103Z" fill="#262527"/>
<path d="M27.064 8.06445H24.6495L26.3569 9.7716L60.879 44.2895L61.1719 44.5824H61.5861H71H72V43.5824V21.9648V21.5506L71.7071 21.2577L60.5494 10.0989C60.5493 10.0988 60.5491 10.0987 60.549 10.0985C59.6642 9.21263 58.7857 8.68232 57.8256 8.38959C56.8911 8.1047 55.9372 8.06445 54.962 8.06445H27.064Z" fill="white" stroke="#262527" stroke-width="2"/>
<path opacity="0.2" d="M70.6533 21.6172V43.2348H61.2394L61.5861 43.5857H71V21.9639L70.6533 21.6172Z" fill="#262527"/>
<path opacity="0.2" d="M59.8418 10.8098C58.1143 9.07921 56.6999 9.06445 54.6152 9.06445H27.0713L27.418 9.4112H54.6152C55.6555 9.4112 58.2819 9.23625 59.8439 10.8066L59.8418 10.8098Z" fill="white"/>
<path opacity="0.2" d="M70.6532 21.6176L59.8418 10.8093L50.7779 1.74534C49.9863 0.948555 48.338 0 46.9425 0C45.7431 0 44.5659 0.241355 43.806 0.697715L27.0714 9.06397L18.7009 26.4995C18.4016 27.135 18 28.2374 18 28.9394C18 30.4623 18.6703 32.0169 19.7411 33.1236L28.1 41.4202C28.3224 41.69 28.5592 41.9475 28.8093 42.1917L29.1561 42.5385L30.1995 43.583L39.2634 52.6469L39.6102 52.9937H60.5V45.5L70.9884 43.5819V21.9643L70.6532 21.6176Z" fill="url(#paint0_radial_2176_11353)"/>
</g>
<defs>
<radialGradient id="paint0_radial_2176_11353" cx="0" cy="0" r="1" gradientUnits="userSpaceOnUse" gradientTransform="translate(44.4984 26.4974) scale(26.4963)">
<stop stop-color="white" stop-opacity="0.1"/>
<stop offset="1" stop-color="white" stop-opacity="0"/>
</radialGradient>
<clipPath id="clip0_2176_11353">
<rect width="53" height="53" fill="white" transform="translate(18)"/>
</clipPath>
</defs>
</svg>
