<svg width="230" height="230" viewBox="0 0 230 230" fill="none" xmlns="http://www.w3.org/2000/svg">
<g clip-path="url(#clip0_1670_9721)">
<path d="M99.6641 107.501V114.335C99.6641 114.81 99.8526 115.265 100.188 115.6C100.524 115.936 100.979 116.124 101.453 116.124H120.435C120.91 116.124 121.365 115.936 121.7 115.6C122.036 115.265 122.224 114.81 122.224 114.335V105.801C140.386 103.124 157.017 94.1155 169.181 80.3666C181.346 66.6178 188.261 49.013 188.706 30.6607H196.452C196.927 30.6607 197.382 30.4722 197.717 30.1367C198.053 29.8012 198.241 29.3461 198.241 28.8716V9.836C198.241 9.36151 198.053 8.90645 197.717 8.57094C197.382 8.23543 196.927 8.04694 196.452 8.04694H177.453C176.978 8.04694 176.523 8.23543 176.187 8.57094C175.852 8.90645 175.663 9.36151 175.663 9.836V28.8358C175.663 29.3103 175.852 29.7654 176.187 30.1009C176.523 30.4364 176.978 30.6249 177.453 30.6249H185.128C184.698 48.036 178.163 64.7423 166.665 77.8234C155.166 90.9046 139.436 99.5284 122.224 102.187V95.3532C122.224 94.8787 122.036 94.4237 121.7 94.0881C121.365 93.7526 120.91 93.5641 120.435 93.5641H101.453C100.979 93.5641 100.524 93.7526 100.188 94.0881C99.8526 94.4237 99.6641 94.8787 99.6641 95.3532V103.887C81.5012 106.561 64.868 115.568 52.7029 129.318C40.5378 143.068 33.6238 160.674 33.1825 179.028H25.4359C24.9614 179.028 24.5063 179.216 24.1708 179.552C23.8353 179.887 23.6468 180.342 23.6468 180.817V199.817C23.6468 200.291 23.8353 200.746 24.1708 201.082C24.5063 201.417 24.9614 201.606 25.4359 201.606H44.4178C44.8923 201.606 45.3474 201.417 45.6829 201.082C46.0184 200.746 46.2069 200.291 46.2069 199.817V180.852C46.2069 180.378 46.0184 179.923 45.6829 179.587C45.3474 179.252 44.8923 179.063 44.4178 179.063H36.7606C37.19 161.652 43.7251 144.946 55.2234 131.865C66.7218 118.784 82.4519 110.16 99.6641 107.501ZM179.242 11.6251H194.663V27.0468H179.242V11.6251ZM103.242 97.1423H118.646V112.546H103.242V97.1423ZM42.6287 198.063H27.2249V182.642H42.6287V198.063Z" fill="#00CA79"/>
<path d="M29.4433 112.94C31.2768 112.937 33.0554 112.313 34.4884 111.169C35.9214 110.026 36.9243 108.43 37.3331 106.642H71.3252C71.7997 106.642 72.2548 106.454 72.5903 106.118C72.9258 105.783 73.1143 105.328 73.1143 104.853C73.1143 104.379 72.9258 103.924 72.5903 103.588C72.2548 103.253 71.7997 103.064 71.3252 103.064H37.3331C36.9992 101.573 36.2507 100.207 35.174 99.1233C34.0972 98.0395 32.7361 97.2821 31.2475 96.9385C29.7589 96.5948 28.2035 96.6789 26.7606 97.1811C25.3178 97.6833 24.0462 98.583 23.0927 99.7766C22.1391 100.97 21.5423 102.409 21.3711 103.927C21.1999 105.445 21.4613 106.981 22.1252 108.357C22.789 109.733 23.8283 110.893 25.1231 111.704C26.4179 112.515 27.9156 112.943 29.4433 112.94ZM29.4433 100.416C30.3459 100.399 31.2332 100.651 31.9911 101.142C32.749 101.632 33.3429 102.338 33.6965 103.169C34.0501 103.999 34.1473 104.917 33.9755 105.803C33.8037 106.689 33.3708 107.504 32.7325 108.142C32.0941 108.781 31.2795 109.214 30.3932 109.385C29.5069 109.557 28.5895 109.46 27.7589 109.106C26.9283 108.753 26.2224 108.159 25.7319 107.401C25.2414 106.643 24.9888 105.756 25.0064 104.853C25.0062 103.668 25.4708 102.53 26.3004 101.684C27.13 100.837 28.2584 100.35 29.4433 100.327V100.416Z" fill="#00CA79"/>
<path d="M184.555 106.642C184.995 108.587 186.136 110.301 187.761 111.456C189.385 112.612 191.378 113.129 193.36 112.907C195.341 112.686 197.171 111.742 198.5 110.256C199.829 108.77 200.564 106.847 200.564 104.853C200.564 102.86 199.829 100.936 198.5 99.45C197.171 97.9641 195.341 97.0202 193.36 96.7988C191.378 96.5774 189.385 97.094 187.761 98.2498C186.136 99.4057 184.995 101.12 184.555 103.064H150.563C150.088 103.064 149.633 103.253 149.298 103.588C148.962 103.924 148.774 104.379 148.774 104.853C148.774 105.328 148.962 105.783 149.298 106.118C149.633 106.454 150.088 106.642 150.563 106.642H184.555ZM192.445 100.327C193.34 100.327 194.215 100.592 194.96 101.09C195.704 101.587 196.284 102.294 196.627 103.121C196.969 103.948 197.059 104.858 196.884 105.736C196.71 106.614 196.278 107.421 195.645 108.054C195.012 108.687 194.206 109.118 193.328 109.293C192.45 109.467 191.54 109.378 190.713 109.035C189.886 108.692 189.179 108.112 188.681 107.368C188.184 106.623 187.918 105.748 187.918 104.853C187.916 104.258 188.032 103.668 188.258 103.118C188.485 102.568 188.818 102.068 189.239 101.647C189.66 101.226 190.16 100.893 190.71 100.667C191.26 100.44 191.85 100.324 192.445 100.327Z" fill="#00CA79"/>
<path d="M127.878 121.796C127.663 122.013 127.507 122.281 127.426 122.576C127.345 122.87 127.34 123.181 127.412 123.477L144.015 193.251C144.09 193.57 144.252 193.862 144.482 194.096C144.713 194.329 145.003 194.495 145.321 194.575L184.34 204.343C184.653 204.436 184.984 204.441 185.3 204.359C185.615 204.277 185.902 204.111 186.129 203.878L209.96 179.904C210.193 179.677 210.359 179.39 210.441 179.075C210.523 178.759 210.518 178.428 210.425 178.115L200.657 139.096C200.577 138.778 200.411 138.488 200.178 138.257C199.944 138.027 199.652 137.865 199.333 137.79L129.559 121.187C129.25 121.132 128.932 121.159 128.637 121.266C128.342 121.373 128.08 121.556 127.878 121.796ZM197.454 141.153L206.704 178.115L184.233 200.622L147.253 191.354L131.563 125.463L197.454 141.153Z" fill="#00CA79"/>
<path d="M167.004 174.072C168.252 175.317 169.827 176.183 171.547 176.567C173.267 176.952 175.061 176.84 176.719 176.245C178.378 175.65 179.834 174.596 180.917 173.205C182 171.815 182.666 170.145 182.837 168.391C183.008 166.637 182.677 164.871 181.883 163.297C181.089 161.724 179.864 160.408 178.352 159.504C176.839 158.599 175.101 158.143 173.339 158.188C171.577 158.234 169.864 158.779 168.4 159.759L142.28 133.657C141.944 133.324 141.491 133.137 141.018 133.137C140.546 133.137 140.092 133.324 139.757 133.657C139.424 133.992 139.237 134.446 139.237 134.918C139.237 135.391 139.424 135.844 139.757 136.18L165.859 162.3C164.659 164.092 164.117 166.244 164.326 168.391C164.534 170.537 165.481 172.545 167.004 174.072ZM177.631 163.427C178.164 163.959 178.587 164.59 178.875 165.286C179.164 165.981 179.312 166.726 179.312 167.479C179.312 168.232 179.164 168.977 178.875 169.673C178.587 170.368 178.164 171 177.631 171.531C176.54 172.574 175.088 173.155 173.579 173.155C172.07 173.155 170.619 172.574 169.527 171.531C168.452 170.457 167.848 168.999 167.848 167.479C167.848 165.959 168.452 164.502 169.527 163.427C170.602 162.352 172.059 161.749 173.579 161.749C175.099 161.749 176.557 162.352 177.631 163.427Z" fill="#00CA79"/>
<path d="M228.512 195.111L216.436 183.053C216.269 182.887 216.071 182.756 215.853 182.667C215.635 182.578 215.401 182.533 215.166 182.534C214.93 182.533 214.697 182.578 214.479 182.667C214.261 182.756 214.063 182.887 213.896 183.053L189.153 207.832C188.82 208.167 188.633 208.62 188.633 209.093C188.633 209.566 188.82 210.019 189.153 210.354L201.211 222.412C201.377 222.581 201.574 222.716 201.793 222.808C202.011 222.9 202.245 222.948 202.481 222.949C202.718 222.948 202.952 222.9 203.17 222.808C203.388 222.716 203.586 222.581 203.752 222.412L228.512 197.652C228.68 197.485 228.813 197.288 228.904 197.07C228.995 196.852 229.041 196.618 229.041 196.382C229.041 196.145 228.995 195.912 228.904 195.694C228.813 195.476 228.68 195.278 228.512 195.111ZM202.481 218.62L192.946 209.084L215.184 186.846L224.719 196.382L202.481 218.62Z" fill="#00CA79"/>
</g>
<defs>
<clipPath id="clip0_1670_9721">
<rect width="229" height="229" fill="white" transform="translate(0.0415039 0.998047)"/>
</clipPath>
</defs>
</svg>
