<svg width="229" height="230" viewBox="0 0 229 230" fill="none" xmlns="http://www.w3.org/2000/svg">
<g clip-path="url(#clip0_1670_9819)">
<path d="M215.32 87.8109H181.128L166.747 35.8326C164.69 28.5846 157.167 24.3579 149.907 26.3717L10.0555 64.9722C2.76259 66.9864 -1.51659 74.5315 0.498116 81.8245C0.498589 81.8268 0.499535 81.8292 0.500008 81.8316L24.474 168.437C26.5393 175.687 34.0688 179.912 41.3333 177.898L56.4708 173.697V191.275C56.3975 198.852 62.4799 205.052 70.0562 205.126C70.1068 205.126 70.1574 205.126 70.208 205.126H215.32C222.878 205.116 229 198.986 229 191.427V101.491C229 93.9359 222.875 87.8109 215.32 87.8109ZM56.5086 169.913L40.3115 174.397C35.0404 175.848 29.5885 172.759 28.1259 167.491L4.15192 80.8287C2.68832 75.5519 5.78014 70.0877 11.0565 68.6246C11.057 68.6246 11.0574 68.6241 11.0584 68.6241L150.91 29.929C156.187 28.4786 161.641 31.5785 163.095 36.8544L177.211 87.8109H70.208C62.6492 87.8109 56.519 93.9325 56.5086 101.491V169.913ZM225.216 191.427C225.216 196.895 220.788 201.331 215.32 201.342H70.208C64.7363 201.331 60.3034 196.899 60.293 191.427V148.361H225.216V191.427ZM225.216 144.576H60.293V120.413H225.216V144.576ZM225.216 101.491V116.629H60.293V101.491C60.3034 96.0229 64.7396 91.5952 70.208 91.5952H215.32C220.78 91.6056 225.205 96.03 225.216 101.491Z" fill="#00CA79"/>
<path d="M99.1963 165.599H81.107C80.0621 165.599 79.2148 166.446 79.2148 167.491C79.2148 168.536 80.0621 169.383 81.107 169.383H99.1963C100.241 169.383 101.088 168.536 101.088 167.491C101.088 166.446 100.241 165.599 99.1963 165.599Z" fill="#00CA79"/>
<path d="M118.137 178.257H81.107C80.0621 178.257 79.2148 179.105 79.2148 180.15C79.2148 181.194 80.0621 182.042 81.107 182.042H118.137C119.182 182.042 120.029 181.194 120.029 180.15C120.029 179.105 119.182 178.257 118.137 178.257Z" fill="#00CA79"/>
<path d="M207.543 162.439H172.556C171.511 162.439 170.664 163.286 170.664 164.331V180.15C170.664 181.195 171.511 182.042 172.556 182.042H207.543C208.588 182.042 209.435 181.195 209.435 180.15V164.331C209.435 163.286 208.588 162.439 207.543 162.439ZM205.65 178.257H174.448V166.223H205.65V178.257Z" fill="#00CA79"/>
</g>
<defs>
<clipPath id="clip0_1670_9819">
<rect width="229" height="229" fill="white" transform="translate(0 0.998047)"/>
</clipPath>
</defs>
</svg>
