<svg width="837" height="154" viewBox="0 0 837 154" fill="none" xmlns="http://www.w3.org/2000/svg">
<path d="M22 140C22 139.448 22.4477 139 23 139H836C836.552 139 837 139.448 837 140V144C837 144.552 836.552 145 836 145H23C22.4477 145 22 144.552 22 144V140Z" fill="#383838"/>
<path d="M0 140C0 139.448 0.447715 139 1 139H206C206.552 139 207 139.448 207 140V144C207 144.552 206.552 145 206 145H0.999996C0.447711 145 0 144.552 0 144V140Z" fill="#02C476"/>
<circle cx="203.5" cy="142.5" r="11.5" fill="#02C476"/>
<path d="M303.118 24.95L304.63 25.922C303.946 26.966 302.983 27.821 301.741 28.487C300.517 29.153 299.095 29.486 297.475 29.486C294.595 29.486 292.21 28.541 290.32 26.651C288.448 24.743 287.512 22.34 287.512 19.442C287.512 16.544 288.457 14.15 290.347 12.26C292.237 10.352 294.613 9.398 297.475 9.398C298.879 9.398 300.193 9.677 301.417 10.235C302.659 10.775 303.613 11.504 304.279 12.422L302.659 13.61C302.209 12.926 301.516 12.341 300.58 11.855C299.662 11.351 298.636 11.099 297.502 11.099C295.108 11.099 293.182 11.909 291.724 13.529C290.284 15.149 289.564 17.12 289.564 19.442C289.564 21.764 290.293 23.735 291.751 25.355C293.209 26.975 295.126 27.785 297.502 27.785C299.986 27.785 301.858 26.84 303.118 24.95ZM307.863 19.145C307.863 18.065 307.827 17.138 307.755 16.364H309.51C309.582 17.264 309.618 17.984 309.618 18.524H309.672C310.032 17.786 310.572 17.192 311.292 16.742C312.03 16.274 312.84 16.04 313.722 16.04C314.208 16.04 314.613 16.085 314.937 16.175L314.694 17.903C314.406 17.795 313.974 17.741 313.398 17.741C312.336 17.741 311.454 18.146 310.752 18.956C310.05 19.748 309.699 20.936 309.699 22.52V29H307.863V19.145ZM318.144 21.71H326.757C326.703 20.486 326.307 19.496 325.569 18.74C324.849 17.966 323.85 17.579 322.572 17.579C321.384 17.579 320.367 17.993 319.521 18.821C318.693 19.631 318.234 20.594 318.144 21.71ZM328.62 22.304C328.62 22.664 328.611 22.952 328.593 23.168H318.117C318.153 24.446 318.612 25.535 319.494 26.435C320.376 27.317 321.456 27.758 322.734 27.758C323.616 27.758 324.417 27.551 325.137 27.137C325.857 26.705 326.406 26.183 326.784 25.571L328.161 26.651C326.757 28.433 324.948 29.324 322.734 29.324C320.862 29.324 319.305 28.694 318.062 27.434C316.821 26.174 316.2 24.59 316.2 22.682C316.2 20.792 316.812 19.217 318.036 17.957C319.26 16.679 320.772 16.04 322.572 16.04C324.48 16.04 325.965 16.634 327.027 17.822C328.089 18.992 328.62 20.486 328.62 22.304ZM340.375 21.251V20.846C340.375 18.668 339.25 17.579 337 17.579C335.488 17.579 334.237 18.074 333.247 19.064L332.221 17.849C333.427 16.643 335.083 16.04 337.189 16.04C338.629 16.04 339.808 16.436 340.726 17.228C341.644 18.02 342.103 19.154 342.103 20.63V26.165C342.103 27.299 342.175 28.244 342.319 29H340.672C340.546 28.28 340.483 27.596 340.483 26.948H340.429C339.331 28.532 337.801 29.324 335.839 29.324C334.705 29.324 333.688 29.009 332.788 28.379C331.906 27.731 331.465 26.768 331.465 25.49C331.465 24.86 331.573 24.311 331.789 23.843C332.005 23.357 332.329 22.961 332.761 22.655C333.193 22.349 333.661 22.106 334.165 21.926C334.669 21.728 335.29 21.584 336.028 21.494C336.766 21.386 337.45 21.323 338.08 21.305C338.728 21.269 339.493 21.251 340.375 21.251ZM340.375 22.682H339.835C338.971 22.682 338.197 22.718 337.513 22.79C336.847 22.844 336.172 22.961 335.488 23.141C334.822 23.321 334.3 23.6 333.922 23.978C333.544 24.356 333.355 24.833 333.355 25.409C333.355 26.237 333.643 26.849 334.219 27.245C334.795 27.623 335.497 27.812 336.325 27.812C337.567 27.812 338.548 27.407 339.268 26.597C340.006 25.787 340.375 24.797 340.375 23.627V22.682ZM352.267 16.364V17.903H348.703V25.274C348.703 26.156 348.865 26.768 349.189 27.11C349.513 27.434 349.981 27.596 350.593 27.596C351.115 27.596 351.646 27.461 352.186 27.191L352.267 28.784C351.601 29.036 350.881 29.162 350.107 29.162C349.243 29.162 348.487 28.91 347.839 28.406C347.191 27.902 346.867 27.029 346.867 25.787V17.903H344.248V16.364H346.867V12.8H348.703V16.364H352.267ZM356.165 21.71H364.778C364.724 20.486 364.328 19.496 363.59 18.74C362.87 17.966 361.871 17.579 360.593 17.579C359.405 17.579 358.388 17.993 357.542 18.821C356.714 19.631 356.255 20.594 356.165 21.71ZM366.641 22.304C366.641 22.664 366.632 22.952 366.614 23.168H356.138C356.174 24.446 356.633 25.535 357.515 26.435C358.397 27.317 359.477 27.758 360.755 27.758C361.637 27.758 362.438 27.551 363.158 27.137C363.878 26.705 364.427 26.183 364.805 25.571L366.182 26.651C364.778 28.433 362.969 29.324 360.755 29.324C358.883 29.324 357.326 28.694 356.084 27.434C354.842 26.174 354.221 24.59 354.221 22.682C354.221 20.792 354.833 19.217 356.057 17.957C357.281 16.679 358.793 16.04 360.593 16.04C362.501 16.04 363.986 16.634 365.048 17.822C366.11 18.992 366.641 20.486 366.641 22.304ZM385.305 21.251V20.846C385.305 18.668 384.18 17.579 381.93 17.579C380.418 17.579 379.167 18.074 378.177 19.064L377.151 17.849C378.357 16.643 380.013 16.04 382.119 16.04C383.559 16.04 384.738 16.436 385.656 17.228C386.574 18.02 387.033 19.154 387.033 20.63V26.165C387.033 27.299 387.105 28.244 387.249 29H385.602C385.476 28.28 385.413 27.596 385.413 26.948H385.359C384.261 28.532 382.731 29.324 380.769 29.324C379.635 29.324 378.618 29.009 377.718 28.379C376.836 27.731 376.395 26.768 376.395 25.49C376.395 24.86 376.503 24.311 376.719 23.843C376.935 23.357 377.259 22.961 377.691 22.655C378.123 22.349 378.591 22.106 379.095 21.926C379.599 21.728 380.22 21.584 380.958 21.494C381.696 21.386 382.38 21.323 383.01 21.305C383.658 21.269 384.423 21.251 385.305 21.251ZM385.305 22.682H384.765C383.901 22.682 383.127 22.718 382.443 22.79C381.777 22.844 381.102 22.961 380.418 23.141C379.752 23.321 379.23 23.6 378.852 23.978C378.474 24.356 378.285 24.833 378.285 25.409C378.285 26.237 378.573 26.849 379.149 27.245C379.725 27.623 380.427 27.812 381.255 27.812C382.497 27.812 383.478 27.407 384.198 26.597C384.936 25.787 385.305 24.797 385.305 23.627V22.682ZM391.655 16.364H393.41C393.482 17.264 393.518 17.984 393.518 18.524H393.572C393.914 17.804 394.49 17.21 395.3 16.742C396.128 16.274 396.992 16.04 397.892 16.04C399.458 16.04 400.646 16.508 401.456 17.444C402.284 18.38 402.698 19.649 402.698 21.251V29H400.862V22.007C400.862 20.585 400.601 19.496 400.079 18.74C399.575 17.966 398.693 17.579 397.433 17.579C396.371 17.579 395.462 18.011 394.706 18.875C393.968 19.721 393.599 20.936 393.599 22.52V29H391.763V19.145C391.763 18.065 391.727 17.138 391.655 16.364ZM422.166 21.251V20.846C422.166 18.668 421.041 17.579 418.791 17.579C417.279 17.579 416.028 18.074 415.038 19.064L414.012 17.849C415.218 16.643 416.874 16.04 418.98 16.04C420.42 16.04 421.599 16.436 422.517 17.228C423.435 18.02 423.894 19.154 423.894 20.63V26.165C423.894 27.299 423.966 28.244 424.11 29H422.463C422.337 28.28 422.274 27.596 422.274 26.948H422.22C421.122 28.532 419.592 29.324 417.63 29.324C416.496 29.324 415.479 29.009 414.579 28.379C413.697 27.731 413.256 26.768 413.256 25.49C413.256 24.86 413.364 24.311 413.58 23.843C413.796 23.357 414.12 22.961 414.552 22.655C414.984 22.349 415.452 22.106 415.956 21.926C416.46 21.728 417.081 21.584 417.819 21.494C418.557 21.386 419.241 21.323 419.871 21.305C420.519 21.269 421.284 21.251 422.166 21.251ZM422.166 22.682H421.626C420.762 22.682 419.988 22.718 419.304 22.79C418.638 22.844 417.963 22.961 417.279 23.141C416.613 23.321 416.091 23.6 415.713 23.978C415.335 24.356 415.146 24.833 415.146 25.409C415.146 26.237 415.434 26.849 416.01 27.245C416.586 27.623 417.288 27.812 418.116 27.812C419.358 27.812 420.339 27.407 421.059 26.597C421.797 25.787 422.166 24.797 422.166 23.627V22.682ZM430.46 26.867V35.48H428.624V16.364H430.46V18.551H430.541C431.045 17.759 431.729 17.147 432.593 16.715C433.457 16.265 434.357 16.04 435.293 16.04C437.237 16.04 438.812 16.679 440.018 17.957C441.224 19.217 441.827 20.792 441.827 22.682C441.827 24.572 441.224 26.156 440.018 27.434C438.812 28.694 437.237 29.324 435.293 29.324C434.375 29.324 433.484 29.108 432.62 28.676C431.756 28.244 431.063 27.641 430.541 26.867H430.46ZM438.587 26.327C439.451 25.355 439.883 24.14 439.883 22.682C439.883 21.224 439.451 20.009 438.587 19.037C437.741 18.065 436.58 17.579 435.104 17.579C433.7 17.579 432.539 18.065 431.621 19.037C430.703 20.009 430.244 21.224 430.244 22.682C430.244 24.14 430.703 25.355 431.621 26.327C432.539 27.281 433.7 27.758 435.104 27.758C436.58 27.758 437.741 27.281 438.587 26.327ZM447.599 26.867V35.48H445.763V16.364H447.599V18.551H447.68C448.184 17.759 448.868 17.147 449.732 16.715C450.596 16.265 451.496 16.04 452.432 16.04C454.376 16.04 455.951 16.679 457.157 17.957C458.363 19.217 458.966 20.792 458.966 22.682C458.966 24.572 458.363 26.156 457.157 27.434C455.951 28.694 454.376 29.324 452.432 29.324C451.514 29.324 450.623 29.108 449.759 28.676C448.895 28.244 448.202 27.641 447.68 26.867H447.599ZM455.726 26.327C456.59 25.355 457.022 24.14 457.022 22.682C457.022 21.224 456.59 20.009 455.726 19.037C454.88 18.065 453.719 17.579 452.243 17.579C450.839 17.579 449.678 18.065 448.76 19.037C447.842 20.009 447.383 21.224 447.383 22.682C447.383 24.14 447.842 25.355 448.76 26.327C449.678 27.281 450.839 27.758 452.243 27.758C453.719 27.758 454.88 27.281 455.726 26.327ZM475.349 16.364V17.903H471.785V25.274C471.785 26.156 471.947 26.768 472.271 27.11C472.595 27.434 473.063 27.596 473.675 27.596C474.197 27.596 474.728 27.461 475.268 27.191L475.349 28.784C474.683 29.036 473.963 29.162 473.189 29.162C472.325 29.162 471.569 28.91 470.921 28.406C470.273 27.902 469.949 27.029 469.949 25.787V17.903H467.33V16.364H469.949V12.8H471.785V16.364H475.349ZM488.859 17.93C490.137 19.19 490.776 20.774 490.776 22.682C490.776 24.59 490.137 26.174 488.859 27.434C487.599 28.694 485.988 29.324 484.026 29.324C482.082 29.324 480.471 28.694 479.193 27.434C477.933 26.174 477.303 24.59 477.303 22.682C477.303 20.774 477.933 19.19 479.193 17.93C480.471 16.67 482.082 16.04 484.026 16.04C485.988 16.04 487.599 16.67 488.859 17.93ZM487.509 26.327C488.391 25.355 488.832 24.14 488.832 22.682C488.832 21.224 488.391 20.009 487.509 19.037C486.627 18.065 485.466 17.579 484.026 17.579C482.604 17.579 481.452 18.065 480.57 19.037C479.688 20.009 479.247 21.224 479.247 22.682C479.247 24.122 479.688 25.328 480.57 26.3C481.452 27.272 482.604 27.758 484.026 27.758C485.466 27.758 486.627 27.281 487.509 26.327ZM505.122 26.867C504.6 27.641 503.907 28.244 503.043 28.676C502.179 29.108 501.279 29.324 500.343 29.324C498.399 29.324 496.824 28.694 495.618 27.434C494.412 26.156 493.809 24.572 493.809 22.682C493.809 20.792 494.412 19.217 495.618 17.957C496.824 16.679 498.399 16.04 500.343 16.04C501.279 16.04 502.179 16.265 503.043 16.715C503.907 17.147 504.6 17.759 505.122 18.551H505.176V8.588H507.012V29H505.176V26.867H505.122ZM497.022 19.037C496.176 20.009 495.753 21.224 495.753 22.682C495.753 24.14 496.176 25.355 497.022 26.327C497.886 27.281 499.056 27.758 500.532 27.758C501.936 27.758 503.097 27.281 504.015 26.327C504.933 25.355 505.392 24.14 505.392 22.682C505.392 21.224 504.933 20.009 504.015 19.037C503.097 18.065 501.936 17.579 500.532 17.579C499.056 17.579 497.886 18.065 497.022 19.037ZM519.883 21.251V20.846C519.883 18.668 518.758 17.579 516.508 17.579C514.996 17.579 513.745 18.074 512.755 19.064L511.729 17.849C512.935 16.643 514.591 16.04 516.697 16.04C518.137 16.04 519.316 16.436 520.234 17.228C521.152 18.02 521.611 19.154 521.611 20.63V26.165C521.611 27.299 521.683 28.244 521.827 29H520.18C520.054 28.28 519.991 27.596 519.991 26.948H519.937C518.839 28.532 517.309 29.324 515.347 29.324C514.213 29.324 513.196 29.009 512.296 28.379C511.414 27.731 510.973 26.768 510.973 25.49C510.973 24.86 511.081 24.311 511.297 23.843C511.513 23.357 511.837 22.961 512.269 22.655C512.701 22.349 513.169 22.106 513.673 21.926C514.177 21.728 514.798 21.584 515.536 21.494C516.274 21.386 516.958 21.323 517.588 21.305C518.236 21.269 519.001 21.251 519.883 21.251ZM519.883 22.682H519.343C518.479 22.682 517.705 22.718 517.021 22.79C516.355 22.844 515.68 22.961 514.996 23.141C514.33 23.321 513.808 23.6 513.43 23.978C513.052 24.356 512.863 24.833 512.863 25.409C512.863 26.237 513.151 26.849 513.727 27.245C514.303 27.623 515.005 27.812 515.833 27.812C517.075 27.812 518.056 27.407 518.776 26.597C519.514 25.787 519.883 24.797 519.883 23.627V22.682ZM526.395 16.364L530.688 27.029H530.742L534.657 16.364H536.655L530.364 32.267C529.95 33.329 529.437 34.13 528.825 34.67C528.231 35.21 527.421 35.48 526.395 35.48C525.837 35.48 525.288 35.426 524.748 35.318L524.937 33.644C525.369 33.788 525.819 33.86 526.287 33.86C526.881 33.86 527.358 33.671 527.718 33.293C528.096 32.933 528.429 32.375 528.717 31.619L529.743 28.973L524.343 16.364H526.395ZM556.805 18.227L555.374 19.253C555.068 18.767 554.618 18.371 554.024 18.065C553.448 17.741 552.818 17.579 552.134 17.579C550.694 17.579 549.524 18.065 548.624 19.037C547.742 19.991 547.301 21.206 547.301 22.682C547.301 24.14 547.742 25.355 548.624 26.327C549.506 27.281 550.667 27.758 552.107 27.758C553.565 27.758 554.708 27.209 555.536 26.111L556.913 27.137C555.725 28.595 554.123 29.324 552.107 29.324C550.091 29.324 548.462 28.703 547.22 27.461C545.978 26.201 545.357 24.608 545.357 22.682C545.357 20.756 545.978 19.172 547.22 17.93C548.462 16.67 550.091 16.04 552.107 16.04C553.007 16.04 553.88 16.229 554.726 16.607C555.59 16.985 556.283 17.525 556.805 18.227ZM570.413 17.93C571.691 19.19 572.33 20.774 572.33 22.682C572.33 24.59 571.691 26.174 570.413 27.434C569.153 28.694 567.542 29.324 565.58 29.324C563.636 29.324 562.025 28.694 560.747 27.434C559.487 26.174 558.857 24.59 558.857 22.682C558.857 20.774 559.487 19.19 560.747 17.93C562.025 16.67 563.636 16.04 565.58 16.04C567.542 16.04 569.153 16.67 570.413 17.93ZM569.063 26.327C569.945 25.355 570.386 24.14 570.386 22.682C570.386 21.224 569.945 20.009 569.063 19.037C568.181 18.065 567.02 17.579 565.58 17.579C564.158 17.579 563.006 18.065 562.124 19.037C561.242 20.009 560.801 21.224 560.801 22.682C560.801 24.122 561.242 25.328 562.124 26.3C563.006 27.272 564.158 27.758 565.58 27.758C567.02 27.758 568.181 27.281 569.063 26.327ZM584.408 18.308L583.004 19.361C582.734 18.821 582.32 18.389 581.762 18.065C581.204 17.741 580.583 17.579 579.899 17.579C579.161 17.579 578.531 17.75 578.009 18.092C577.487 18.416 577.226 18.902 577.226 19.55C577.226 20.126 577.46 20.576 577.928 20.9C578.396 21.224 579.17 21.494 580.25 21.71C581.744 22.016 582.842 22.466 583.544 23.06C584.264 23.654 584.624 24.437 584.624 25.409C584.624 26.741 584.156 27.731 583.22 28.379C582.302 29.009 581.186 29.324 579.872 29.324C577.658 29.324 575.993 28.505 574.877 26.867L576.335 25.787C576.677 26.363 577.163 26.84 577.793 27.218C578.441 27.578 579.125 27.758 579.845 27.758C580.709 27.758 581.42 27.587 581.978 27.245C582.536 26.885 582.815 26.318 582.815 25.544C582.815 24.914 582.518 24.428 581.924 24.086C581.348 23.744 580.403 23.42 579.089 23.114C578.621 23.006 578.216 22.889 577.874 22.763C577.532 22.637 577.154 22.448 576.74 22.196C576.344 21.944 576.029 21.611 575.795 21.197C575.579 20.765 575.471 20.27 575.471 19.712C575.471 18.506 575.903 17.597 576.767 16.985C577.649 16.355 578.72 16.04 579.98 16.04C580.88 16.04 581.744 16.247 582.572 16.661C583.4 17.057 584.012 17.606 584.408 18.308ZM593.975 16.364V17.903H590.411V25.274C590.411 26.156 590.573 26.768 590.897 27.11C591.221 27.434 591.689 27.596 592.301 27.596C592.823 27.596 593.354 27.461 593.894 27.191L593.975 28.784C593.309 29.036 592.589 29.162 591.815 29.162C590.951 29.162 590.195 28.91 589.547 28.406C588.899 27.902 588.575 27.029 588.575 25.787V17.903H585.956V16.364H588.575V12.8H590.411V16.364H593.975ZM604.974 18.308L603.57 19.361C603.3 18.821 602.886 18.389 602.328 18.065C601.77 17.741 601.149 17.579 600.465 17.579C599.727 17.579 599.097 17.75 598.575 18.092C598.053 18.416 597.792 18.902 597.792 19.55C597.792 20.126 598.026 20.576 598.494 20.9C598.962 21.224 599.736 21.494 600.816 21.71C602.31 22.016 603.408 22.466 604.11 23.06C604.83 23.654 605.19 24.437 605.19 25.409C605.19 26.741 604.722 27.731 603.786 28.379C602.868 29.009 601.752 29.324 600.438 29.324C598.224 29.324 596.559 28.505 595.443 26.867L596.901 25.787C597.243 26.363 597.729 26.84 598.359 27.218C599.007 27.578 599.691 27.758 600.411 27.758C601.275 27.758 601.986 27.587 602.544 27.245C603.102 26.885 603.381 26.318 603.381 25.544C603.381 24.914 603.084 24.428 602.49 24.086C601.914 23.744 600.969 23.42 599.655 23.114C599.187 23.006 598.782 22.889 598.44 22.763C598.098 22.637 597.72 22.448 597.306 22.196C596.91 21.944 596.595 21.611 596.361 21.197C596.145 20.765 596.037 20.27 596.037 19.712C596.037 18.506 596.469 17.597 597.333 16.985C598.215 16.355 599.286 16.04 600.546 16.04C601.446 16.04 602.31 16.247 603.138 16.661C603.966 17.057 604.578 17.606 604.974 18.308ZM620.265 18.038V11.072C619.311 11.108 618.51 11.45 617.862 12.098C617.232 12.728 616.917 13.538 616.917 14.528C616.917 16.256 618.033 17.426 620.265 18.038ZM621.561 20.333V27.758C622.497 27.722 623.316 27.407 624.018 26.813C624.738 26.219 625.098 25.31 625.098 24.086C625.098 23.204 624.774 22.448 624.126 21.818C623.496 21.17 622.641 20.675 621.561 20.333ZM620.265 27.758V20.009C619.545 19.793 618.915 19.559 618.375 19.307C617.853 19.055 617.313 18.731 616.755 18.335C616.215 17.921 615.792 17.408 615.486 16.796C615.198 16.184 615.054 15.482 615.054 14.69C615.054 13.178 615.549 11.963 616.539 11.045C617.547 10.127 618.789 9.632 620.265 9.56V7.616H621.561V9.56C622.479 9.596 623.397 9.803 624.315 10.181C625.233 10.541 625.98 11.063 626.556 11.747L625.071 12.881C624.243 11.711 623.073 11.108 621.561 11.072V18.497C622.371 18.785 623.046 19.064 623.586 19.334C624.144 19.586 624.711 19.937 625.287 20.387C625.863 20.819 626.295 21.359 626.583 22.007C626.889 22.637 627.042 23.375 627.042 24.221C627.042 25.697 626.52 26.912 625.476 27.866C624.432 28.802 623.127 29.288 621.561 29.324V31.268H620.265V29.324C617.925 29.27 616.026 28.316 614.568 26.462L616.107 25.382C616.557 26.12 617.196 26.696 618.024 27.11C618.852 27.524 619.599 27.74 620.265 27.758ZM638.492 9.884V29H636.548V12.287L633.092 15.23L631.904 13.88L636.764 9.884H638.492ZM657.934 9.884V11.666L650.239 29H648.052L655.963 11.612H646.594V9.884H657.934ZM669.816 9.884V29H667.872V12.287L664.416 15.23L663.228 13.88L668.088 9.884H669.816ZM680.754 26.435L678.567 32.78H677.028L678.837 26.435H680.754ZM694.598 9.884V22.682H697.406V24.383H694.598V29H692.708V24.383H683.96V22.493L692.06 9.884H694.598ZM692.708 22.682V12.071H692.654L685.985 22.682H692.708ZM702.808 8.588V22.061H702.889L708.721 16.364H711.367L704.995 22.142L712.015 29H709.315L702.889 22.358H702.808V29H700.972V8.588H702.808Z" fill="white"/>
<path d="M295.099 77.765V86H293.155V77.765L286 66.884H288.43L294.181 76.145L299.986 66.884H302.254L295.099 77.765ZM312.884 74.93C314.162 76.19 314.801 77.774 314.801 79.682C314.801 81.59 314.162 83.174 312.884 84.434C311.624 85.694 310.013 86.324 308.051 86.324C306.107 86.324 304.496 85.694 303.218 84.434C301.958 83.174 301.328 81.59 301.328 79.682C301.328 77.774 301.958 76.19 303.218 74.93C304.496 73.67 306.107 73.04 308.051 73.04C310.013 73.04 311.624 73.67 312.884 74.93ZM311.534 83.327C312.416 82.355 312.857 81.14 312.857 79.682C312.857 78.224 312.416 77.009 311.534 76.037C310.652 75.065 309.491 74.579 308.051 74.579C306.629 74.579 305.477 75.065 304.595 76.037C303.713 77.009 303.272 78.224 303.272 79.682C303.272 81.122 303.713 82.328 304.595 83.3C305.477 84.272 306.629 84.758 308.051 84.758C309.491 84.758 310.652 84.281 311.534 83.327ZM329.687 86H327.932C327.86 85.1 327.824 84.38 327.824 83.84H327.77C327.428 84.56 326.843 85.154 326.015 85.622C325.205 86.09 324.35 86.324 323.45 86.324C321.884 86.324 320.687 85.856 319.859 84.92C319.049 83.984 318.644 82.715 318.644 81.113V73.364H320.48V80.357C320.48 81.779 320.732 82.877 321.236 83.651C321.758 84.407 322.649 84.785 323.909 84.785C324.971 84.785 325.871 84.362 326.609 83.516C327.365 82.652 327.743 81.428 327.743 79.844V73.364H329.579V83.219C329.579 84.299 329.615 85.226 329.687 86ZM351.721 75.227L350.29 76.253C349.984 75.767 349.534 75.371 348.94 75.065C348.364 74.741 347.734 74.579 347.05 74.579C345.61 74.579 344.44 75.065 343.54 76.037C342.658 76.991 342.217 78.206 342.217 79.682C342.217 81.14 342.658 82.355 343.54 83.327C344.422 84.281 345.583 84.758 347.023 84.758C348.481 84.758 349.624 84.209 350.452 83.111L351.829 84.137C350.641 85.595 349.039 86.324 347.023 86.324C345.007 86.324 343.378 85.703 342.136 84.461C340.894 83.201 340.273 81.608 340.273 79.682C340.273 77.756 340.894 76.172 342.136 74.93C343.378 73.67 345.007 73.04 347.023 73.04C347.923 73.04 348.796 73.229 349.642 73.607C350.506 73.985 351.199 74.525 351.721 75.227ZM362.656 78.251V77.846C362.656 75.668 361.531 74.579 359.281 74.579C357.769 74.579 356.518 75.074 355.528 76.064L354.502 74.849C355.708 73.643 357.364 73.04 359.47 73.04C360.91 73.04 362.089 73.436 363.007 74.228C363.925 75.02 364.384 76.154 364.384 77.63V83.165C364.384 84.299 364.456 85.244 364.6 86H362.953C362.827 85.28 362.764 84.596 362.764 83.948H362.71C361.612 85.532 360.082 86.324 358.12 86.324C356.986 86.324 355.969 86.009 355.069 85.379C354.187 84.731 353.746 83.768 353.746 82.49C353.746 81.86 353.854 81.311 354.07 80.843C354.286 80.357 354.61 79.961 355.042 79.655C355.474 79.349 355.942 79.106 356.446 78.926C356.95 78.728 357.571 78.584 358.309 78.494C359.047 78.386 359.731 78.323 360.361 78.305C361.009 78.269 361.774 78.251 362.656 78.251ZM362.656 79.682H362.116C361.252 79.682 360.478 79.718 359.794 79.79C359.128 79.844 358.453 79.961 357.769 80.141C357.103 80.321 356.581 80.6 356.203 80.978C355.825 81.356 355.636 81.833 355.636 82.409C355.636 83.237 355.924 83.849 356.5 84.245C357.076 84.623 357.778 84.812 358.606 84.812C359.848 84.812 360.829 84.407 361.549 83.597C362.287 82.787 362.656 81.797 362.656 80.627V79.682ZM369.006 73.364H370.761C370.833 74.264 370.869 74.984 370.869 75.524H370.923C371.265 74.804 371.841 74.21 372.651 73.742C373.479 73.274 374.343 73.04 375.243 73.04C376.809 73.04 377.997 73.508 378.807 74.444C379.635 75.38 380.049 76.649 380.049 78.251V86H378.213V79.007C378.213 77.585 377.952 76.496 377.43 75.74C376.926 74.966 376.044 74.579 374.784 74.579C373.722 74.579 372.813 75.011 372.057 75.875C371.319 76.721 370.95 77.936 370.95 79.52V86H369.114V76.145C369.114 75.065 369.078 74.138 369.006 73.364ZM393.496 83.867H393.442V86H391.606V65.588H393.442V75.551H393.496C394.018 74.759 394.711 74.147 395.575 73.715C396.439 73.265 397.339 73.04 398.275 73.04C400.219 73.04 401.794 73.679 403 74.957C404.206 76.217 404.809 77.792 404.809 79.682C404.809 81.572 404.206 83.156 403 84.434C401.794 85.694 400.219 86.324 398.275 86.324C397.339 86.324 396.439 86.108 395.575 85.676C394.711 85.244 394.018 84.641 393.496 83.867ZM401.569 83.327C402.433 82.355 402.865 81.14 402.865 79.682C402.865 78.224 402.433 77.009 401.569 76.037C400.723 75.065 399.562 74.579 398.086 74.579C396.682 74.579 395.521 75.065 394.603 76.037C393.685 77.009 393.226 78.224 393.226 79.682C393.226 81.14 393.685 82.355 394.603 83.327C395.521 84.281 396.682 84.758 398.086 84.758C399.562 84.758 400.723 84.281 401.569 83.327ZM419.678 86H417.923C417.851 85.1 417.815 84.38 417.815 83.84H417.761C417.419 84.56 416.834 85.154 416.006 85.622C415.196 86.09 414.341 86.324 413.441 86.324C411.875 86.324 410.678 85.856 409.85 84.92C409.04 83.984 408.635 82.715 408.635 81.113V73.364H410.471V80.357C410.471 81.779 410.723 82.877 411.227 83.651C411.749 84.407 412.64 84.785 413.9 84.785C414.962 84.785 415.862 84.362 416.6 83.516C417.356 82.652 417.734 81.428 417.734 79.844V73.364H419.57V83.219C419.57 84.299 419.606 85.226 419.678 86ZM426.295 73.364V86H424.459V73.364H426.295ZM426.268 67.586C426.538 67.838 426.673 68.144 426.673 68.504C426.673 68.864 426.538 69.17 426.268 69.422C426.016 69.674 425.719 69.8 425.377 69.8C425.035 69.8 424.729 69.674 424.459 69.422C424.207 69.17 424.081 68.864 424.081 68.504C424.081 68.144 424.207 67.838 424.459 67.586C424.729 67.334 425.035 67.208 425.377 67.208C425.719 67.208 426.016 67.334 426.268 67.586ZM433.072 65.588V86H431.236V65.588H433.072ZM448.38 83.867C447.858 84.641 447.165 85.244 446.301 85.676C445.437 86.108 444.537 86.324 443.601 86.324C441.657 86.324 440.082 85.694 438.876 84.434C437.67 83.156 437.067 81.572 437.067 79.682C437.067 77.792 437.67 76.217 438.876 74.957C440.082 73.679 441.657 73.04 443.601 73.04C444.537 73.04 445.437 73.265 446.301 73.715C447.165 74.147 447.858 74.759 448.38 75.551H448.434V65.588H450.27V86H448.434V83.867H448.38ZM440.28 76.037C439.434 77.009 439.011 78.224 439.011 79.682C439.011 81.14 439.434 82.355 440.28 83.327C441.144 84.281 442.314 84.758 443.79 84.758C445.194 84.758 446.355 84.281 447.273 83.327C448.191 82.355 448.65 81.14 448.65 79.682C448.65 78.224 448.191 77.009 447.273 76.037C446.355 75.065 445.194 74.579 443.79 74.579C442.314 74.579 441.144 75.065 440.28 76.037ZM469.891 78.251V77.846C469.891 75.668 468.766 74.579 466.516 74.579C465.004 74.579 463.753 75.074 462.763 76.064L461.737 74.849C462.943 73.643 464.599 73.04 466.705 73.04C468.145 73.04 469.324 73.436 470.242 74.228C471.16 75.02 471.619 76.154 471.619 77.63V83.165C471.619 84.299 471.691 85.244 471.835 86H470.188C470.062 85.28 469.999 84.596 469.999 83.948H469.945C468.847 85.532 467.317 86.324 465.355 86.324C464.221 86.324 463.204 86.009 462.304 85.379C461.422 84.731 460.981 83.768 460.981 82.49C460.981 81.86 461.089 81.311 461.305 80.843C461.521 80.357 461.845 79.961 462.277 79.655C462.709 79.349 463.177 79.106 463.681 78.926C464.185 78.728 464.806 78.584 465.544 78.494C466.282 78.386 466.966 78.323 467.596 78.305C468.244 78.269 469.009 78.251 469.891 78.251ZM469.891 79.682H469.351C468.487 79.682 467.713 79.718 467.029 79.79C466.363 79.844 465.688 79.961 465.004 80.141C464.338 80.321 463.816 80.6 463.438 80.978C463.06 81.356 462.871 81.833 462.871 82.409C462.871 83.237 463.159 83.849 463.735 84.245C464.311 84.623 465.013 84.812 465.841 84.812C467.083 84.812 468.064 84.407 468.784 83.597C469.522 82.787 469.891 81.797 469.891 80.627V79.682ZM486.177 66.884L492.657 82.706H492.684L499.083 66.884H502.053V86H500.109V69.395H500.055L493.143 86H492.117L485.205 69.395H485.151V86H483.207V66.884H486.177ZM508.877 73.364V86H507.041V73.364H508.877ZM508.85 67.586C509.12 67.838 509.255 68.144 509.255 68.504C509.255 68.864 509.12 69.17 508.85 69.422C508.598 69.674 508.301 69.8 507.959 69.8C507.617 69.8 507.311 69.674 507.041 69.422C506.789 69.17 506.663 68.864 506.663 68.504C506.663 68.144 506.789 67.838 507.041 67.586C507.311 67.334 507.617 67.208 507.959 67.208C508.301 67.208 508.598 67.334 508.85 67.586ZM513.656 73.364H515.411C515.483 74.264 515.519 74.984 515.519 75.524H515.573C515.915 74.804 516.491 74.21 517.301 73.742C518.129 73.274 518.993 73.04 519.893 73.04C521.459 73.04 522.647 73.508 523.457 74.444C524.285 75.38 524.699 76.649 524.699 78.251V86H522.863V79.007C522.863 77.585 522.602 76.496 522.08 75.74C521.576 74.966 520.694 74.579 519.434 74.579C518.372 74.579 517.463 75.011 516.707 75.875C515.969 76.721 515.6 77.936 515.6 79.52V86H513.764V76.145C513.764 75.065 513.728 74.138 513.656 73.364ZM531.315 73.364V86H529.479V73.364H531.315ZM531.288 67.586C531.558 67.838 531.693 68.144 531.693 68.504C531.693 68.864 531.558 69.17 531.288 69.422C531.036 69.674 530.739 69.8 530.397 69.8C530.055 69.8 529.749 69.674 529.479 69.422C529.227 69.17 529.101 68.864 529.101 68.504C529.101 68.144 529.227 67.838 529.479 67.586C529.749 67.334 530.055 67.208 530.397 67.208C530.739 67.208 531.036 67.334 531.288 67.586ZM538.011 75.524C538.389 74.786 538.947 74.192 539.685 73.742C540.441 73.274 541.269 73.04 542.169 73.04C544.077 73.04 545.373 73.931 546.057 75.713C546.939 73.931 548.415 73.04 550.485 73.04C552.051 73.04 553.239 73.508 554.049 74.444C554.877 75.38 555.291 76.649 555.291 78.251V86H553.455V79.007C553.455 76.055 552.366 74.579 550.188 74.579C548.964 74.579 548.055 75.038 547.461 75.956C546.885 76.856 546.597 77.963 546.597 79.277V86H544.761V78.629C544.761 77.297 544.536 76.289 544.086 75.605C543.654 74.921 542.862 74.579 541.71 74.579C540.738 74.579 539.883 75.011 539.145 75.875C538.407 76.721 538.038 77.936 538.038 79.52V86H536.202V76.145C536.202 75.065 536.166 74.138 536.094 73.364H537.849C537.921 74.264 537.957 74.984 537.957 75.524H538.011ZM570.973 86H569.218C569.146 85.1 569.11 84.38 569.11 83.84H569.056C568.714 84.56 568.129 85.154 567.301 85.622C566.491 86.09 565.636 86.324 564.736 86.324C563.17 86.324 561.973 85.856 561.145 84.92C560.335 83.984 559.93 82.715 559.93 81.113V73.364H561.766V80.357C561.766 81.779 562.018 82.877 562.522 83.651C563.044 84.407 563.935 84.785 565.195 84.785C566.257 84.785 567.157 84.362 567.895 83.516C568.651 82.652 569.029 81.428 569.029 79.844V73.364H570.865V83.219C570.865 84.299 570.901 85.226 570.973 86ZM577.536 75.524C577.914 74.786 578.472 74.192 579.21 73.742C579.966 73.274 580.794 73.04 581.694 73.04C583.602 73.04 584.898 73.931 585.582 75.713C586.464 73.931 587.94 73.04 590.01 73.04C591.576 73.04 592.764 73.508 593.574 74.444C594.402 75.38 594.816 76.649 594.816 78.251V86H592.98V79.007C592.98 76.055 591.891 74.579 589.713 74.579C588.489 74.579 587.58 75.038 586.986 75.956C586.41 76.856 586.122 77.963 586.122 79.277V86H584.286V78.629C584.286 77.297 584.061 76.289 583.611 75.605C583.179 74.921 582.387 74.579 581.235 74.579C580.263 74.579 579.408 75.011 578.67 75.875C577.932 76.721 577.563 77.936 577.563 79.52V86H575.727V76.145C575.727 75.065 575.691 74.138 575.619 73.364H577.374C577.446 74.264 577.482 74.984 577.482 75.524H577.536ZM605.595 66.884L611.805 83.489H611.859L618.069 66.884H620.148L612.831 86H610.779L603.489 66.884H605.595ZM624.049 73.364V86H622.213V73.364H624.049ZM624.022 67.586C624.292 67.838 624.427 68.144 624.427 68.504C624.427 68.864 624.292 69.17 624.022 69.422C623.77 69.674 623.473 69.8 623.131 69.8C622.789 69.8 622.483 69.674 622.213 69.422C621.961 69.17 621.835 68.864 621.835 68.504C621.835 68.144 621.961 67.838 622.213 67.586C622.483 67.334 622.789 67.208 623.131 67.208C623.473 67.208 623.77 67.334 624.022 67.586ZM636.901 78.251V77.846C636.901 75.668 635.776 74.579 633.526 74.579C632.014 74.579 630.763 75.074 629.773 76.064L628.747 74.849C629.953 73.643 631.609 73.04 633.715 73.04C635.155 73.04 636.334 73.436 637.252 74.228C638.17 75.02 638.629 76.154 638.629 77.63V83.165C638.629 84.299 638.701 85.244 638.845 86H637.198C637.072 85.28 637.009 84.596 637.009 83.948H636.955C635.857 85.532 634.327 86.324 632.365 86.324C631.231 86.324 630.214 86.009 629.314 85.379C628.432 84.731 627.991 83.768 627.991 82.49C627.991 81.86 628.099 81.311 628.315 80.843C628.531 80.357 628.855 79.961 629.287 79.655C629.719 79.349 630.187 79.106 630.691 78.926C631.195 78.728 631.816 78.584 632.554 78.494C633.292 78.386 633.976 78.323 634.606 78.305C635.254 78.269 636.019 78.251 636.901 78.251ZM636.901 79.682H636.361C635.497 79.682 634.723 79.718 634.039 79.79C633.373 79.844 632.698 79.961 632.014 80.141C631.348 80.321 630.826 80.6 630.448 80.978C630.07 81.356 629.881 81.833 629.881 82.409C629.881 83.237 630.169 83.849 630.745 84.245C631.321 84.623 632.023 84.812 632.851 84.812C634.093 84.812 635.074 84.407 635.794 83.597C636.532 82.787 636.901 81.797 636.901 80.627V79.682ZM645.303 83.867H645.249V86H643.413V65.588H645.249V75.551H645.303C645.825 74.759 646.518 74.147 647.382 73.715C648.246 73.265 649.146 73.04 650.082 73.04C652.026 73.04 653.601 73.679 654.807 74.957C656.013 76.217 656.616 77.792 656.616 79.682C656.616 81.572 656.013 83.156 654.807 84.434C653.601 85.694 652.026 86.324 650.082 86.324C649.146 86.324 648.246 86.108 647.382 85.676C646.518 85.244 645.825 84.641 645.303 83.867ZM653.376 83.327C654.24 82.355 654.672 81.14 654.672 79.682C654.672 78.224 654.24 77.009 653.376 76.037C652.53 75.065 651.369 74.579 649.893 74.579C648.489 74.579 647.328 75.065 646.41 76.037C645.492 77.009 645.033 78.224 645.033 79.682C645.033 81.14 645.492 82.355 646.41 83.327C647.328 84.281 648.489 84.758 649.893 84.758C651.369 84.758 652.53 84.281 653.376 83.327ZM662.44 65.588V86H660.604V65.588H662.44ZM668.379 78.71H676.992C676.938 77.486 676.542 76.496 675.804 75.74C675.084 74.966 674.085 74.579 672.807 74.579C671.619 74.579 670.602 74.993 669.756 75.821C668.928 76.631 668.469 77.594 668.379 78.71ZM678.855 79.304C678.855 79.664 678.846 79.952 678.828 80.168H668.352C668.388 81.446 668.847 82.535 669.729 83.435C670.611 84.317 671.691 84.758 672.969 84.758C673.851 84.758 674.652 84.551 675.372 84.137C676.092 83.705 676.641 83.183 677.019 82.571L678.396 83.651C676.992 85.433 675.183 86.324 672.969 86.324C671.097 86.324 669.54 85.694 668.298 84.434C667.056 83.174 666.435 81.59 666.435 79.682C666.435 77.792 667.047 76.217 668.271 74.957C669.495 73.679 671.007 73.04 672.807 73.04C674.715 73.04 676.2 73.634 677.262 74.822C678.324 75.992 678.855 77.486 678.855 79.304ZM288.538 125V105.884H293.938C295.936 105.884 297.511 106.316 298.663 107.18C299.815 108.044 300.391 109.313 300.391 110.987C300.391 112.661 299.806 113.939 298.636 114.821C297.466 115.685 295.882 116.117 293.884 116.117H290.482V125H288.538ZM290.482 107.558V114.47H293.776C295.288 114.47 296.44 114.173 297.232 113.579C298.042 112.985 298.447 112.121 298.447 110.987C298.447 108.701 296.89 107.558 293.776 107.558H290.482ZM302.8 115.145C302.8 114.065 302.764 113.138 302.692 112.364H304.447C304.519 113.264 304.555 113.984 304.555 114.524H304.609C304.969 113.786 305.509 113.192 306.229 112.742C306.967 112.274 307.777 112.04 308.659 112.04C309.145 112.04 309.55 112.085 309.874 112.175L309.631 113.903C309.343 113.795 308.911 113.741 308.335 113.741C307.273 113.741 306.391 114.146 305.689 114.956C304.987 115.748 304.636 116.936 304.636 118.52V125H302.8V115.145ZM322.693 113.93C323.971 115.19 324.61 116.774 324.61 118.682C324.61 120.59 323.971 122.174 322.693 123.434C321.433 124.694 319.822 125.324 317.86 125.324C315.916 125.324 314.305 124.694 313.027 123.434C311.767 122.174 311.137 120.59 311.137 118.682C311.137 116.774 311.767 115.19 313.027 113.93C314.305 112.67 315.916 112.04 317.86 112.04C319.822 112.04 321.433 112.67 322.693 113.93ZM321.343 122.327C322.225 121.355 322.666 120.14 322.666 118.682C322.666 117.224 322.225 116.009 321.343 115.037C320.461 114.065 319.3 113.579 317.86 113.579C316.438 113.579 315.286 114.065 314.404 115.037C313.522 116.009 313.081 117.224 313.081 118.682C313.081 120.122 313.522 121.328 314.404 122.3C315.286 123.272 316.438 123.758 317.86 123.758C319.3 123.758 320.461 123.281 321.343 122.327ZM338.956 122.867C338.434 123.641 337.741 124.244 336.877 124.676C336.013 125.108 335.113 125.324 334.177 125.324C332.233 125.324 330.658 124.694 329.452 123.434C328.246 122.156 327.643 120.572 327.643 118.682C327.643 116.792 328.246 115.217 329.452 113.957C330.658 112.679 332.233 112.04 334.177 112.04C335.113 112.04 336.013 112.265 336.877 112.715C337.741 113.147 338.434 113.759 338.956 114.551H339.01V104.588H340.846V125H339.01V122.867H338.956ZM330.856 115.037C330.01 116.009 329.587 117.224 329.587 118.682C329.587 120.14 330.01 121.355 330.856 122.327C331.72 123.281 332.89 123.758 334.366 123.758C335.77 123.758 336.931 123.281 337.849 122.327C338.767 121.355 339.226 120.14 339.226 118.682C339.226 117.224 338.767 116.009 337.849 115.037C336.931 114.065 335.77 113.579 334.366 113.579C332.89 113.579 331.72 114.065 330.856 115.037ZM356.687 125H354.932C354.86 124.1 354.824 123.38 354.824 122.84H354.77C354.428 123.56 353.843 124.154 353.015 124.622C352.205 125.09 351.35 125.324 350.45 125.324C348.884 125.324 347.687 124.856 346.859 123.92C346.049 122.984 345.644 121.715 345.644 120.113V112.364H347.48V119.357C347.48 120.779 347.732 121.877 348.236 122.651C348.758 123.407 349.649 123.785 350.909 123.785C351.971 123.785 352.871 123.362 353.609 122.516C354.365 121.652 354.743 120.428 354.743 118.844V112.364H356.579V122.219C356.579 123.299 356.615 124.226 356.687 125ZM371.971 114.227L370.54 115.253C370.234 114.767 369.784 114.371 369.19 114.065C368.614 113.741 367.984 113.579 367.3 113.579C365.86 113.579 364.69 114.065 363.79 115.037C362.908 115.991 362.467 117.206 362.467 118.682C362.467 120.14 362.908 121.355 363.79 122.327C364.672 123.281 365.833 123.758 367.273 123.758C368.731 123.758 369.874 123.209 370.702 122.111L372.079 123.137C370.891 124.595 369.289 125.324 367.273 125.324C365.257 125.324 363.628 124.703 362.386 123.461C361.144 122.201 360.523 120.608 360.523 118.682C360.523 116.756 361.144 115.172 362.386 113.93C363.628 112.67 365.257 112.04 367.273 112.04C368.173 112.04 369.046 112.229 369.892 112.607C370.756 112.985 371.449 113.525 371.971 114.227ZM380.638 112.364V113.903H377.074V121.274C377.074 122.156 377.236 122.768 377.56 123.11C377.884 123.434 378.352 123.596 378.964 123.596C379.486 123.596 380.017 123.461 380.557 123.191L380.638 124.784C379.972 125.036 379.252 125.162 378.478 125.162C377.614 125.162 376.858 124.91 376.21 124.406C375.562 123.902 375.238 123.029 375.238 121.787V113.903H372.619V112.364H375.238V108.8H377.074V112.364H380.638ZM395.606 112.364V113.903H392.636V125H390.8V113.903H388.154V112.364H390.8V108.908C390.8 107.45 391.16 106.316 391.88 105.506C392.6 104.678 393.671 104.264 395.093 104.264C395.669 104.264 396.173 104.327 396.605 104.453L396.281 106.073C395.849 105.947 395.426 105.884 395.012 105.884C394.094 105.884 393.464 106.163 393.122 106.721C392.798 107.279 392.636 108.08 392.636 109.124V112.364H395.606ZM408.861 113.93C410.139 115.19 410.778 116.774 410.778 118.682C410.778 120.59 410.139 122.174 408.861 123.434C407.601 124.694 405.99 125.324 404.028 125.324C402.084 125.324 400.473 124.694 399.195 123.434C397.935 122.174 397.305 120.59 397.305 118.682C397.305 116.774 397.935 115.19 399.195 113.93C400.473 112.67 402.084 112.04 404.028 112.04C405.99 112.04 407.601 112.67 408.861 113.93ZM407.511 122.327C408.393 121.355 408.834 120.14 408.834 118.682C408.834 117.224 408.393 116.009 407.511 115.037C406.629 114.065 405.468 113.579 404.028 113.579C402.606 113.579 401.454 114.065 400.572 115.037C399.69 116.009 399.249 117.224 399.249 118.682C399.249 120.122 399.69 121.328 400.572 122.3C401.454 123.272 402.606 123.758 404.028 123.758C405.468 123.758 406.629 123.281 407.511 122.327ZM414.729 115.145C414.729 114.065 414.693 113.138 414.621 112.364H416.376C416.448 113.264 416.484 113.984 416.484 114.524H416.538C416.898 113.786 417.438 113.192 418.158 112.742C418.896 112.274 419.706 112.04 420.588 112.04C421.074 112.04 421.479 112.085 421.803 112.175L421.56 113.903C421.272 113.795 420.84 113.741 420.264 113.741C419.202 113.741 418.32 114.146 417.618 114.956C416.916 115.748 416.565 116.936 416.565 118.52V125H414.729V115.145ZM435.879 114.038V107.072C434.925 107.108 434.124 107.45 433.476 108.098C432.846 108.728 432.531 109.538 432.531 110.528C432.531 112.256 433.647 113.426 435.879 114.038ZM437.175 116.333V123.758C438.111 123.722 438.93 123.407 439.632 122.813C440.352 122.219 440.712 121.31 440.712 120.086C440.712 119.204 440.388 118.448 439.74 117.818C439.11 117.17 438.255 116.675 437.175 116.333ZM435.879 123.758V116.009C435.159 115.793 434.529 115.559 433.989 115.307C433.467 115.055 432.927 114.731 432.369 114.335C431.829 113.921 431.406 113.408 431.1 112.796C430.812 112.184 430.668 111.482 430.668 110.69C430.668 109.178 431.163 107.963 432.153 107.045C433.161 106.127 434.403 105.632 435.879 105.56V103.616H437.175V105.56C438.093 105.596 439.011 105.803 439.929 106.181C440.847 106.541 441.594 107.063 442.17 107.747L440.685 108.881C439.857 107.711 438.687 107.108 437.175 107.072V114.497C437.985 114.785 438.66 115.064 439.2 115.334C439.758 115.586 440.325 115.937 440.901 116.387C441.477 116.819 441.909 117.359 442.197 118.007C442.503 118.637 442.656 119.375 442.656 120.221C442.656 121.697 442.134 122.912 441.09 123.866C440.046 124.802 438.741 125.288 437.175 125.324V127.268H435.879V125.324C433.539 125.27 431.64 124.316 430.182 122.462L431.721 121.382C432.171 122.12 432.81 122.696 433.638 123.11C434.466 123.524 435.213 123.74 435.879 123.758ZM454.106 105.884V125H452.162V108.287L448.706 111.23L447.518 109.88L452.378 105.884H454.106ZM467.933 105.398C469.067 105.398 470.057 105.686 470.903 106.262C471.749 106.82 472.397 107.594 472.847 108.584C473.315 109.574 473.657 110.645 473.873 111.797C474.089 112.931 474.197 114.155 474.197 115.469C474.197 116.783 474.089 118.007 473.873 119.141C473.657 120.275 473.315 121.337 472.847 122.327C472.397 123.299 471.749 124.073 470.903 124.649C470.057 125.207 469.067 125.486 467.933 125.486C466.781 125.486 465.782 125.207 464.936 124.649C464.09 124.073 463.433 123.299 462.965 122.327C462.515 121.337 462.182 120.284 461.966 119.168C461.768 118.034 461.669 116.801 461.669 115.469C461.669 114.425 461.732 113.444 461.858 112.526C461.984 111.59 462.191 110.681 462.479 109.799C462.785 108.899 463.172 108.134 463.64 107.504C464.108 106.874 464.702 106.37 465.422 105.992C466.16 105.596 466.997 105.398 467.933 105.398ZM467.933 107.045C467.123 107.045 466.421 107.297 465.827 107.801C465.251 108.305 464.81 108.989 464.504 109.853C464.198 110.717 463.973 111.608 463.829 112.526C463.703 113.444 463.64 114.425 463.64 115.469C463.64 116.513 463.703 117.494 463.829 118.412C463.973 119.312 464.198 120.194 464.504 121.058C464.81 121.904 465.251 122.579 465.827 123.083C466.421 123.569 467.123 123.812 467.933 123.812C468.725 123.812 469.409 123.569 469.985 123.083C470.579 122.579 471.029 121.904 471.335 121.058C471.641 120.212 471.866 119.33 472.01 118.412C472.154 117.476 472.226 116.495 472.226 115.469C472.226 114.443 472.154 113.462 472.01 112.526C471.866 111.59 471.641 110.699 471.335 109.853C471.029 108.989 470.579 108.305 469.985 107.801C469.409 107.297 468.725 107.045 467.933 107.045ZM480.085 104.588V118.061H480.166L485.998 112.364H488.644L482.272 118.142L489.292 125H486.592L480.166 118.358H480.085V125H478.249V104.588H480.085ZM504.405 112.364V113.903H500.841V121.274C500.841 122.156 501.003 122.768 501.327 123.11C501.651 123.434 502.119 123.596 502.731 123.596C503.253 123.596 503.784 123.461 504.324 123.191L504.405 124.784C503.739 125.036 503.019 125.162 502.245 125.162C501.381 125.162 500.625 124.91 499.977 124.406C499.329 123.902 499.005 123.029 499.005 121.787V113.903H496.386V112.364H499.005V108.8H500.841V112.364H504.405ZM517.916 113.93C519.194 115.19 519.833 116.774 519.833 118.682C519.833 120.59 519.194 122.174 517.916 123.434C516.656 124.694 515.045 125.324 513.083 125.324C511.139 125.324 509.528 124.694 508.25 123.434C506.99 122.174 506.36 120.59 506.36 118.682C506.36 116.774 506.99 115.19 508.25 113.93C509.528 112.67 511.139 112.04 513.083 112.04C515.045 112.04 516.656 112.67 517.916 113.93ZM516.566 122.327C517.448 121.355 517.889 120.14 517.889 118.682C517.889 117.224 517.448 116.009 516.566 115.037C515.684 114.065 514.523 113.579 513.083 113.579C511.661 113.579 510.509 114.065 509.627 115.037C508.745 116.009 508.304 117.224 508.304 118.682C508.304 120.122 508.745 121.328 509.627 122.3C510.509 123.272 511.661 123.758 513.083 123.758C514.523 123.758 515.684 123.281 516.566 122.327ZM535.205 114.038V107.072C534.251 107.108 533.45 107.45 532.802 108.098C532.172 108.728 531.857 109.538 531.857 110.528C531.857 112.256 532.973 113.426 535.205 114.038ZM536.501 116.333V123.758C537.437 123.722 538.256 123.407 538.958 122.813C539.678 122.219 540.038 121.31 540.038 120.086C540.038 119.204 539.714 118.448 539.066 117.818C538.436 117.17 537.581 116.675 536.501 116.333ZM535.205 123.758V116.009C534.485 115.793 533.855 115.559 533.315 115.307C532.793 115.055 532.253 114.731 531.695 114.335C531.155 113.921 530.732 113.408 530.426 112.796C530.138 112.184 529.994 111.482 529.994 110.69C529.994 109.178 530.489 107.963 531.479 107.045C532.487 106.127 533.729 105.632 535.205 105.56V103.616H536.501V105.56C537.419 105.596 538.337 105.803 539.255 106.181C540.173 106.541 540.92 107.063 541.496 107.747L540.011 108.881C539.183 107.711 538.013 107.108 536.501 107.072V114.497C537.311 114.785 537.986 115.064 538.526 115.334C539.084 115.586 539.651 115.937 540.227 116.387C540.803 116.819 541.235 117.359 541.523 118.007C541.829 118.637 541.982 119.375 541.982 120.221C541.982 121.697 541.46 122.912 540.416 123.866C539.372 124.802 538.067 125.288 536.501 125.324V127.268H535.205V125.324C532.865 125.27 530.966 124.316 529.508 122.462L531.047 121.382C531.497 122.12 532.136 122.696 532.964 123.11C533.792 123.524 534.539 123.74 535.205 123.758ZM557.374 123.272V125H545.143V122.975L552.973 115.064C554.503 113.498 555.268 112.04 555.268 110.69C555.268 109.61 554.899 108.737 554.161 108.071C553.441 107.387 552.55 107.045 551.488 107.045C550.48 107.045 549.625 107.36 548.923 107.99C548.221 108.62 547.762 109.439 547.546 110.447L545.629 110.069C545.899 108.701 546.574 107.585 547.654 106.721C548.734 105.839 550.012 105.398 551.488 105.398C553.126 105.398 554.494 105.857 555.592 106.775C556.69 107.693 557.239 108.989 557.239 110.663C557.239 111.779 556.978 112.769 556.456 113.633C555.934 114.479 555.16 115.415 554.134 116.441L547.249 123.272H557.374ZM567.258 105.398C568.392 105.398 569.382 105.686 570.228 106.262C571.074 106.82 571.722 107.594 572.172 108.584C572.64 109.574 572.982 110.645 573.198 111.797C573.414 112.931 573.522 114.155 573.522 115.469C573.522 116.783 573.414 118.007 573.198 119.141C572.982 120.275 572.64 121.337 572.172 122.327C571.722 123.299 571.074 124.073 570.228 124.649C569.382 125.207 568.392 125.486 567.258 125.486C566.106 125.486 565.107 125.207 564.261 124.649C563.415 124.073 562.758 123.299 562.29 122.327C561.84 121.337 561.507 120.284 561.291 119.168C561.093 118.034 560.994 116.801 560.994 115.469C560.994 114.425 561.057 113.444 561.183 112.526C561.309 111.59 561.516 110.681 561.804 109.799C562.11 108.899 562.497 108.134 562.965 107.504C563.433 106.874 564.027 106.37 564.747 105.992C565.485 105.596 566.322 105.398 567.258 105.398ZM567.258 107.045C566.448 107.045 565.746 107.297 565.152 107.801C564.576 108.305 564.135 108.989 563.829 109.853C563.523 110.717 563.298 111.608 563.154 112.526C563.028 113.444 562.965 114.425 562.965 115.469C562.965 116.513 563.028 117.494 563.154 118.412C563.298 119.312 563.523 120.194 563.829 121.058C564.135 121.904 564.576 122.579 565.152 123.083C565.746 123.569 566.448 123.812 567.258 123.812C568.05 123.812 568.734 123.569 569.31 123.083C569.904 122.579 570.354 121.904 570.66 121.058C570.966 120.212 571.191 119.33 571.335 118.412C571.479 117.476 571.551 116.495 571.551 115.469C571.551 114.443 571.479 113.462 571.335 112.526C571.191 111.59 570.966 110.699 570.66 109.853C570.354 108.989 569.904 108.305 569.31 107.801C568.734 107.297 568.05 107.045 567.258 107.045ZM579.41 104.588V118.061H579.491L585.323 112.364H587.969L581.597 118.142L588.617 125H585.917L579.491 118.358H579.41V125H577.574V104.588H579.41Z" fill="white"/>
<path d="M207.333 117C207.333 118.473 208.527 119.667 210 119.667C211.473 119.667 212.667 118.473 212.667 117C212.667 115.527 211.473 114.333 210 114.333C208.527 114.333 207.333 115.527 207.333 117ZM278.311 44V43.5H278.094L277.946 43.6584L278.311 44ZM210.365 117.342L278.676 44.3416L277.946 43.6584L209.635 116.658L210.365 117.342ZM278.311 44.5H804.5V43.5H278.311V44.5Z" fill="#02C476"/>
</svg>
