<svg width="1411" height="150" viewBox="0 0 1411 150" fill="none" xmlns="http://www.w3.org/2000/svg">
<path d="M0.214844 127.947C0.214844 127.395 0.662559 126.947 1.21484 126.947H1409.04C1409.59 126.947 1410.04 127.395 1410.04 127.947V136.947C1410.04 137.5 1409.59 137.947 1409.04 137.947H1.21482C0.66254 137.947 0.214844 137.5 0.214844 136.947V127.947Z" fill="#383838"/>
<path d="M0.214844 127.947C0.214844 127.395 0.662559 126.947 1.21484 126.947H513.15C513.703 126.947 514.15 127.395 514.15 127.947V136.947C514.15 137.5 513.703 137.947 513.15 137.947H1.21486C0.662571 137.947 0.214844 137.5 0.214844 136.947V127.947Z" fill="#02C476"/>
<ellipse cx="517.15" cy="130.947" rx="18.9976" ry="18.9988" fill="#02C476"/>
<path d="M625.991 24.2061L627.391 25.1061C626.757 26.0727 625.866 26.8644 624.716 27.4811C623.582 28.0977 622.266 28.4061 620.766 28.4061C618.099 28.4061 615.891 27.5311 614.141 25.7811C612.407 24.0144 611.541 21.7894 611.541 19.1061C611.541 16.4227 612.416 14.2061 614.166 12.4561C615.916 10.6894 618.116 9.80605 620.766 9.80605C622.066 9.80605 623.282 10.0644 624.416 10.5811C625.566 11.0811 626.449 11.7561 627.066 12.6061L625.566 13.7061C625.149 13.0727 624.507 12.5311 623.641 12.0811C622.791 11.6144 621.841 11.3811 620.791 11.3811C618.574 11.3811 616.791 12.1311 615.441 13.6311C614.107 15.1311 613.441 16.9561 613.441 19.1061C613.441 21.2561 614.116 23.0811 615.466 24.5811C616.816 26.0811 618.591 26.8311 620.791 26.8311C623.091 26.8311 624.824 25.9561 625.991 24.2061ZM630.384 18.8311C630.384 17.8311 630.35 16.9727 630.284 16.2561H631.909C631.975 17.0894 632.009 17.7561 632.009 18.2561H632.059C632.392 17.5727 632.892 17.0227 633.559 16.6061C634.242 16.1727 634.992 15.9561 635.809 15.9561C636.259 15.9561 636.634 15.9977 636.934 16.0811L636.709 17.6811C636.442 17.5811 636.042 17.5311 635.509 17.5311C634.525 17.5311 633.709 17.9061 633.059 18.6561C632.409 19.3894 632.084 20.4894 632.084 21.9561V27.9561H630.384V18.8311ZM639.903 21.2061H647.878C647.828 20.0727 647.461 19.1561 646.778 18.4561C646.111 17.7394 645.186 17.3811 644.003 17.3811C642.903 17.3811 641.961 17.7644 641.178 18.5311C640.411 19.2811 639.986 20.1727 639.903 21.2061ZM649.603 21.7561C649.603 22.0894 649.595 22.3561 649.578 22.5561H639.878C639.911 23.7394 640.336 24.7477 641.153 25.5811C641.97 26.3977 642.97 26.8061 644.153 26.8061C644.97 26.8061 645.711 26.6144 646.378 26.2311C647.045 25.8311 647.553 25.3477 647.903 24.7811L649.178 25.7811C647.878 27.4311 646.203 28.2561 644.153 28.2561C642.42 28.2561 640.978 27.6727 639.828 26.5061C638.678 25.3394 638.103 23.8727 638.103 22.1061C638.103 20.3561 638.67 18.8977 639.803 17.7311C640.936 16.5477 642.336 15.9561 644.003 15.9561C645.77 15.9561 647.145 16.5061 648.128 17.6061C649.111 18.6894 649.603 20.0727 649.603 21.7561ZM660.488 20.7811V20.4061C660.488 18.3894 659.447 17.3811 657.363 17.3811C655.963 17.3811 654.805 17.8394 653.888 18.7561L652.938 17.6311C654.055 16.5144 655.588 15.9561 657.538 15.9561C658.872 15.9561 659.963 16.3227 660.813 17.0561C661.663 17.7894 662.088 18.8394 662.088 20.2061V25.3311C662.088 26.3811 662.155 27.2561 662.288 27.9561H660.763C660.647 27.2894 660.588 26.6561 660.588 26.0561H660.538C659.522 27.5227 658.105 28.2561 656.288 28.2561C655.238 28.2561 654.297 27.9644 653.463 27.3811C652.647 26.7811 652.238 25.8894 652.238 24.7061C652.238 24.1227 652.338 23.6144 652.538 23.1811C652.738 22.7311 653.038 22.3644 653.438 22.0811C653.838 21.7977 654.272 21.5727 654.738 21.4061C655.205 21.2227 655.78 21.0894 656.463 21.0061C657.147 20.9061 657.78 20.8477 658.363 20.8311C658.963 20.7977 659.672 20.7811 660.488 20.7811ZM660.488 22.1061H659.988C659.188 22.1061 658.472 22.1394 657.838 22.2061C657.222 22.2561 656.597 22.3644 655.963 22.5311C655.347 22.6977 654.863 22.9561 654.513 23.3061C654.163 23.6561 653.988 24.0977 653.988 24.6311C653.988 25.3977 654.255 25.9644 654.788 26.3311C655.322 26.6811 655.972 26.8561 656.738 26.8561C657.888 26.8561 658.797 26.4811 659.463 25.7311C660.147 24.9811 660.488 24.0644 660.488 22.9811V22.1061ZM671.499 16.2561V17.6811H668.199V24.5061C668.199 25.3227 668.349 25.8894 668.649 26.2061C668.949 26.5061 669.382 26.6561 669.949 26.6561C670.432 26.6561 670.924 26.5311 671.424 26.2811L671.499 27.7561C670.882 27.9894 670.215 28.1061 669.499 28.1061C668.699 28.1061 667.999 27.8727 667.399 27.4061C666.799 26.9394 666.499 26.1311 666.499 24.9811V17.6811H664.074V16.2561H666.499V12.9561H668.199V16.2561H671.499ZM675.108 21.2061H683.083C683.033 20.0727 682.667 19.1561 681.983 18.4561C681.317 17.7394 680.392 17.3811 679.208 17.3811C678.108 17.3811 677.167 17.7644 676.383 18.5311C675.617 19.2811 675.192 20.1727 675.108 21.2061ZM684.808 21.7561C684.808 22.0894 684.8 22.3561 684.783 22.5561H675.083C675.117 23.7394 675.542 24.7477 676.358 25.5811C677.175 26.3977 678.175 26.8061 679.358 26.8061C680.175 26.8061 680.917 26.6144 681.583 26.2311C682.25 25.8311 682.758 25.3477 683.108 24.7811L684.383 25.7811C683.083 27.4311 681.408 28.2561 679.358 28.2561C677.625 28.2561 676.183 27.6727 675.033 26.5061C673.883 25.3394 673.308 23.8727 673.308 22.1061C673.308 20.3561 673.875 18.8977 675.008 17.7311C676.142 16.5477 677.542 15.9561 679.208 15.9561C680.975 15.9561 682.35 16.5061 683.333 17.6061C684.317 18.6894 684.808 20.0727 684.808 21.7561ZM702.09 20.7811V20.4061C702.09 18.3894 701.048 17.3811 698.965 17.3811C697.565 17.3811 696.407 17.8394 695.49 18.7561L694.54 17.6311C695.657 16.5144 697.19 15.9561 699.14 15.9561C700.473 15.9561 701.565 16.3227 702.415 17.0561C703.265 17.7894 703.69 18.8394 703.69 20.2061V25.3311C703.69 26.3811 703.757 27.2561 703.89 27.9561H702.365C702.248 27.2894 702.19 26.6561 702.19 26.0561H702.14C701.123 27.5227 699.707 28.2561 697.89 28.2561C696.84 28.2561 695.898 27.9644 695.065 27.3811C694.248 26.7811 693.84 25.8894 693.84 24.7061C693.84 24.1227 693.94 23.6144 694.14 23.1811C694.34 22.7311 694.64 22.3644 695.04 22.0811C695.44 21.7977 695.873 21.5727 696.34 21.4061C696.807 21.2227 697.382 21.0894 698.065 21.0061C698.748 20.9061 699.382 20.8477 699.965 20.8311C700.565 20.7977 701.273 20.7811 702.09 20.7811ZM702.09 22.1061H701.59C700.79 22.1061 700.073 22.1394 699.44 22.2061C698.823 22.2561 698.198 22.3644 697.565 22.5311C696.948 22.6977 696.465 22.9561 696.115 23.3061C695.765 23.6561 695.59 24.0977 695.59 24.6311C695.59 25.3977 695.857 25.9644 696.39 26.3311C696.923 26.6811 697.573 26.8561 698.34 26.8561C699.49 26.8561 700.398 26.4811 701.065 25.7311C701.748 24.9811 702.09 24.0644 702.09 22.9811V22.1061ZM707.969 16.2561H709.594C709.661 17.0894 709.694 17.7561 709.694 18.2561H709.744C710.061 17.5894 710.594 17.0394 711.344 16.6061C712.111 16.1727 712.911 15.9561 713.744 15.9561C715.194 15.9561 716.294 16.3894 717.044 17.2561C717.811 18.1227 718.194 19.2977 718.194 20.7811V27.9561H716.494V21.4811C716.494 20.1644 716.253 19.1561 715.769 18.4561C715.303 17.7394 714.486 17.3811 713.319 17.3811C712.336 17.3811 711.494 17.7811 710.794 18.5811C710.111 19.3644 709.769 20.4894 709.769 21.9561V27.9561H708.069V18.8311C708.069 17.8311 708.036 16.9727 707.969 16.2561ZM736.221 20.7811V20.4061C736.221 18.3894 735.179 17.3811 733.096 17.3811C731.696 17.3811 730.537 17.8394 729.621 18.7561L728.671 17.6311C729.787 16.5144 731.321 15.9561 733.271 15.9561C734.604 15.9561 735.696 16.3227 736.546 17.0561C737.396 17.7894 737.821 18.8394 737.821 20.2061V25.3311C737.821 26.3811 737.887 27.2561 738.021 27.9561H736.496C736.379 27.2894 736.321 26.6561 736.321 26.0561H736.271C735.254 27.5227 733.837 28.2561 732.021 28.2561C730.971 28.2561 730.029 27.9644 729.196 27.3811C728.379 26.7811 727.971 25.8894 727.971 24.7061C727.971 24.1227 728.071 23.6144 728.271 23.1811C728.471 22.7311 728.771 22.3644 729.171 22.0811C729.571 21.7977 730.004 21.5727 730.471 21.4061C730.937 21.2227 731.512 21.0894 732.196 21.0061C732.879 20.9061 733.512 20.8477 734.096 20.8311C734.696 20.7977 735.404 20.7811 736.221 20.7811ZM736.221 22.1061H735.721C734.921 22.1061 734.204 22.1394 733.571 22.2061C732.954 22.2561 732.329 22.3644 731.696 22.5311C731.079 22.6977 730.596 22.9561 730.246 23.3061C729.896 23.6561 729.721 24.0977 729.721 24.6311C729.721 25.3977 729.987 25.9644 730.521 26.3311C731.054 26.6811 731.704 26.8561 732.471 26.8561C733.621 26.8561 734.529 26.4811 735.196 25.7311C735.879 24.9811 736.221 24.0644 736.221 22.9811V22.1061ZM743.9 25.9811V33.9561H742.2V16.2561H743.9V18.2811H743.975C744.442 17.5477 745.075 16.9811 745.875 16.5811C746.675 16.1644 747.509 15.9561 748.375 15.9561C750.175 15.9561 751.634 16.5477 752.75 17.7311C753.867 18.8977 754.425 20.3561 754.425 22.1061C754.425 23.8561 753.867 25.3227 752.75 26.5061C751.634 27.6727 750.175 28.2561 748.375 28.2561C747.525 28.2561 746.7 28.0561 745.9 27.6561C745.1 27.2561 744.459 26.6977 743.975 25.9811H743.9ZM751.425 25.4811C752.225 24.5811 752.625 23.4561 752.625 22.1061C752.625 20.7561 752.225 19.6311 751.425 18.7311C750.642 17.8311 749.567 17.3811 748.2 17.3811C746.9 17.3811 745.825 17.8311 744.975 18.7311C744.125 19.6311 743.7 20.7561 743.7 22.1061C743.7 23.4561 744.125 24.5811 744.975 25.4811C745.825 26.3644 746.9 26.8061 748.2 26.8061C749.567 26.8061 750.642 26.3644 751.425 25.4811ZM759.769 25.9811V33.9561H758.069V16.2561H759.769V18.2811H759.844C760.311 17.5477 760.944 16.9811 761.744 16.5811C762.544 16.1644 763.378 15.9561 764.244 15.9561C766.044 15.9561 767.503 16.5477 768.619 17.7311C769.736 18.8977 770.294 20.3561 770.294 22.1061C770.294 23.8561 769.736 25.3227 768.619 26.5061C767.503 27.6727 766.044 28.2561 764.244 28.2561C763.394 28.2561 762.569 28.0561 761.769 27.6561C760.969 27.2561 760.328 26.6977 759.844 25.9811H759.769ZM767.294 25.4811C768.094 24.5811 768.494 23.4561 768.494 22.1061C768.494 20.7561 768.094 19.6311 767.294 18.7311C766.511 17.8311 765.436 17.3811 764.069 17.3811C762.769 17.3811 761.694 17.8311 760.844 18.7311C759.994 19.6311 759.569 20.7561 759.569 22.1061C759.569 23.4561 759.994 24.5811 760.844 25.4811C761.694 26.3644 762.769 26.8061 764.069 26.8061C765.436 26.8061 766.511 26.3644 767.294 25.4811ZM785.463 16.2561V17.6811H782.163V24.5061C782.163 25.3227 782.313 25.8894 782.613 26.2061C782.913 26.5061 783.347 26.6561 783.913 26.6561C784.397 26.6561 784.888 26.5311 785.388 26.2811L785.463 27.7561C784.847 27.9894 784.18 28.1061 783.463 28.1061C782.663 28.1061 781.963 27.8727 781.363 27.4061C780.763 26.9394 780.463 26.1311 780.463 24.9811V17.6811H778.038V16.2561H780.463V12.9561H782.163V16.2561H785.463ZM797.973 17.7061C799.156 18.8727 799.748 20.3394 799.748 22.1061C799.748 23.8727 799.156 25.3394 797.973 26.5061C796.806 27.6727 795.315 28.2561 793.498 28.2561C791.698 28.2561 790.206 27.6727 789.023 26.5061C787.856 25.3394 787.273 23.8727 787.273 22.1061C787.273 20.3394 787.856 18.8727 789.023 17.7061C790.206 16.5394 791.698 15.9561 793.498 15.9561C795.315 15.9561 796.806 16.5394 797.973 17.7061ZM796.723 25.4811C797.54 24.5811 797.948 23.4561 797.948 22.1061C797.948 20.7561 797.54 19.6311 796.723 18.7311C795.906 17.8311 794.831 17.3811 793.498 17.3811C792.181 17.3811 791.115 17.8311 790.298 18.7311C789.481 19.6311 789.073 20.7561 789.073 22.1061C789.073 23.4394 789.481 24.5561 790.298 25.4561C791.115 26.3561 792.181 26.8061 793.498 26.8061C794.831 26.8061 795.906 26.3644 796.723 25.4811ZM813.031 25.9811C812.548 26.6977 811.906 27.2561 811.106 27.6561C810.306 28.0561 809.473 28.2561 808.606 28.2561C806.806 28.2561 805.348 27.6727 804.231 26.5061C803.115 25.3227 802.556 23.8561 802.556 22.1061C802.556 20.3561 803.115 18.8977 804.231 17.7311C805.348 16.5477 806.806 15.9561 808.606 15.9561C809.473 15.9561 810.306 16.1644 811.106 16.5811C811.906 16.9811 812.548 17.5477 813.031 18.2811H813.081V9.05605H814.781V27.9561H813.081V25.9811H813.031ZM805.531 18.7311C804.748 19.6311 804.356 20.7561 804.356 22.1061C804.356 23.4561 804.748 24.5811 805.531 25.4811C806.331 26.3644 807.415 26.8061 808.781 26.8061C810.081 26.8061 811.156 26.3644 812.006 25.4811C812.856 24.5811 813.281 23.4561 813.281 22.1061C813.281 20.7561 812.856 19.6311 812.006 18.7311C811.156 17.8311 810.081 17.3811 808.781 17.3811C807.415 17.3811 806.331 17.8311 805.531 18.7311ZM826.699 20.7811V20.4061C826.699 18.3894 825.658 17.3811 823.574 17.3811C822.174 17.3811 821.016 17.8394 820.099 18.7561L819.149 17.6311C820.266 16.5144 821.799 15.9561 823.749 15.9561C825.083 15.9561 826.174 16.3227 827.024 17.0561C827.874 17.7894 828.299 18.8394 828.299 20.2061V25.3311C828.299 26.3811 828.366 27.2561 828.499 27.9561H826.974C826.858 27.2894 826.799 26.6561 826.799 26.0561H826.749C825.733 27.5227 824.316 28.2561 822.499 28.2561C821.449 28.2561 820.508 27.9644 819.674 27.3811C818.858 26.7811 818.449 25.8894 818.449 24.7061C818.449 24.1227 818.549 23.6144 818.749 23.1811C818.949 22.7311 819.249 22.3644 819.649 22.0811C820.049 21.7977 820.483 21.5727 820.949 21.4061C821.416 21.2227 821.991 21.0894 822.674 21.0061C823.358 20.9061 823.991 20.8477 824.574 20.8311C825.174 20.7977 825.883 20.7811 826.699 20.7811ZM826.699 22.1061H826.199C825.399 22.1061 824.683 22.1394 824.049 22.2061C823.433 22.2561 822.808 22.3644 822.174 22.5311C821.558 22.6977 821.074 22.9561 820.724 23.3061C820.374 23.6561 820.199 24.0977 820.199 24.6311C820.199 25.3977 820.466 25.9644 820.999 26.3311C821.533 26.6811 822.183 26.8561 822.949 26.8561C824.099 26.8561 825.008 26.4811 825.674 25.7311C826.358 24.9811 826.699 24.0644 826.699 22.9811V22.1061ZM832.729 16.2561L836.704 26.1311H836.754L840.379 16.2561H842.229L836.404 30.9811C836.02 31.9644 835.545 32.7061 834.979 33.2061C834.429 33.7061 833.679 33.9561 832.729 33.9561C832.212 33.9561 831.704 33.9061 831.204 33.8061L831.379 32.2561C831.779 32.3894 832.195 32.4561 832.629 32.4561C833.179 32.4561 833.62 32.2811 833.954 31.9311C834.304 31.5977 834.612 31.0811 834.879 30.3811L835.829 27.9311L830.829 16.2561H832.729ZM860.886 17.9811L859.561 18.9311C859.277 18.4811 858.861 18.1144 858.311 17.8311C857.777 17.5311 857.194 17.3811 856.561 17.3811C855.227 17.3811 854.144 17.8311 853.311 18.7311C852.494 19.6144 852.086 20.7394 852.086 22.1061C852.086 23.4561 852.494 24.5811 853.311 25.4811C854.127 26.3644 855.202 26.8061 856.536 26.8061C857.886 26.8061 858.944 26.2977 859.711 25.2811L860.986 26.2311C859.886 27.5811 858.402 28.2561 856.536 28.2561C854.669 28.2561 853.161 27.6811 852.011 26.5311C850.861 25.3644 850.286 23.8894 850.286 22.1061C850.286 20.3227 850.861 18.8561 852.011 17.7061C853.161 16.5394 854.669 15.9561 856.536 15.9561C857.369 15.9561 858.177 16.1311 858.961 16.4811C859.761 16.8311 860.402 17.3311 860.886 17.9811ZM873.486 17.7061C874.669 18.8727 875.261 20.3394 875.261 22.1061C875.261 23.8727 874.669 25.3394 873.486 26.5061C872.319 27.6727 870.827 28.2561 869.011 28.2561C867.211 28.2561 865.719 27.6727 864.536 26.5061C863.369 25.3394 862.786 23.8727 862.786 22.1061C862.786 20.3394 863.369 18.8727 864.536 17.7061C865.719 16.5394 867.211 15.9561 869.011 15.9561C870.827 15.9561 872.319 16.5394 873.486 17.7061ZM872.236 25.4811C873.052 24.5811 873.461 23.4561 873.461 22.1061C873.461 20.7561 873.052 19.6311 872.236 18.7311C871.419 17.8311 870.344 17.3811 869.011 17.3811C867.694 17.3811 866.627 17.8311 865.811 18.7311C864.994 19.6311 864.586 20.7561 864.586 22.1061C864.586 23.4394 864.994 24.5561 865.811 25.4561C866.627 26.3561 867.694 26.8061 869.011 26.8061C870.344 26.8061 871.419 26.3644 872.236 25.4811ZM886.444 18.0561L885.144 19.0311C884.894 18.5311 884.511 18.1311 883.994 17.8311C883.477 17.5311 882.902 17.3811 882.269 17.3811C881.586 17.3811 881.002 17.5394 880.519 17.8561C880.036 18.1561 879.794 18.6061 879.794 19.2061C879.794 19.7394 880.011 20.1561 880.444 20.4561C880.877 20.7561 881.594 21.0061 882.594 21.2061C883.977 21.4894 884.994 21.9061 885.644 22.4561C886.311 23.0061 886.644 23.7311 886.644 24.6311C886.644 25.8644 886.211 26.7811 885.344 27.3811C884.494 27.9644 883.461 28.2561 882.244 28.2561C880.194 28.2561 878.652 27.4977 877.619 25.9811L878.969 24.9811C879.286 25.5144 879.736 25.9561 880.319 26.3061C880.919 26.6394 881.552 26.8061 882.219 26.8061C883.019 26.8061 883.677 26.6477 884.194 26.3311C884.711 25.9977 884.969 25.4727 884.969 24.7561C884.969 24.1727 884.694 23.7227 884.144 23.4061C883.611 23.0894 882.736 22.7894 881.519 22.5061C881.086 22.4061 880.711 22.2977 880.394 22.1811C880.077 22.0644 879.727 21.8894 879.344 21.6561C878.977 21.4227 878.686 21.1144 878.469 20.7311C878.269 20.3311 878.169 19.8727 878.169 19.3561C878.169 18.2394 878.569 17.3977 879.369 16.8311C880.186 16.2477 881.177 15.9561 882.344 15.9561C883.177 15.9561 883.977 16.1477 884.744 16.5311C885.511 16.8977 886.077 17.4061 886.444 18.0561ZM895.302 16.2561V17.6811H892.002V24.5061C892.002 25.3227 892.152 25.8894 892.452 26.2061C892.752 26.5061 893.186 26.6561 893.752 26.6561C894.236 26.6561 894.727 26.5311 895.227 26.2811L895.302 27.7561C894.686 27.9894 894.019 28.1061 893.302 28.1061C892.502 28.1061 891.802 27.8727 891.202 27.4061C890.602 26.9394 890.302 26.1311 890.302 24.9811V17.6811H887.877V16.2561H890.302V12.9561H892.002V16.2561H895.302ZM905.487 18.0561L904.187 19.0311C903.937 18.5311 903.554 18.1311 903.037 17.8311C902.52 17.5311 901.945 17.3811 901.312 17.3811C900.629 17.3811 900.045 17.5394 899.562 17.8561C899.079 18.1561 898.837 18.6061 898.837 19.2061C898.837 19.7394 899.054 20.1561 899.487 20.4561C899.92 20.7561 900.637 21.0061 901.637 21.2061C903.02 21.4894 904.037 21.9061 904.687 22.4561C905.354 23.0061 905.687 23.7311 905.687 24.6311C905.687 25.8644 905.254 26.7811 904.387 27.3811C903.537 27.9644 902.504 28.2561 901.287 28.2561C899.237 28.2561 897.695 27.4977 896.662 25.9811L898.012 24.9811C898.329 25.5144 898.779 25.9561 899.362 26.3061C899.962 26.6394 900.595 26.8061 901.262 26.8061C902.062 26.8061 902.72 26.6477 903.237 26.3311C903.754 25.9977 904.012 25.4727 904.012 24.7561C904.012 24.1727 903.737 23.7227 903.187 23.4061C902.654 23.0894 901.779 22.7894 900.562 22.5061C900.129 22.4061 899.754 22.2977 899.437 22.1811C899.12 22.0644 898.77 21.8894 898.387 21.6561C898.02 21.4227 897.729 21.1144 897.512 20.7311C897.312 20.3311 897.212 19.8727 897.212 19.3561C897.212 18.2394 897.612 17.3977 898.412 16.8311C899.229 16.2477 900.22 15.9561 901.387 15.9561C902.22 15.9561 903.02 16.1477 903.787 16.5311C904.554 16.8977 905.12 17.4061 905.487 18.0561ZM919.645 17.8061V11.3561C918.762 11.3894 918.02 11.7061 917.42 12.3061C916.837 12.8894 916.545 13.6394 916.545 14.5561C916.545 16.1561 917.579 17.2394 919.645 17.8061ZM920.845 19.9311V26.8061C921.712 26.7727 922.47 26.4811 923.12 25.9311C923.787 25.3811 924.12 24.5394 924.12 23.4061C924.12 22.5894 923.82 21.8894 923.22 21.3061C922.637 20.7061 921.845 20.2477 920.845 19.9311ZM919.645 26.8061V19.6311C918.979 19.4311 918.395 19.2144 917.895 18.9811C917.412 18.7477 916.912 18.4477 916.395 18.0811C915.895 17.6977 915.504 17.2227 915.22 16.6561C914.954 16.0894 914.82 15.4394 914.82 14.7061C914.82 13.3061 915.279 12.1811 916.195 11.3311C917.129 10.4811 918.279 10.0227 919.645 9.95605V8.15605H920.845V9.95605C921.695 9.98939 922.545 10.1811 923.395 10.5311C924.245 10.8644 924.937 11.3477 925.47 11.9811L924.095 13.0311C923.329 11.9477 922.245 11.3894 920.845 11.3561V18.2311C921.595 18.4977 922.22 18.7561 922.72 19.0061C923.237 19.2394 923.762 19.5644 924.295 19.9811C924.829 20.3811 925.229 20.8811 925.495 21.4811C925.779 22.0644 925.92 22.7477 925.92 23.5311C925.92 24.8977 925.437 26.0227 924.47 26.9061C923.504 27.7727 922.295 28.2227 920.845 28.2561V30.0561H919.645V28.2561C917.479 28.2061 915.72 27.3227 914.37 25.6061L915.795 24.6061C916.212 25.2894 916.804 25.8227 917.57 26.2061C918.337 26.5894 919.029 26.7894 919.645 26.8061ZM936.522 10.2561V27.9561H934.722V12.4811L931.522 15.2061L930.422 13.9561L934.922 10.2561H936.522ZM954.524 10.2561V11.9061L947.399 27.9561H945.374L952.699 11.8561H944.024V10.2561H954.524ZM965.526 10.2561V27.9561H963.726V12.4811L960.526 15.2061L959.426 13.9561L963.926 10.2561H965.526ZM975.653 25.5811L973.628 31.4561H972.203L973.878 25.5811H975.653ZM988.472 10.2561V22.1061H991.072V23.6811H988.472V27.9561H986.722V23.6811H978.622V21.9311L986.122 10.2561H988.472ZM986.722 22.1061V12.2811H986.672L980.497 22.1061H986.722ZM996.074 9.05605V21.5311H996.149L1001.55 16.2561H1004L998.099 21.6061L1004.6 27.9561H1002.1L996.149 21.8061H996.074V27.9561H994.374V9.05605H996.074Z" fill="white"/>
<path d="M618.566 100.326V107.951H616.766V100.326L610.141 90.2512H612.391L617.716 98.8262L623.091 90.2512H625.191L618.566 100.326ZM635.034 97.7012C636.217 98.8678 636.809 100.335 636.809 102.101C636.809 103.868 636.217 105.335 635.034 106.501C633.867 107.668 632.375 108.251 630.559 108.251C628.759 108.251 627.267 107.668 626.084 106.501C624.917 105.335 624.334 103.868 624.334 102.101C624.334 100.335 624.917 98.8678 626.084 97.7012C627.267 96.5345 628.759 95.9512 630.559 95.9512C632.375 95.9512 633.867 96.5345 635.034 97.7012ZM633.784 105.476C634.6 104.576 635.009 103.451 635.009 102.101C635.009 100.751 634.6 99.6262 633.784 98.7262C632.967 97.8262 631.892 97.3762 630.559 97.3762C629.242 97.3762 628.175 97.8262 627.359 98.7262C626.542 99.6262 626.134 100.751 626.134 102.101C626.134 103.435 626.542 104.551 627.359 105.451C628.175 106.351 629.242 106.801 630.559 106.801C631.892 106.801 632.967 106.36 633.784 105.476ZM650.592 107.951H648.967C648.9 107.118 648.867 106.451 648.867 105.951H648.817C648.5 106.618 647.958 107.168 647.192 107.601C646.442 108.035 645.65 108.251 644.817 108.251C643.367 108.251 642.258 107.818 641.492 106.951C640.742 106.085 640.367 104.91 640.367 103.426V96.2512H642.067V102.726C642.067 104.043 642.3 105.06 642.767 105.776C643.25 106.476 644.075 106.826 645.242 106.826C646.225 106.826 647.058 106.435 647.742 105.651C648.442 104.851 648.792 103.718 648.792 102.251V96.2512H650.492V105.376C650.492 106.376 650.525 107.235 650.592 107.951ZM670.993 97.9762L669.668 98.9262C669.385 98.4762 668.968 98.1095 668.418 97.8262C667.885 97.5262 667.301 97.3762 666.668 97.3762C665.335 97.3762 664.251 97.8262 663.418 98.7262C662.601 99.6095 662.193 100.735 662.193 102.101C662.193 103.451 662.601 104.576 663.418 105.476C664.235 106.36 665.31 106.801 666.643 106.801C667.993 106.801 669.051 106.293 669.818 105.276L671.093 106.226C669.993 107.576 668.51 108.251 666.643 108.251C664.776 108.251 663.268 107.676 662.118 106.526C660.968 105.36 660.393 103.885 660.393 102.101C660.393 100.318 660.968 98.8512 662.118 97.7012C663.268 96.5345 664.776 95.9512 666.643 95.9512C667.476 95.9512 668.285 96.1262 669.068 96.4762C669.868 96.8262 670.51 97.3262 670.993 97.9762ZM681.118 100.776V100.401C681.118 98.3845 680.076 97.3762 677.993 97.3762C676.593 97.3762 675.435 97.8345 674.518 98.7512L673.568 97.6262C674.685 96.5095 676.218 95.9512 678.168 95.9512C679.501 95.9512 680.593 96.3178 681.443 97.0512C682.293 97.7845 682.718 98.8345 682.718 100.201V105.326C682.718 106.376 682.785 107.251 682.918 107.951H681.393C681.276 107.285 681.218 106.651 681.218 106.051H681.168C680.151 107.518 678.735 108.251 676.918 108.251C675.868 108.251 674.926 107.96 674.093 107.376C673.276 106.776 672.868 105.885 672.868 104.701C672.868 104.118 672.968 103.61 673.168 103.176C673.368 102.726 673.668 102.36 674.068 102.076C674.468 101.793 674.901 101.568 675.368 101.401C675.835 101.218 676.41 101.085 677.093 101.001C677.776 100.901 678.41 100.843 678.993 100.826C679.593 100.793 680.301 100.776 681.118 100.776ZM681.118 102.101H680.618C679.818 102.101 679.101 102.135 678.468 102.201C677.851 102.251 677.226 102.36 676.593 102.526C675.976 102.693 675.493 102.951 675.143 103.301C674.793 103.651 674.618 104.093 674.618 104.626C674.618 105.393 674.885 105.96 675.418 106.326C675.951 106.676 676.601 106.851 677.368 106.851C678.518 106.851 679.426 106.476 680.093 105.726C680.776 104.976 681.118 104.06 681.118 102.976V102.101ZM686.998 96.2512H688.623C688.689 97.0845 688.723 97.7512 688.723 98.2512H688.773C689.089 97.5845 689.623 97.0345 690.373 96.6012C691.139 96.1678 691.939 95.9512 692.773 95.9512C694.223 95.9512 695.323 96.3845 696.073 97.2512C696.839 98.1178 697.223 99.2928 697.223 100.776V107.951H695.523V101.476C695.523 100.16 695.281 99.1512 694.798 98.4512C694.331 97.7345 693.514 97.3762 692.348 97.3762C691.364 97.3762 690.523 97.7762 689.823 98.5762C689.139 99.3595 688.798 100.485 688.798 101.951V107.951H687.098V98.8262C687.098 97.8262 687.064 96.9678 686.998 96.2512ZM709.674 105.976H709.624V107.951H707.924V89.0512H709.624V98.2762H709.674C710.157 97.5428 710.799 96.9762 711.599 96.5762C712.399 96.1595 713.232 95.9512 714.099 95.9512C715.899 95.9512 717.357 96.5428 718.474 97.7262C719.591 98.8928 720.149 100.351 720.149 102.101C720.149 103.851 719.591 105.318 718.474 106.501C717.357 107.668 715.899 108.251 714.099 108.251C713.232 108.251 712.399 108.051 711.599 107.651C710.799 107.251 710.157 106.693 709.674 105.976ZM717.149 105.476C717.949 104.576 718.349 103.451 718.349 102.101C718.349 100.751 717.949 99.6262 717.149 98.7262C716.366 97.8262 715.291 97.3762 713.924 97.3762C712.624 97.3762 711.549 97.8262 710.699 98.7262C709.849 99.6262 709.424 100.751 709.424 102.101C709.424 103.451 709.849 104.576 710.699 105.476C711.549 106.36 712.624 106.801 713.924 106.801C715.291 106.801 716.366 106.36 717.149 105.476ZM733.917 107.951H732.292C732.225 107.118 732.192 106.451 732.192 105.951H732.142C731.825 106.618 731.284 107.168 730.517 107.601C729.767 108.035 728.975 108.251 728.142 108.251C726.692 108.251 725.584 107.818 724.817 106.951C724.067 106.085 723.692 104.91 723.692 103.426V96.2512H725.392V102.726C725.392 104.043 725.625 105.06 726.092 105.776C726.575 106.476 727.4 106.826 728.567 106.826C729.55 106.826 730.384 106.435 731.067 105.651C731.767 104.851 732.117 103.718 732.117 102.251V96.2512H733.817V105.376C733.817 106.376 733.85 107.235 733.917 107.951ZM740.043 96.2512V107.951H738.343V96.2512H740.043ZM740.018 90.9012C740.268 91.1345 740.393 91.4178 740.393 91.7512C740.393 92.0845 740.268 92.3678 740.018 92.6012C739.785 92.8345 739.51 92.9512 739.193 92.9512C738.877 92.9512 738.593 92.8345 738.343 92.6012C738.11 92.3678 737.993 92.0845 737.993 91.7512C737.993 91.4178 738.11 91.1345 738.343 90.9012C738.593 90.6678 738.877 90.5512 739.193 90.5512C739.51 90.5512 739.785 90.6678 740.018 90.9012ZM746.318 89.0512V107.951H744.618V89.0512H746.318ZM760.492 105.976C760.009 106.693 759.367 107.251 758.567 107.651C757.767 108.051 756.934 108.251 756.067 108.251C754.267 108.251 752.809 107.668 751.692 106.501C750.576 105.318 750.017 103.851 750.017 102.101C750.017 100.351 750.576 98.8928 751.692 97.7262C752.809 96.5428 754.267 95.9512 756.067 95.9512C756.934 95.9512 757.767 96.1595 758.567 96.5762C759.367 96.9762 760.009 97.5428 760.492 98.2762H760.542V89.0512H762.242V107.951H760.542V105.976H760.492ZM752.992 98.7262C752.209 99.6262 751.817 100.751 751.817 102.101C751.817 103.451 752.209 104.576 752.992 105.476C753.792 106.36 754.876 106.801 756.242 106.801C757.542 106.801 758.617 106.36 759.467 105.476C760.317 104.576 760.742 103.451 760.742 102.101C760.742 100.751 760.317 99.6262 759.467 98.7262C758.617 97.8262 757.542 97.3762 756.242 97.3762C754.876 97.3762 753.792 97.8262 752.992 98.7262ZM780.41 100.776V100.401C780.41 98.3845 779.368 97.3762 777.285 97.3762C775.885 97.3762 774.727 97.8345 773.81 98.7512L772.86 97.6262C773.977 96.5095 775.51 95.9512 777.46 95.9512C778.793 95.9512 779.885 96.3178 780.735 97.0512C781.585 97.7845 782.01 98.8345 782.01 100.201V105.326C782.01 106.376 782.077 107.251 782.21 107.951H780.685C780.568 107.285 780.51 106.651 780.51 106.051H780.46C779.443 107.518 778.027 108.251 776.21 108.251C775.16 108.251 774.218 107.96 773.385 107.376C772.568 106.776 772.16 105.885 772.16 104.701C772.16 104.118 772.26 103.61 772.46 103.176C772.66 102.726 772.96 102.36 773.36 102.076C773.76 101.793 774.193 101.568 774.66 101.401C775.127 101.218 775.702 101.085 776.385 101.001C777.068 100.901 777.702 100.843 778.285 100.826C778.885 100.793 779.593 100.776 780.41 100.776ZM780.41 102.101H779.91C779.11 102.101 778.393 102.135 777.76 102.201C777.143 102.251 776.518 102.36 775.885 102.526C775.268 102.693 774.785 102.951 774.435 103.301C774.085 103.651 773.91 104.093 773.91 104.626C773.91 105.393 774.177 105.96 774.71 106.326C775.243 106.676 775.893 106.851 776.66 106.851C777.81 106.851 778.718 106.476 779.385 105.726C780.068 104.976 780.41 104.06 780.41 102.976V102.101ZM795.49 90.2512L801.49 104.901H801.515L807.44 90.2512H810.19V107.951H808.39V92.5762H808.34L801.94 107.951H800.99L794.59 92.5762H794.54V107.951H792.74V90.2512H795.49ZM816.508 96.2512V107.951H814.808V96.2512H816.508ZM816.483 90.9012C816.733 91.1345 816.858 91.4178 816.858 91.7512C816.858 92.0845 816.733 92.3678 816.483 92.6012C816.25 92.8345 815.975 92.9512 815.658 92.9512C815.342 92.9512 815.058 92.8345 814.808 92.6012C814.575 92.3678 814.458 92.0845 814.458 91.7512C814.458 91.4178 814.575 91.1345 814.808 90.9012C815.058 90.6678 815.342 90.5512 815.658 90.5512C815.975 90.5512 816.25 90.6678 816.483 90.9012ZM820.933 96.2512H822.558C822.625 97.0845 822.658 97.7512 822.658 98.2512H822.708C823.025 97.5845 823.558 97.0345 824.308 96.6012C825.075 96.1678 825.875 95.9512 826.708 95.9512C828.158 95.9512 829.258 96.3845 830.008 97.2512C830.775 98.1178 831.158 99.2928 831.158 100.776V107.951H829.458V101.476C829.458 100.16 829.217 99.1512 828.733 98.4512C828.267 97.7345 827.45 97.3762 826.283 97.3762C825.3 97.3762 824.458 97.7762 823.758 98.5762C823.075 99.3595 822.733 100.485 822.733 101.951V107.951H821.033V98.8262C821.033 97.8262 821 96.9678 820.933 96.2512ZM837.285 96.2512V107.951H835.585V96.2512H837.285ZM837.26 90.9012C837.51 91.1345 837.635 91.4178 837.635 91.7512C837.635 92.0845 837.51 92.3678 837.26 92.6012C837.026 92.8345 836.751 92.9512 836.435 92.9512C836.118 92.9512 835.835 92.8345 835.585 92.6012C835.351 92.3678 835.235 92.0845 835.235 91.7512C835.235 91.4178 835.351 91.1345 835.585 90.9012C835.835 90.6678 836.118 90.5512 836.435 90.5512C836.751 90.5512 837.026 90.6678 837.26 90.9012ZM843.485 98.2512C843.835 97.5678 844.351 97.0178 845.035 96.6012C845.735 96.1678 846.501 95.9512 847.335 95.9512C849.101 95.9512 850.301 96.7762 850.935 98.4262C851.751 96.7762 853.118 95.9512 855.035 95.9512C856.485 95.9512 857.585 96.3845 858.335 97.2512C859.101 98.1178 859.485 99.2928 859.485 100.776V107.951H857.785V101.476C857.785 98.7428 856.776 97.3762 854.76 97.3762C853.626 97.3762 852.785 97.8012 852.235 98.6512C851.701 99.4845 851.435 100.51 851.435 101.726V107.951H849.735V101.126C849.735 99.8928 849.526 98.9595 849.11 98.3262C848.71 97.6928 847.976 97.3762 846.91 97.3762C846.01 97.3762 845.218 97.7762 844.535 98.5762C843.851 99.3595 843.51 100.485 843.51 101.951V107.951H841.81V98.8262C841.81 97.8262 841.776 96.9678 841.71 96.2512H843.335C843.401 97.0845 843.435 97.7512 843.435 98.2512H843.485ZM874.005 107.951H872.38C872.313 107.118 872.28 106.451 872.28 105.951H872.23C871.913 106.618 871.372 107.168 870.605 107.601C869.855 108.035 869.063 108.251 868.23 108.251C866.78 108.251 865.672 107.818 864.905 106.951C864.155 106.085 863.78 104.91 863.78 103.426V96.2512H865.48V102.726C865.48 104.043 865.713 105.06 866.18 105.776C866.663 106.476 867.488 106.826 868.655 106.826C869.638 106.826 870.472 106.435 871.155 105.651C871.855 104.851 872.205 103.718 872.205 102.251V96.2512H873.905V105.376C873.905 106.376 873.938 107.235 874.005 107.951ZM880.081 98.2512C880.431 97.5678 880.948 97.0178 881.631 96.6012C882.331 96.1678 883.098 95.9512 883.931 95.9512C885.698 95.9512 886.898 96.7762 887.531 98.4262C888.348 96.7762 889.715 95.9512 891.631 95.9512C893.081 95.9512 894.181 96.3845 894.931 97.2512C895.698 98.1178 896.081 99.2928 896.081 100.776V107.951H894.381V101.476C894.381 98.7428 893.373 97.3762 891.356 97.3762C890.223 97.3762 889.381 97.8012 888.831 98.6512C888.298 99.4845 888.031 100.51 888.031 101.726V107.951H886.331V101.126C886.331 99.8928 886.123 98.9595 885.706 98.3262C885.306 97.6928 884.573 97.3762 883.506 97.3762C882.606 97.3762 881.815 97.7762 881.131 98.5762C880.448 99.3595 880.106 100.485 880.106 101.951V107.951H878.406V98.8262C878.406 97.8262 878.373 96.9678 878.306 96.2512H879.931C879.998 97.0845 880.031 97.7512 880.031 98.2512H880.081ZM906.062 90.2512L911.812 105.626H911.862L917.612 90.2512H919.537L912.762 107.951H910.862L904.112 90.2512H906.062ZM923.149 96.2512V107.951H921.449V96.2512H923.149ZM923.124 90.9012C923.374 91.1345 923.499 91.4178 923.499 91.7512C923.499 92.0845 923.374 92.3678 923.124 92.6012C922.89 92.8345 922.615 92.9512 922.299 92.9512C921.982 92.9512 921.699 92.8345 921.449 92.6012C921.215 92.3678 921.099 92.0845 921.099 91.7512C921.099 91.4178 921.215 91.1345 921.449 90.9012C921.699 90.6678 921.982 90.5512 922.299 90.5512C922.615 90.5512 922.89 90.6678 923.124 90.9012ZM935.049 100.776V100.401C935.049 98.3845 934.007 97.3762 931.924 97.3762C930.524 97.3762 929.365 97.8345 928.449 98.7512L927.499 97.6262C928.615 96.5095 930.149 95.9512 932.099 95.9512C933.432 95.9512 934.524 96.3178 935.374 97.0512C936.224 97.7845 936.649 98.8345 936.649 100.201V105.326C936.649 106.376 936.715 107.251 936.849 107.951H935.324C935.207 107.285 935.149 106.651 935.149 106.051H935.099C934.082 107.518 932.665 108.251 930.849 108.251C929.799 108.251 928.857 107.96 928.024 107.376C927.207 106.776 926.799 105.885 926.799 104.701C926.799 104.118 926.899 103.61 927.099 103.176C927.299 102.726 927.599 102.36 927.999 102.076C928.399 101.793 928.832 101.568 929.299 101.401C929.765 101.218 930.34 101.085 931.024 101.001C931.707 100.901 932.34 100.843 932.924 100.826C933.524 100.793 934.232 100.776 935.049 100.776ZM935.049 102.101H934.549C933.749 102.101 933.032 102.135 932.399 102.201C931.782 102.251 931.157 102.36 930.524 102.526C929.907 102.693 929.424 102.951 929.074 103.301C928.724 103.651 928.549 104.093 928.549 104.626C928.549 105.393 928.815 105.96 929.349 106.326C929.882 106.676 930.532 106.851 931.299 106.851C932.449 106.851 933.357 106.476 934.024 105.726C934.707 104.976 935.049 104.06 935.049 102.976V102.101ZM942.828 105.976H942.778V107.951H941.078V89.0512H942.778V98.2762H942.828C943.312 97.5428 943.953 96.9762 944.753 96.5762C945.553 96.1595 946.387 95.9512 947.253 95.9512C949.053 95.9512 950.512 96.5428 951.628 97.7262C952.745 98.8928 953.303 100.351 953.303 102.101C953.303 103.851 952.745 105.318 951.628 106.501C950.512 107.668 949.053 108.251 947.253 108.251C946.387 108.251 945.553 108.051 944.753 107.651C943.953 107.251 943.312 106.693 942.828 105.976ZM950.303 105.476C951.103 104.576 951.503 103.451 951.503 102.101C951.503 100.751 951.103 99.6262 950.303 98.7262C949.52 97.8262 948.445 97.3762 947.078 97.3762C945.778 97.3762 944.703 97.8262 943.853 98.7262C943.003 99.6262 942.578 100.751 942.578 102.101C942.578 103.451 943.003 104.576 943.853 105.476C944.703 106.36 945.778 106.801 947.078 106.801C948.445 106.801 949.52 106.36 950.303 105.476ZM958.696 89.0512V107.951H956.996V89.0512H958.696ZM964.195 101.201H972.17C972.12 100.068 971.753 99.1512 971.07 98.4512C970.403 97.7345 969.478 97.3762 968.295 97.3762C967.195 97.3762 966.253 97.7595 965.47 98.5262C964.703 99.2762 964.278 100.168 964.195 101.201ZM973.895 101.751C973.895 102.085 973.887 102.351 973.87 102.551H964.17C964.203 103.735 964.628 104.743 965.445 105.576C966.262 106.393 967.262 106.801 968.445 106.801C969.262 106.801 970.003 106.61 970.67 106.226C971.337 105.826 971.845 105.343 972.195 104.776L973.47 105.776C972.17 107.426 970.495 108.251 968.445 108.251C966.712 108.251 965.27 107.668 964.12 106.501C962.97 105.335 962.395 103.868 962.395 102.101C962.395 100.351 962.962 98.8928 964.095 97.7262C965.228 96.5428 966.628 95.9512 968.295 95.9512C970.062 95.9512 971.437 96.5012 972.42 97.6012C973.403 98.6845 973.895 100.068 973.895 101.751ZM983.902 107.951V90.2512H988.902C990.752 90.2512 992.21 90.6512 993.277 91.4512C994.343 92.2512 994.877 93.4262 994.877 94.9762C994.877 96.5262 994.335 97.7095 993.252 98.5262C992.168 99.3262 990.702 99.7262 988.852 99.7262H985.702V107.951H983.902ZM985.702 91.8012V98.2012H988.752C990.152 98.2012 991.218 97.9262 991.952 97.3762C992.702 96.8262 993.077 96.0262 993.077 94.9762C993.077 92.8595 991.635 91.8012 988.752 91.8012H985.702ZM997.107 98.8262C997.107 97.8262 997.074 96.9678 997.007 96.2512H998.632C998.699 97.0845 998.732 97.7512 998.732 98.2512H998.782C999.116 97.5678 999.616 97.0178 1000.28 96.6012C1000.97 96.1678 1001.72 95.9512 1002.53 95.9512C1002.98 95.9512 1003.36 95.9928 1003.66 96.0762L1003.43 97.6762C1003.17 97.5762 1002.77 97.5262 1002.23 97.5262C1001.25 97.5262 1000.43 97.9012 999.782 98.6512C999.132 99.3845 998.807 100.485 998.807 101.951V107.951H997.107V98.8262ZM1015.53 97.7012C1016.71 98.8678 1017.3 100.335 1017.3 102.101C1017.3 103.868 1016.71 105.335 1015.53 106.501C1014.36 107.668 1012.87 108.251 1011.05 108.251C1009.25 108.251 1007.76 107.668 1006.58 106.501C1005.41 105.335 1004.83 103.868 1004.83 102.101C1004.83 100.335 1005.41 98.8678 1006.58 97.7012C1007.76 96.5345 1009.25 95.9512 1011.05 95.9512C1012.87 95.9512 1014.36 96.5345 1015.53 97.7012ZM1014.28 105.476C1015.09 104.576 1015.5 103.451 1015.5 102.101C1015.5 100.751 1015.09 99.6262 1014.28 98.7262C1013.46 97.8262 1012.39 97.3762 1011.05 97.3762C1009.74 97.3762 1008.67 97.8262 1007.85 98.7262C1007.04 99.6262 1006.63 100.751 1006.63 102.101C1006.63 103.435 1007.04 104.551 1007.85 105.451C1008.67 106.351 1009.74 106.801 1011.05 106.801C1012.39 106.801 1013.46 106.36 1014.28 105.476ZM1030.58 105.976C1030.1 106.693 1029.46 107.251 1028.66 107.651C1027.86 108.051 1027.03 108.251 1026.16 108.251C1024.36 108.251 1022.9 107.668 1021.78 106.501C1020.67 105.318 1020.11 103.851 1020.11 102.101C1020.11 100.351 1020.67 98.8928 1021.78 97.7262C1022.9 96.5428 1024.36 95.9512 1026.16 95.9512C1027.03 95.9512 1027.86 96.1595 1028.66 96.5762C1029.46 96.9762 1030.1 97.5428 1030.58 98.2762H1030.63V89.0512H1032.33V107.951H1030.63V105.976H1030.58ZM1023.08 98.7262C1022.3 99.6262 1021.91 100.751 1021.91 102.101C1021.91 103.451 1022.3 104.576 1023.08 105.476C1023.88 106.36 1024.97 106.801 1026.33 106.801C1027.63 106.801 1028.71 106.36 1029.56 105.476C1030.41 104.576 1030.83 103.451 1030.83 102.101C1030.83 100.751 1030.41 99.6262 1029.56 98.7262C1028.71 97.8262 1027.63 97.3762 1026.33 97.3762C1024.97 97.3762 1023.88 97.8262 1023.08 98.7262ZM1047 107.951H1045.38C1045.31 107.118 1045.28 106.451 1045.28 105.951H1045.23C1044.91 106.618 1044.37 107.168 1043.6 107.601C1042.85 108.035 1042.06 108.251 1041.23 108.251C1039.78 108.251 1038.67 107.818 1037.9 106.951C1037.15 106.085 1036.78 104.91 1036.78 103.426V96.2512H1038.48V102.726C1038.48 104.043 1038.71 105.06 1039.18 105.776C1039.66 106.476 1040.49 106.826 1041.65 106.826C1042.64 106.826 1043.47 106.435 1044.15 105.651C1044.85 104.851 1045.2 103.718 1045.2 102.251V96.2512H1046.9V105.376C1046.9 106.376 1046.94 107.235 1047 107.951ZM1061.15 97.9762L1059.83 98.9262C1059.55 98.4762 1059.13 98.1095 1058.58 97.8262C1058.05 97.5262 1057.46 97.3762 1056.83 97.3762C1055.5 97.3762 1054.41 97.8262 1053.58 98.7262C1052.76 99.6095 1052.35 100.735 1052.35 102.101C1052.35 103.451 1052.76 104.576 1053.58 105.476C1054.4 106.36 1055.47 106.801 1056.8 106.801C1058.15 106.801 1059.21 106.293 1059.98 105.276L1061.25 106.226C1060.15 107.576 1058.67 108.251 1056.8 108.251C1054.94 108.251 1053.43 107.676 1052.28 106.526C1051.13 105.36 1050.55 103.885 1050.55 102.101C1050.55 100.318 1051.13 98.8512 1052.28 97.7012C1053.43 96.5345 1054.94 95.9512 1056.8 95.9512C1057.64 95.9512 1058.45 96.1262 1059.23 96.4762C1060.03 96.8262 1060.67 97.3262 1061.15 97.9762ZM1069.18 96.2512V97.6762H1065.88V104.501C1065.88 105.318 1066.03 105.885 1066.33 106.201C1066.63 106.501 1067.06 106.651 1067.63 106.651C1068.11 106.651 1068.6 106.526 1069.1 106.276L1069.18 107.751C1068.56 107.985 1067.9 108.101 1067.18 108.101C1066.38 108.101 1065.68 107.868 1065.08 107.401C1064.48 106.935 1064.18 106.126 1064.18 104.976V97.6762H1061.75V96.2512H1064.18V92.9512H1065.88V96.2512H1069.18ZM1083.04 96.2512V97.6762H1080.29V107.951H1078.59V97.6762H1076.14V96.2512H1078.59V93.0512C1078.59 91.7012 1078.92 90.6512 1079.59 89.9012C1080.26 89.1345 1081.25 88.7512 1082.56 88.7512C1083.1 88.7512 1083.56 88.8095 1083.96 88.9262L1083.66 90.4262C1083.26 90.3095 1082.87 90.2512 1082.49 90.2512C1081.64 90.2512 1081.06 90.5095 1080.74 91.0262C1080.44 91.5428 1080.29 92.2845 1080.29 93.2512V96.2512H1083.04ZM1095.31 97.7012C1096.5 98.8678 1097.09 100.335 1097.09 102.101C1097.09 103.868 1096.5 105.335 1095.31 106.501C1094.15 107.668 1092.65 108.251 1090.84 108.251C1089.04 108.251 1087.55 107.668 1086.36 106.501C1085.2 105.335 1084.61 103.868 1084.61 102.101C1084.61 100.335 1085.2 98.8678 1086.36 97.7012C1087.55 96.5345 1089.04 95.9512 1090.84 95.9512C1092.65 95.9512 1094.15 96.5345 1095.31 97.7012ZM1094.06 105.476C1094.88 104.576 1095.29 103.451 1095.29 102.101C1095.29 100.751 1094.88 99.6262 1094.06 98.7262C1093.25 97.8262 1092.17 97.3762 1090.84 97.3762C1089.52 97.3762 1088.45 97.8262 1087.64 98.7262C1086.82 99.6262 1086.41 100.751 1086.41 102.101C1086.41 103.435 1086.82 104.551 1087.64 105.451C1088.45 106.351 1089.52 106.801 1090.84 106.801C1092.17 106.801 1093.25 106.36 1094.06 105.476ZM1100.75 98.8262C1100.75 97.8262 1100.71 96.9678 1100.65 96.2512H1102.27C1102.34 97.0845 1102.37 97.7512 1102.37 98.2512H1102.42C1102.75 97.5678 1103.25 97.0178 1103.92 96.6012C1104.6 96.1678 1105.35 95.9512 1106.17 95.9512C1106.62 95.9512 1107 95.9928 1107.3 96.0762L1107.07 97.6762C1106.8 97.5762 1106.4 97.5262 1105.87 97.5262C1104.89 97.5262 1104.07 97.9012 1103.42 98.6512C1102.77 99.3845 1102.45 100.485 1102.45 101.951V107.951H1100.75V98.8262ZM1120.33 97.8012V91.3512C1119.45 91.3845 1118.7 91.7012 1118.1 92.3012C1117.52 92.8845 1117.23 93.6345 1117.23 94.5512C1117.23 96.1512 1118.26 97.2345 1120.33 97.8012ZM1121.53 99.9262V106.801C1122.4 106.768 1123.15 106.476 1123.8 105.926C1124.47 105.376 1124.8 104.535 1124.8 103.401C1124.8 102.585 1124.5 101.885 1123.9 101.301C1123.32 100.701 1122.53 100.243 1121.53 99.9262ZM1120.33 106.801V99.6262C1119.66 99.4262 1119.08 99.2095 1118.58 98.9762C1118.1 98.7428 1117.6 98.4428 1117.08 98.0762C1116.58 97.6928 1116.19 97.2178 1115.9 96.6512C1115.64 96.0845 1115.5 95.4345 1115.5 94.7012C1115.5 93.3012 1115.96 92.1762 1116.88 91.3262C1117.81 90.4762 1118.96 90.0178 1120.33 89.9512V88.1512H1121.53V89.9512C1122.38 89.9845 1123.23 90.1762 1124.08 90.5262C1124.93 90.8595 1125.62 91.3428 1126.15 91.9762L1124.78 93.0262C1124.01 91.9428 1122.93 91.3845 1121.53 91.3512V98.2262C1122.28 98.4928 1122.9 98.7512 1123.4 99.0012C1123.92 99.2345 1124.45 99.5595 1124.98 99.9762C1125.51 100.376 1125.91 100.876 1126.18 101.476C1126.46 102.06 1126.6 102.743 1126.6 103.526C1126.6 104.893 1126.12 106.018 1125.15 106.901C1124.19 107.768 1122.98 108.218 1121.53 108.251V110.051H1120.33V108.251C1118.16 108.201 1116.4 107.318 1115.05 105.601L1116.48 104.601C1116.9 105.285 1117.49 105.818 1118.25 106.201C1119.02 106.585 1119.71 106.785 1120.33 106.801ZM1137.21 90.2512V107.951H1135.41V92.4762L1132.21 95.2012L1131.11 93.9512L1135.61 90.2512H1137.21ZM1150.01 89.8012C1151.06 89.8012 1151.97 90.0678 1152.76 90.6012C1153.54 91.1178 1154.14 91.8345 1154.56 92.7512C1154.99 93.6678 1155.31 94.6595 1155.51 95.7262C1155.71 96.7762 1155.81 97.9095 1155.81 99.1262C1155.81 100.343 1155.71 101.476 1155.51 102.526C1155.31 103.576 1154.99 104.56 1154.56 105.476C1154.14 106.376 1153.54 107.093 1152.76 107.626C1151.97 108.143 1151.06 108.401 1150.01 108.401C1148.94 108.401 1148.02 108.143 1147.23 107.626C1146.45 107.093 1145.84 106.376 1145.41 105.476C1144.99 104.56 1144.68 103.585 1144.48 102.551C1144.3 101.501 1144.21 100.36 1144.21 99.1262C1144.21 98.1595 1144.27 97.2512 1144.38 96.4012C1144.5 95.5345 1144.69 94.6928 1144.96 93.8762C1145.24 93.0428 1145.6 92.3345 1146.03 91.7512C1146.47 91.1678 1147.02 90.7012 1147.68 90.3512C1148.37 89.9845 1149.14 89.8012 1150.01 89.8012ZM1150.01 91.3262C1149.26 91.3262 1148.61 91.5595 1148.06 92.0262C1147.52 92.4928 1147.12 93.1262 1146.83 93.9262C1146.55 94.7262 1146.34 95.5512 1146.21 96.4012C1146.09 97.2512 1146.03 98.1595 1146.03 99.1262C1146.03 100.093 1146.09 101.001 1146.21 101.851C1146.34 102.685 1146.55 103.501 1146.83 104.301C1147.12 105.085 1147.52 105.71 1148.06 106.176C1148.61 106.626 1149.26 106.851 1150.01 106.851C1150.74 106.851 1151.37 106.626 1151.91 106.176C1152.46 105.71 1152.87 105.085 1153.16 104.301C1153.44 103.518 1153.65 102.701 1153.78 101.851C1153.92 100.985 1153.98 100.076 1153.98 99.1262C1153.98 98.1762 1153.92 97.2678 1153.78 96.4012C1153.65 95.5345 1153.44 94.7095 1153.16 93.9262C1152.87 93.1262 1152.46 92.4928 1151.91 92.0262C1151.37 91.5595 1150.74 91.3262 1150.01 91.3262ZM1161.26 89.0512V101.526H1161.33L1166.73 96.2512H1169.18L1163.28 101.601L1169.78 107.951H1167.28L1161.33 101.801H1161.26V107.951H1159.56V89.0512H1161.26ZM1183.78 96.2512V97.6762H1180.48V104.501C1180.48 105.318 1180.63 105.885 1180.93 106.201C1181.23 106.501 1181.66 106.651 1182.23 106.651C1182.71 106.651 1183.2 106.526 1183.7 106.276L1183.78 107.751C1183.16 107.985 1182.5 108.101 1181.78 108.101C1180.98 108.101 1180.28 107.868 1179.68 107.401C1179.08 106.935 1178.78 106.126 1178.78 104.976V97.6762H1176.35V96.2512H1178.78V92.9512H1180.48V96.2512H1183.78ZM1196.29 97.7012C1197.47 98.8678 1198.06 100.335 1198.06 102.101C1198.06 103.868 1197.47 105.335 1196.29 106.501C1195.12 107.668 1193.63 108.251 1191.81 108.251C1190.01 108.251 1188.52 107.668 1187.34 106.501C1186.17 105.335 1185.59 103.868 1185.59 102.101C1185.59 100.335 1186.17 98.8678 1187.34 97.7012C1188.52 96.5345 1190.01 95.9512 1191.81 95.9512C1193.63 95.9512 1195.12 96.5345 1196.29 97.7012ZM1195.04 105.476C1195.86 104.576 1196.26 103.451 1196.26 102.101C1196.26 100.751 1195.86 99.6262 1195.04 98.7262C1194.22 97.8262 1193.15 97.3762 1191.81 97.3762C1190.5 97.3762 1189.43 97.8262 1188.61 98.7262C1187.8 99.6262 1187.39 100.751 1187.39 102.101C1187.39 103.435 1187.8 104.551 1188.61 105.451C1189.43 106.351 1190.5 106.801 1191.81 106.801C1193.15 106.801 1194.22 106.36 1195.04 105.476ZM1212.3 97.8012V91.3512C1211.41 91.3845 1210.67 91.7012 1210.07 92.3012C1209.49 92.8845 1209.2 93.6345 1209.2 94.5512C1209.2 96.1512 1210.23 97.2345 1212.3 97.8012ZM1213.5 99.9262V106.801C1214.36 106.768 1215.12 106.476 1215.77 105.926C1216.44 105.376 1216.77 104.535 1216.77 103.401C1216.77 102.585 1216.47 101.885 1215.87 101.301C1215.29 100.701 1214.5 100.243 1213.5 99.9262ZM1212.3 106.801V99.6262C1211.63 99.4262 1211.05 99.2095 1210.55 98.9762C1210.06 98.7428 1209.56 98.4428 1209.05 98.0762C1208.55 97.6928 1208.16 97.2178 1207.87 96.6512C1207.61 96.0845 1207.47 95.4345 1207.47 94.7012C1207.47 93.3012 1207.93 92.1762 1208.85 91.3262C1209.78 90.4762 1210.93 90.0178 1212.3 89.9512V88.1512H1213.5V89.9512C1214.35 89.9845 1215.2 90.1762 1216.05 90.5262C1216.9 90.8595 1217.59 91.3428 1218.12 91.9762L1216.75 93.0262C1215.98 91.9428 1214.9 91.3845 1213.5 91.3512V98.2262C1214.25 98.4928 1214.87 98.7512 1215.37 99.0012C1215.89 99.2345 1216.41 99.5595 1216.95 99.9762C1217.48 100.376 1217.88 100.876 1218.15 101.476C1218.43 102.06 1218.57 102.743 1218.57 103.526C1218.57 104.893 1218.09 106.018 1217.12 106.901C1216.16 107.768 1214.95 108.218 1213.5 108.251V110.051H1212.3V108.251C1210.13 108.201 1208.37 107.318 1207.02 105.601L1208.45 104.601C1208.86 105.285 1209.46 105.818 1210.22 106.201C1210.99 106.585 1211.68 106.785 1212.3 106.801ZM1232.82 106.351V107.951H1221.5V106.076L1228.75 98.7512C1230.17 97.3012 1230.87 95.9512 1230.87 94.7012C1230.87 93.7012 1230.53 92.8928 1229.85 92.2762C1229.18 91.6428 1228.36 91.3262 1227.37 91.3262C1226.44 91.3262 1225.65 91.6178 1225 92.2012C1224.35 92.7845 1223.92 93.5428 1223.72 94.4762L1221.95 94.1262C1222.2 92.8595 1222.82 91.8262 1223.82 91.0262C1224.82 90.2095 1226.01 89.8012 1227.37 89.8012C1228.89 89.8012 1230.16 90.2262 1231.17 91.0762C1232.19 91.9262 1232.7 93.1262 1232.7 94.6762C1232.7 95.7095 1232.46 96.6262 1231.97 97.4262C1231.49 98.2095 1230.77 99.0762 1229.82 100.026L1223.45 106.351H1232.82ZM1241.98 89.8012C1243.03 89.8012 1243.94 90.0678 1244.73 90.6012C1245.51 91.1178 1246.11 91.8345 1246.53 92.7512C1246.96 93.6678 1247.28 94.6595 1247.48 95.7262C1247.68 96.7762 1247.78 97.9095 1247.78 99.1262C1247.78 100.343 1247.68 101.476 1247.48 102.526C1247.28 103.576 1246.96 104.56 1246.53 105.476C1246.11 106.376 1245.51 107.093 1244.73 107.626C1243.94 108.143 1243.03 108.401 1241.98 108.401C1240.91 108.401 1239.98 108.143 1239.2 107.626C1238.42 107.093 1237.81 106.376 1237.38 105.476C1236.96 104.56 1236.65 103.585 1236.45 102.551C1236.27 101.501 1236.18 100.36 1236.18 99.1262C1236.18 98.1595 1236.23 97.2512 1236.35 96.4012C1236.47 95.5345 1236.66 94.6928 1236.93 93.8762C1237.21 93.0428 1237.57 92.3345 1238 91.7512C1238.43 91.1678 1238.98 90.7012 1239.65 90.3512C1240.33 89.9845 1241.11 89.8012 1241.98 89.8012ZM1241.98 91.3262C1241.23 91.3262 1240.58 91.5595 1240.03 92.0262C1239.49 92.4928 1239.08 93.1262 1238.8 93.9262C1238.52 94.7262 1238.31 95.5512 1238.18 96.4012C1238.06 97.2512 1238 98.1595 1238 99.1262C1238 100.093 1238.06 101.001 1238.18 101.851C1238.31 102.685 1238.52 103.501 1238.8 104.301C1239.08 105.085 1239.49 105.71 1240.03 106.176C1240.58 106.626 1241.23 106.851 1241.98 106.851C1242.71 106.851 1243.34 106.626 1243.88 106.176C1244.43 105.71 1244.84 105.085 1245.13 104.301C1245.41 103.518 1245.62 102.701 1245.75 101.851C1245.88 100.985 1245.95 100.076 1245.95 99.1262C1245.95 98.1762 1245.88 97.2678 1245.75 96.4012C1245.62 95.5345 1245.41 94.7095 1245.13 93.9262C1244.84 93.1262 1244.43 92.4928 1243.88 92.0262C1243.34 91.5595 1242.71 91.3262 1241.98 91.3262ZM1253.23 89.0512V101.526H1253.3L1258.7 96.2512H1261.15L1255.25 101.601L1261.75 107.951H1259.25L1253.3 101.801H1253.23V107.951H1251.53V89.0512H1253.23Z" fill="white"/>
<path d="M531.482 106.449C531.482 107.922 532.676 109.116 534.148 109.116C535.621 109.116 536.815 107.922 536.815 106.449C536.815 104.977 535.621 103.783 534.148 103.783C532.676 103.783 531.482 104.977 531.482 106.449ZM609.139 46.9531V46.4531H608.965L608.828 46.5614L609.139 46.9531ZM534.459 106.841L609.45 47.3448L608.828 46.5614L533.838 106.058L534.459 106.841ZM609.139 47.4531H1005.09V46.4531H609.139V47.4531Z" fill="#02C476"/>
</svg>
