<svg width="62" height="60" viewBox="0 0 62 60" fill="none" xmlns="http://www.w3.org/2000/svg">
<g clip-path="url(#clip0_2943_18902)">
<path d="M31.0058 0H30.9907C14.263 0 0.660156 13.455 0.660156 30C0.660156 36.5625 2.79899 42.645 6.43577 47.5838L2.65489 58.7288L14.3161 55.0425C19.1133 58.185 24.8358 60 31.0058 60C47.7335 60 61.3364 46.5412 61.3364 30C61.3364 13.4588 47.7335 0 31.0058 0ZM48.6588 42.3638C47.9269 44.4075 45.022 46.1025 42.705 46.5975C41.1198 46.9312 39.0492 47.1975 32.0791 44.34C23.1634 40.6875 17.422 31.7287 16.9745 31.1475C16.5459 30.5662 13.3718 26.4038 13.3718 22.0988C13.3718 17.7938 15.5827 15.6975 16.4739 14.7975C17.2058 14.0588 18.4155 13.7212 19.576 13.7212C19.9514 13.7212 20.2889 13.74 20.5923 13.755C21.4835 13.7925 21.931 13.845 22.5188 15.2363C23.2507 16.98 25.033 21.285 25.2454 21.7275C25.4616 22.17 25.6777 22.77 25.3743 23.3513C25.0899 23.9513 24.8396 24.2175 24.3921 24.7275C23.9446 25.2375 23.5199 25.6275 23.0724 26.175C22.6629 26.6513 22.2002 27.1613 22.716 28.0425C23.2317 28.905 25.0141 31.7812 27.6383 34.0912C31.0248 37.0725 33.7704 38.025 34.7526 38.43C35.4845 38.73 36.3567 38.6588 36.8914 38.0963C37.5702 37.3725 38.4083 36.1725 39.2616 34.9913C39.8684 34.1438 40.6344 34.0387 41.4384 34.3387C42.2575 34.62 46.592 36.7387 47.4832 37.1775C48.3744 37.62 48.9622 37.83 49.1784 38.2013C49.3907 38.5725 49.3907 40.3162 48.6588 42.3638Z" fill="#02C476"/>
</g>
<defs>
<clipPath id="clip0_2943_18902">
<rect width="60.6762" height="60" fill="white" transform="translate(0.660156)"/>
</clipPath>
</defs>
</svg>
